{
    "_id": "f42l4cQyhNOLs19j",
    "data": {
        "attributes": {
            "ac": {
                "value": 26
            },
            "hardness": 0,
            "hasHealth": true,
            "hp": {
                "details": "",
                "max": 54,
                "temp": 0,
                "tempmax": 0,
                "value": 54
            },
            "stealth": {
                "details": "(expert)",
                "value": 25
            }
        },
        "creatureType": "",
        "details": {
            "description": "A trip wire halfway up the stairs releases half a dozen spherical thunderstones that bounce down the stairs and explode.",
            "disable": "DC 27 Thievery (expert) to safely cut the trip wire",
            "isComplex": false,
            "level": 7,
            "reset": "",
            "routine": ""
        },
        "flavourText": "",
        "nethysUrl": "",
        "recallKnowledgeText": "",
        "saves": {
            "fortitude": {
                "rank": 0,
                "saveDetail": "",
                "value": null
            },
            "reflex": {
                "rank": 0,
                "saveDetail": "",
                "value": null
            },
            "will": {
                "rank": 0,
                "saveDetail": "",
                "value": null
            }
        },
        "schema": {
            "version": {
                "value": ""
            }
        },
        "sidebarText": "",
        "source": {
            "value": ""
        },
        "statusEffects": [],
        "traits": {
            "ci": [],
            "di": {
                "custom": "",
                "selected": {},
                "value": [
                    "critical-hits",
                    "object-immunities",
                    "precision-damage"
                ]
            },
            "dr": [],
            "dv": [],
            "traits": {
                "custom": "",
                "value": [
                    "mechanical",
                    "uncommon"
                ]
            }
        }
    },
    "effects": [],
    "flags": {
        "pf2e": {
            "editHazard": {
                "value": false
            }
        },
        "pf2e_updatednpcsheet": {
            "npcNotes": {
                "value": ""
            }
        }
    },
    "items": [
        {
            "_id": "JTK8CW0TwOok1X9Z",
            "data": {
                "actionCategory": {
                    "value": ""
                },
                "actionType": {
                    "value": "reaction"
                },
                "actions": {
                    "value": ""
                },
                "description": {
                    "chat": "",
                    "unidentified": "",
                    "value": "<p><strong>Trigger </strong> The trip wire is disturbed;</p>\n<p><strong>Effect </strong> Several thunderstones bounce down the stairs and explode. Each creature within 10 feet of the lower half of the stairs takes <a class=\"inline-roll roll\" title=\"sonic\" data-mode=\"roll\" data-flavor=\"sonic\" data-formula=\"6d10\"> 6d10</a> sonic damage (DC 24 basic Fortitude save). Creatures that fail this save are additionally <a class=\"entity-link\" draggable=\"true\" data-pack=\"pf2e.conditionitems\" data-id=\"9PR9y0bi4JPKnHPR\"> Deafened</a> for 1 minute; creatures that critically fail this save are instead deafened for 1 hour.</p>"
                },
                "rarity": {
                    "value": "common"
                },
                "requirements": {
                    "value": ""
                },
                "rules": [],
                "skill_requirement": {
                    "skill": {
                        "rank": "",
                        "skill": ""
                    }
                },
                "skill_requirements": {
                    "rank": "",
                    "skill": ""
                },
                "source": {
                    "value": ""
                },
                "traits": {
                    "value": []
                },
                "trigger": {
                    "value": ""
                },
                "usage": {
                    "value": "held-in-one-hand"
                },
                "weapon": {
                    "value": ""
                }
            },
            "effects": [],
            "flags": {},
            "img": "systems/pf2e/icons/actions/Reaction.png",
            "name": "Thunderstone Explosion",
            "sort": 100000,
            "type": "action"
        }
    ],
    "name": "Thunderstone Cascade Trap",
    "permission": {
        "default": 0
    },
    "token": {
        "actorId": "f42l4cQyhNOLs19j",
        "actorLink": false,
        "bar1": {
            "attribute": "attributes.hp"
        },
        "bar2": {},
        "brightLight": 0,
        "brightSight": 0,
        "dimLight": 0,
        "dimSight": 0,
        "displayBars": 20,
        "displayName": 20,
        "disposition": -1,
        "flags": {},
        "height": 1,
        "img": "icons/svg/mystery-man.svg",
        "lightAlpha": 1,
        "lightAngle": 360,
        "lightAnimation": {
            "intensity": 5,
            "speed": 5
        },
        "lockRotation": false,
        "name": "Thunderstone Cascade Trap",
        "randomImg": false,
        "rotation": 0,
        "scale": 1,
        "sightAngle": 360,
        "tint": null,
        "vision": false,
        "width": 1
    },
    "type": "hazard"
}
