{
    "_id": "idZxjeEv8B3x44r1",
    "content": "<p><span class=\"fontstyle0\">You were captured by marauding giants and fought your way free. </span></p>\n<p><span class=\"fontstyle0\">Add the <a class=\"entity-link\" draggable=\"true\" data-pack=\"pf2e.feats-srd\" data-id=\"KxaYlC50zzHysJj8\"><i class=\"fas fa-suitcase\"></i> Titan Wrestler</a> skill feat to your background options</span> <br style=\"font-style: normal; font-variant: normal; font-weight: normal; letter-spacing: normal; line-height: normal; orphans: 2; text-align: -webkit-auto; text-indent: 0px; text-transform: none; white-space: normal; widows: 2; word-spacing: 0px; -webkit-text-size-adjust: auto; -webkit-text-stroke-width: 0px;\"><br></p>",
    "flags": {},
    "name": "Captured by Giants",
    "permission": {
        "default": 0
    }
}
