{
    "_id": "dcP3oqjsl85p6R2Z",
    "content": "<p><span class=\"fontstyle0\">You were kidnapped at some point in your childhood and had to escape, perhaps by pirates, slavers, a cult, or someone else. </span></p>\n<p><span class=\"fontstyle0\">Add the <a class=\"entity-link\" draggable=\"true\" data-pack=\"pf2e.feats-srd\" data-id=\"3G8xUlgCjRmRJNfP\"><i class=\"fas fa-suitcase\"></i> Quick Squeeze</a> skill feat to your background options.</span> <br style=\"font-style: normal; font-variant: normal; font-weight: normal; letter-spacing: normal; line-height: normal; orphans: 2; text-align: -webkit-auto; text-indent: 0px; text-transform: none; white-space: normal; widows: 2; word-spacing: 0px; -webkit-text-size-adjust: auto; -webkit-text-stroke-width: 0px;\"><br></p>",
    "flags": {},
    "name": "Kidnapped",
    "permission": {
        "default": 0
    }
}
