{
    "_id": "OHKKQ7zTf61vz35h",
    "content": "<p>You and this character worked together to free some captives—including one of your friends or relatives—from a gang of slavers.</p>\n<p>Add the <a class=\"entity-link\" draggable=\"true\" data-pack=\"pf2e.feats-srd\" data-id=\"HEBXaS656MZTiWFu\"><i class=\"fas fa-suitcase\"></i> Lengthy Diversion</a> skill feat to your background options.</p>",
    "flags": {},
    "name": "Liberators",
    "permission": {
        "default": 0
    }
}
