{
    "_id": "a0mJO7io1hcwMAjJ",
    "content": "<p><span class=\"fontstyle0\">Whether lured to the wilderness by a malevolent force or simply lost, you had to survive on your own for a while. Add the <a class=\"entity-link\" draggable=\"true\" data-pack=\"pf2e.feats-srd\" data-id=\"tGIXuk0XeWmG04CX\"><i class=\"fas fa-suitcase\"></i> Survey Wildlife</a> skill feat to your background options.</span> <br style=\"font-style: normal; font-variant: normal; font-weight: normal; letter-spacing: normal; line-height: normal; orphans: 2; text-align: -webkit-auto; text-indent: 0px; text-transform: none; white-space: normal; widows: 2; word-spacing: 0px; -webkit-text-size-adjust: auto; -webkit-text-stroke-width: 0px;\"><br></p>",
    "flags": {},
    "name": "Lost in the Wilderness",
    "permission": {
        "default": 0
    }
}
