{
    "_id": "xmgvqyfwYPBXVELo",
    "content": "<p><span class=\"fontstyle0\">When you were a child, you made contact with a magical creature, such as a dragon, unicorn, genie, pixie, or similar creature. </span></p>\n<p><span class=\"fontstyle0\">Add the <a class=\"entity-link\" draggable=\"true\" data-pack=\"pf2e.feats-srd\" data-id=\"MjQyTcV8Jiv1Jtln\"><i class=\"fas fa-suitcase\"></i> Recognize Spell</a> skill feat to your background options.</span> <br style=\"font-style: normal; font-variant: normal; font-weight: normal; letter-spacing: normal; line-height: normal; orphans: 2; text-align: -webkit-auto; text-indent: 0px; text-transform: none; white-space: normal; widows: 2; word-spacing: 0px; -webkit-text-size-adjust: auto; -webkit-text-stroke-width: 0px;\"><br></p>",
    "flags": {},
    "name": "Met a Fantastic Creature",
    "permission": {
        "default": 0
    }
}
