{
    "_id": "CwyYDIAAuRll2i5R",
    "content": "<p>You were close to a person who claimed to see the future&mdash;perhaps an oracle, seer, prophet, or merely some festival charlatan. The seer's influence either made you into an optimist with a drive to fulfill that future or a fatalist resigned to accept it.</p>\n<p>Add a Wisdom ability boost to your background options.</p>",
    "flags": {},
    "name": "The Seer",
    "permission": {
        "default": 0
    }
}
