{
    "_id": "YsY9euHOGCGc3mTE",
    "content": "<p><span class=\"fontstyle0\">You distinguished yourself at an early age when you won a competition. This might have been a martial contest of arms, a showing of apprentice magicians, high-stakes gambling, or something more mundane, like an eating contest.<br></span></p>\n<p><span class=\"fontstyle0\">Add the <a class=\"entity-link\" draggable=\"true\" data-pack=\"pf2e.feats-srd\" data-id=\"7LB00jkh6JaJr3vS\"><i class=\"fas fa-suitcase\"></i> Fascinating Performance</a> skill feat to your background options.</span> <br style=\"font-style: normal; font-variant: normal; font-weight: normal; letter-spacing: normal; line-height: normal; orphans: 2; text-align: -webkit-auto; text-indent: 0px; text-transform: none; white-space: normal; widows: 2; word-spacing: 0px; -webkit-text-size-adjust: auto; -webkit-text-stroke-width: 0px;\"><br></p>",
    "flags": {},
    "name": "Won a Competition",
    "permission": {
        "default": 0
    }
}
