{
    "_id": "RuQNK9zaRqpe45H9",
    "content": "<p>Uncharted realms have always intrigued you, and you’ve explored and mapped large territories in service to merchants, governments, or your own curiosity. Where some see a blank spot on a map, you see the potential for something new and undiscovered.</p>\n<p>Choose two ability boosts. One must be to <strong>Constitution </strong>or <strong>Wisdom</strong>, and one is a free ability boost.</p>\n<p>You’re trained in the Survival skill and the Cartography Lore skill. You gain the <a class=\"entity-link\" draggable=\"true\" data-pack=\"pf2e.feats-srd\" data-id=\"4tTkRyOQ0VuRBac3\"><i class=\"fas fa-suitcase\"></i> Terrain Expertise</a> skill feat with one terrain you’ve explored (such as forest or underground).</p>",
    "flags": {
        "core": {
            "sourceId": "JournalEntry.umxzWs40dW7kWvIG"
        }
    },
    "name": "Trailblazer",
    "permission": {
        "default": 0
    }
}
