{
    "_id": "KVXcrw446rzYRdpy",
    "data": {
        "description": {
            "chat": "",
            "unidentified": "",
            "value": "<div><strong>Armor</strong> studded leather armor</div>\n<div><strong>Weapons</strong> dagger, sling with 20 sling bullets</div>\n<div><strong>Gear</strong> adventurer’s pack, alchemist’s tools, bandolier, basic</div>\n<div>crafter’s book, 2 sets of caltrops, sheath</div>\n<div><strong>Options</strong> <a class=\"entity-link\" data-pack=\"pf2e.equipment-srd\" data-id=\"vLGDUFrg4yGzpTQX\" draggable=\"true\"><i class=\"fas fa-suitcase\"></i> Repair Kit</a> (2 gp)</div>"
        },
        "equippedBulk": {
            "value": ""
        },
        "items": {
            "7lnrd": {
                "id": "UCH4myuFnokGv0vF",
                "img": "systems/pf2e/icons/equipment/sling.png",
                "isContainer": false,
                "items": {},
                "name": "Sling",
                "pack": "pf2e.equipment-srd",
                "quantity": 1
            },
            "appo5": {
                "id": "rQWaJhI5Bko5x14Z",
                "img": "systems/pf2e/icons/equipment/dagger.png",
                "isContainer": false,
                "items": {},
                "name": "Dagger",
                "pack": "pf2e.equipment-srd",
                "quantity": 1
            },
            "d99lx": {
                "id": "ewQZ0VeL38v3qFnN",
                "img": "systems/pf2e/icons/equipment/armor/studded-leather-armor.jpg",
                "isContainer": false,
                "items": {},
                "name": "Studded Leather Armor",
                "pack": "pf2e.equipment-srd",
                "quantity": 1
            },
            "dcy04": {
                "id": "HamOU17sqb5ljiB5",
                "img": "systems/pf2e/icons/equipment/adventuring-gear/bandolier.jpg",
                "isContainer": false,
                "items": {},
                "name": "Bandolier",
                "pack": "pf2e.equipment-srd",
                "quantity": 1
            },
            "e42nw": {
                "id": "B6B7tBWJSqOBz5zz",
                "img": "systems/pf2e/icons/equipment/treasure/currency/gold-pieces.jpg",
                "isContainer": false,
                "items": {},
                "name": "Gold Pieces",
                "pack": "pf2e.equipment-srd",
                "quantity": 7
            },
            "fwdph": {
                "id": "7fSnvJ2xoSfa6JXD",
                "img": "systems/pf2e/icons/equipment/adventuring-gear/caltrops.jpg",
                "isContainer": false,
                "items": {},
                "name": "Caltrops",
                "pack": "pf2e.equipment-srd",
                "quantity": 2
            },
            "g7kr9": {
                "id": "2req0jGaxz8hScdB",
                "img": "systems/pf2e/icons/equipment/adventuring-gear/adventurers-pack.jpg",
                "isContainer": true,
                "items": {},
                "name": "Adventurer's Pack",
                "pack": "pf2e.equipment-srd",
                "quantity": 1
            },
            "nn2p9": {
                "id": "Zycu6zaGvDsqLH5g",
                "img": "systems/pf2e/icons/equipment/adventuring-gear/sheath.jpg",
                "isContainer": false,
                "items": {},
                "name": "Sheath",
                "pack": "pf2e.equipment-srd",
                "quantity": 1
            },
            "q5v8n": {
                "id": "5Ew82vBF9YfaiY9f",
                "img": "systems/pf2e/icons/equipment/treasure/currency/silver-pieces.jpg",
                "isContainer": false,
                "items": {},
                "name": "Silver Pieces",
                "pack": "pf2e.equipment-srd",
                "quantity": 4
            },
            "qp7qs": {
                "id": "4ftXXUCBHcf4b0MH",
                "img": "systems/pf2e/icons/equipment/alchemists-tools.jpg",
                "isContainer": false,
                "items": {},
                "name": "Alchemist's Tools",
                "pack": "pf2e.equipment-srd",
                "quantity": 1
            },
            "qsu8r": {
                "id": "MKSeXwUm56c15MZa",
                "img": "systems/pf2e/icons/equipment/weapons/sling-bullets.jpg",
                "isContainer": false,
                "items": {},
                "name": "Sling Bullets",
                "pack": "pf2e.equipment-srd",
                "quantity": 20
            },
            "wgkjq": {
                "id": "w4Hd6nunVVqw3GWj",
                "img": "systems/pf2e/icons/equipment/adventuring-gear/basic-crafters-book.jpg",
                "isContainer": false,
                "items": {},
                "name": "Basic Crafter's Book",
                "pack": "pf2e.equipment-srd",
                "quantity": 1
            }
        },
        "price": {
            "value": "7 gp, 6 sp"
        },
        "rarity": {
            "value": "common"
        },
        "source": {
            "value": ""
        },
        "traits": {
            "custom": "",
            "rarity": {
                "value": "common"
            },
            "value": [
                "alchemist"
            ]
        },
        "usage": {
            "value": "held-in-one-hand"
        },
        "weight": {
            "value": "-"
        }
    },
    "effects": [],
    "flags": {},
    "img": "systems/pf2e/icons/equipment/adventuring-gear/classkit-alchemist.jpg",
    "name": "Class Kit (Alchemist)",
    "permission": {
        "default": 0
    },
    "type": "kit"
}
