{
    "_id": "9RxYSGp86HKtK8R8",
    "data": {
        "description": {
            "chat": "",
            "unidentified": "",
            "value": "<div><strong>Armor</strong> leather armor</div>\n<div><strong>Weapons</strong> hand crossbow with 20 bolts, rapier</div>\n<div><strong>Gear</strong> adventurer’s pack</div>\n<div><strong>Options</strong> <a class=\"entity-link\" draggable=\"true\" data-pack=\"pf2e.equipment-srd\" data-id=\"1k3AsSW7lpU0kEpY\"><i class=\"fas fa-suitcase\"></i> Buckler</a> (1 gp), <a class=\"entity-link\" draggable=\"true\" data-pack=\"pf2e.equipment-srd\" data-id=\"DA3HgyEBGEbtRNOo\"><i class=\"fas fa-suitcase\"></i> Dueling Cape</a> (5 sp), <a class=\"entity-link\" draggable=\"true\" data-pack=\"pf2e.equipment-srd\" data-id=\"jJZbdMHMdh8UL2j8\"><i class=\"fas fa-suitcase\"></i> Clothing (Fine)</a> (2 gp), <a class=\"entity-link\" draggable=\"true\" data-pack=\"pf2e.equipment-srd\" data-id=\"6DCy7tEF1cxaIJMy\"><i class=\"fas fa-suitcase\"></i> Grappling Hook</a> (1 sp), <a class=\"entity-link\" draggable=\"true\" data-pack=\"pf2e.equipment-srd\" data-id=\"iWcw1sFLAzByVLBP\"><i class=\"fas fa-suitcase\"></i> Main-Gauche</a> (5 sp)</div>"
        },
        "equippedBulk": {
            "value": ""
        },
        "items": {
            "5w4vt": {
                "id": "tH5GirEy7YB3ZgCk",
                "img": "systems/pf2e/icons/equipment/weapons/rapier.jpg",
                "isContainer": false,
                "items": {},
                "name": "Rapier",
                "pack": "pf2e.equipment-srd",
                "quantity": 1
            },
            "h5vlg": {
                "id": "AITVZmakiu3RgfKo",
                "img": "systems/pf2e/icons/equipment/weapons/bolts.jpg",
                "isContainer": false,
                "items": {},
                "name": "Bolts",
                "pack": "pf2e.equipment-srd",
                "quantity": 20
            },
            "otigy": {
                "id": "2req0jGaxz8hScdB",
                "img": "systems/pf2e/icons/equipment/adventuring-gear/adventurers-pack.jpg",
                "isContainer": true,
                "items": {},
                "name": "Adventurer's Pack",
                "pack": "pf2e.equipment-srd",
                "quantity": 1
            },
            "vdpu6": {
                "id": "5Ew82vBF9YfaiY9f",
                "img": "systems/pf2e/icons/equipment/treasure/currency/silver-pieces.jpg",
                "isContainer": false,
                "items": {},
                "name": "Silver Pieces",
                "pack": "pf2e.equipment-srd",
                "quantity": 3
            },
            "vf389": {
                "id": "4tIVTg9wj56RrveA",
                "img": "systems/pf2e/icons/equipment/armor/leather-armor.jpg",
                "isContainer": false,
                "items": {},
                "name": "Leather Armor",
                "pack": "pf2e.equipment-srd",
                "quantity": 1
            },
            "wvr9k": {
                "id": "XyA6PKV46aNlLXOd",
                "img": "systems/pf2e/icons/equipment/weapons/hand-crossbow.jpg",
                "isContainer": false,
                "items": {},
                "name": "Hand Crossbow",
                "pack": "pf2e.equipment-srd",
                "quantity": 1
            },
            "yq3yz": {
                "id": "B6B7tBWJSqOBz5zz",
                "img": "systems/pf2e/icons/equipment/treasure/currency/gold-pieces.jpg",
                "isContainer": false,
                "items": {},
                "name": "Gold Pieces",
                "pack": "pf2e.equipment-srd",
                "quantity": 6
            }
        },
        "price": {
            "value": "8 gp, 7 sp"
        },
        "rarity": {
            "value": "common"
        },
        "source": {
            "value": ""
        },
        "traits": {
            "custom": "",
            "rarity": {
                "value": "common"
            },
            "value": [
                "swashbuckler"
            ]
        },
        "usage": {
            "value": "held-in-one-hand"
        },
        "weight": {
            "value": "-"
        }
    },
    "effects": [],
    "flags": {},
    "img": "systems/pf2e/icons/equipment/adventuring-gear/classkit-swashbuckler.jpg",
    "name": "Class Kit (Swashbuckler)",
    "permission": {
        "default": 0
    },
    "type": "kit"
}
