{
    "_id": "pH85KVl31VBdENuy",
    "description": "Table of 19th-Level Consumables Items",
    "displayRoll": true,
    "flags": {
        "core": {
            "sourceId": "RollTable.j9HrbF52UYJ0bkQM"
        }
    },
    "formula": "1d21",
    "img": "icons/svg/d20-grey.svg",
    "name": "19th-Level Consumables Items",
    "permission": {
        "default": 0
    },
    "replacement": true,
    "results": [
        {
            "_id": "iuSSheLQjzPygiFM",
            "collection": "pf2e.equipment-srd",
            "drawn": false,
            "flags": {},
            "img": "systems/pf2e/icons/equipment/consumables/ammunition/spellstrike-ammunition.jpg",
            "range": [
                1,
                6
            ],
            "resultId": "aAGjV3wkopQ44VX3",
            "text": "Spellstrike Ammunition (Type IX)",
            "type": 2,
            "weight": 6
        },
        {
            "_id": "N95sHUg7TL7QPGQy",
            "collection": "pf2e.equipment-srd",
            "drawn": false,
            "flags": {},
            "img": "systems/pf2e/icons/equipment/alchemical-items/alchemical-elixirs/elixir-of-life.jpg",
            "range": [
                7,
                12
            ],
            "resultId": "qK964kZz1ALcysOa",
            "text": "Elixir of Life (True)",
            "type": 2,
            "weight": 6
        },
        {
            "_id": "agFdBRp42DAQhmgE",
            "collection": "pf2e.equipment-srd",
            "drawn": false,
            "flags": {},
            "img": "systems/pf2e/icons/equipment/alchemical-items/alchemical-poisons/black-lotus-extract.jpg",
            "range": [
                13,
                18
            ],
            "resultId": "xQS1MSqGQz44FWUh",
            "text": "Black Lotus Extract",
            "type": 2,
            "weight": 6
        },
        {
            "_id": "I9UzhSA9Bbu6a1ke",
            "collection": "pf2e.equipment-srd",
            "drawn": false,
            "flags": {},
            "img": "systems/pf2e/icons/equipment/consumables/other-consumables/spell-scroll.jpg",
            "range": [
                19,
                21
            ],
            "resultId": "o1XIHJ4MJyroAHfF",
            "text": "Scroll of 10th-level Spell",
            "type": 2,
            "weight": 3
        }
    ]
}
