{
    "_id": "k0Al2PJni2NTtdIY",
    "description": "Table of 4th-Level Permanent Items",
    "displayRoll": true,
    "flags": {
        "core": {
            "sourceId": "RollTable.nnSlUCvYTxlPP0HN"
        }
    },
    "formula": "1d84",
    "img": "icons/svg/d20-grey.svg",
    "name": "4th-Level Permanent Items",
    "permission": {
        "default": 0
    },
    "replacement": true,
    "results": [
        {
            "_id": "QN2b9QvvhEhXYHss",
            "collection": "pf2e.equipment-srd",
            "drawn": false,
            "flags": {},
            "img": "systems/pf2e/icons/equipment/held-items/bag-of-holding.jpg",
            "range": [
                1,
                6
            ],
            "resultId": "jaEEvuQ32GjAa8jy",
            "text": "Bag of Holding (Type I)",
            "type": 2,
            "weight": 6
        },
        {
            "_id": "aPbhuQl16Dn83HR8",
            "collection": "pf2e.equipment-srd",
            "drawn": false,
            "flags": {},
            "img": "systems/pf2e/icons/equipment/runes/weapon-property-runes/weapon-property-runes.jpg",
            "range": [
                7,
                12
            ],
            "resultId": "JQdwHECogcTzdd8R",
            "text": "Ghost Touch",
            "type": 2,
            "weight": 6
        },
        {
            "_id": "3EqXFbXhBaS3HemC",
            "collection": "pf2e.equipment-srd",
            "drawn": false,
            "flags": {},
            "img": "systems/pf2e/icons/equipment/runes/fundamental-weapon-runes/striking.jpg",
            "range": [
                13,
                18
            ],
            "resultId": "DxCuJKynlnMQZHgp",
            "text": "Striking",
            "type": 2,
            "weight": 6
        },
        {
            "_id": "oLZsd9xeniDUB97N",
            "collection": "pf2e.equipment-srd",
            "drawn": false,
            "flags": {},
            "img": "systems/pf2e/icons/equipment/shields/specific-shields/sturdy-shield.jpg",
            "range": [
                19,
                24
            ],
            "resultId": "f9ygr5Cjrmop8LWV",
            "text": "Sturdy Shield (Minor)",
            "type": 2,
            "weight": 6
        },
        {
            "_id": "zz0eL7k3QNTKNXc3",
            "collection": "pf2e.equipment-srd",
            "drawn": false,
            "flags": {},
            "img": "systems/pf2e/icons/equipment/staves/animal-staff.jpg",
            "range": [
                25,
                30
            ],
            "resultId": "WcuknnE3xYfSdbhm",
            "text": "Animal Staff",
            "type": 2,
            "weight": 6
        },
        {
            "_id": "lLzSpPUauPOj4sfl",
            "collection": "pf2e.equipment-srd",
            "drawn": false,
            "flags": {},
            "img": "systems/pf2e/icons/equipment/staves/mentalist-staff.jpg",
            "range": [
                31,
                36
            ],
            "resultId": "xwiZBOjispKVZzGA",
            "text": "Mentalist's Staff",
            "type": 2,
            "weight": 6
        },
        {
            "_id": "HpyqvpBDM6D2jUC6",
            "collection": "pf2e.equipment-srd",
            "drawn": false,
            "flags": {},
            "img": "systems/pf2e/icons/equipment/staves/staff-of-healing.jpg",
            "range": [
                37,
                42
            ],
            "resultId": "3OkOKxCee9WruGU5",
            "text": "Staff of Healing",
            "type": 2,
            "weight": 6
        },
        {
            "_id": "kQTbzpAKyDIdb9PY",
            "collection": "pf2e.equipment-srd",
            "drawn": false,
            "flags": {},
            "img": "systems/pf2e/icons/equipment/wands/specialty-wands/wand-of-widening.jpg",
            "range": [
                43,
                48
            ],
            "resultId": "Zw3BKaJYxxxzNZ0f",
            "text": "Wand of Widening (1st-Level Spell)",
            "type": 2,
            "weight": 6
        },
        {
            "_id": "11E6i8082Hr9VbAI",
            "drawn": false,
            "flags": {},
            "img": "icons/svg/d20-black.svg",
            "range": [
                49,
                54
            ],
            "resultId": "",
            "text": "Weapon (+1 Striking)",
            "type": 0,
            "weight": 6
        },
        {
            "_id": "dwXrm0DZwZ0Vtpyl",
            "collection": "pf2e.equipment-srd",
            "drawn": false,
            "flags": {},
            "img": "systems/pf2e/icons/equipment/worn-items/other-worn-items/alchemist-goggles.jpg",
            "range": [
                55,
                60
            ],
            "resultId": "7JVgLiNTAs4clEW8",
            "text": "Alchemist Goggles",
            "type": 2,
            "weight": 6
        },
        {
            "_id": "TbqN7piUhgo0OfAf",
            "drawn": false,
            "flags": {},
            "img": "systems/pf2e/icons/equipment/worn-items/other-worn-items/cloak-of-repute.jpg",
            "range": [
                61,
                66
            ],
            "resultId": "oC4ZMEdBJ3ia4ALm",
            "text": "+1 striking Handwraps of Mighty Blows",
            "type": 0,
            "weight": 6
        },
        {
            "_id": "l9CD8GKGvhWX8hAA",
            "collection": "pf2e.equipment-srd",
            "drawn": false,
            "flags": {},
            "img": "systems/pf2e/icons/equipment/worn-items/other-worn-items/demon-mask.jpg",
            "range": [
                67,
                72
            ],
            "resultId": "2gYZiUw9yjtb0yJY",
            "text": "Demon Mask",
            "type": 2,
            "weight": 6
        },
        {
            "_id": "t5t1wLQE2o2FC0iI",
            "collection": "pf2e.equipment-srd",
            "drawn": false,
            "flags": {},
            "img": "systems/pf2e/icons/equipment/worn-items/other-worn-items/healers-gloves.jpg",
            "range": [
                73,
                78
            ],
            "resultId": "o1zKhvYUUc1hE2AE",
            "text": "Healer's Gloves",
            "type": 2,
            "weight": 6
        },
        {
            "_id": "vHNOIhldCiAlVI37",
            "collection": "pf2e.equipment-srd",
            "drawn": false,
            "flags": {},
            "img": "systems/pf2e/icons/equipment/worn-items/other-worn-items/lifting-belt.jpg",
            "range": [
                79,
                84
            ],
            "resultId": "g2oaOGSpttfH1q6W",
            "text": "Lifting Belt",
            "type": 2,
            "weight": 6
        }
    ]
}
