{
    "_id": "Yb0C1uLzeHrVLl7a",
    "data": {
        "actionCategory": {
            "value": ""
        },
        "actionType": {
            "label": "Action Type",
            "type": "String",
            "value": "passive"
        },
        "actions": {
            "label": "Number of Actions",
            "type": "String",
            "value": ""
        },
        "description": {
            "chat": "",
            "label": "Description",
            "type": "String",
            "unidentified": "",
            "value": "<p>You cast detect magic at regular intervals. You move at half your travel speed or slower. You have no chance of accidentally overlooking a magic aura at a travel speed up to 300 feet per minute, but must be traveling no more than 150 feet per minute to detect magic auras before the party moves into them.</p>"
        },
        "rarity": {
            "value": "common"
        },
        "requirements": {
            "label": "Requirements",
            "type": "String",
            "value": ""
        },
        "rules": [],
        "skill_requirement": {
            "label": "Skill Req.",
            "skill": {
                "rank": "",
                "skill": "",
                "type": "Number"
            },
            "type": "String"
        },
        "skill_requirements": {
            "rank": "",
            "skill": ""
        },
        "source": {
            "label": "Source",
            "type": "String",
            "value": ""
        },
        "traits": {
            "custom": "",
            "label": "Traits",
            "type": "String",
            "value": [
                "concentrate",
                "exploration"
            ]
        },
        "trigger": {
            "label": "Trigger",
            "type": "String",
            "value": ""
        },
        "usage": {
            "value": "held-in-one-hand"
        },
        "weapon": {
            "label": "Associated Weapon",
            "type": "String",
            "value": ""
        }
    },
    "effects": [],
    "flags": {},
    "img": "icons/svg/mystery-man.svg",
    "name": "Detect Magic",
    "permission": {
        "default": 0
    },
    "type": "action"
}
