{
    "_id": "QNAVeNKtHA0EUw4X",
    "data": {
        "actionCategory": {
            "value": ""
        },
        "actionType": {
            "label": "Action Type",
            "type": "String",
            "value": "action"
        },
        "actions": {
            "label": "Number of Actions",
            "type": "String",
            "value": "1"
        },
        "description": {
            "chat": "",
            "label": "Description",
            "type": "String",
            "unidentified": "",
            "value": "<p><strong>Requirements</strong> You are within melee reach of the opponent you attempt to Feint.</p>\n<hr>\n<p>With a misleading flourish, you leave an opponent unprepared for your real attack. Attempt a Deception check against that opponent's Perception DC.</p>\n<hr>\n<p><strong>Critical Success</strong> You throw your enemy's defenses against you entirely off. The target is <a class=\"entity-link\" draggable=\"true\" data-pack=\"pf2e.conditionitems\" data-id=\"AJh5ex99aV6VTggg\"> Flat-Footed</a> against melee attacks that you attempt against it until the end of your next turn.</p>\n<p><strong>Success</strong> Your foe is fooled, but only momentarily. The target is flat-footed against the next melee attack that you attempt against it before the end of your current turn.</p>\n<p><strong>Critical Failure</strong> Your feint backfires. You are flat-footed against melee attacks the target attempts against you until the end of your next turn.</p>"
        },
        "rarity": {
            "value": "common"
        },
        "requirements": {
            "label": "Requirements",
            "type": "String",
            "value": ""
        },
        "rules": [],
        "skill_requirement": {
            "label": "Skill Req.",
            "skill": {
                "rank": "1",
                "skill": "deception",
                "type": "Number"
            },
            "type": "String"
        },
        "skill_requirements": {
            "rank": "",
            "skill": ""
        },
        "source": {
            "label": "Source",
            "type": "String",
            "value": ""
        },
        "traits": {
            "custom": "",
            "label": "Traits",
            "type": "String",
            "value": [
                "skill",
                "mental"
            ]
        },
        "trigger": {
            "label": "Trigger",
            "type": "String",
            "value": ""
        },
        "usage": {
            "value": "held-in-one-hand"
        },
        "weapon": {
            "label": "Associated Weapon",
            "type": "String",
            "value": ""
        }
    },
    "effects": [],
    "flags": {},
    "img": "systems/pf2e/icons/actions/OneAction.png",
    "name": "Feint",
    "permission": {
        "default": 0
    },
    "type": "action"
}
