{
    "_id": "EHa0owz6mccnmSBf",
    "data": {
        "actionCategory": {
            "value": ""
        },
        "actionType": {
            "value": "action"
        },
        "actions": {
            "value": ""
        },
        "description": {
            "chat": "",
            "unidentified": "",
            "value": "<p>You <a class=\"entity-link\" draggable=\"true\" data-pack=\"pf2e.actionspf2e\" data-id=\"Bcxarzksqt9ezrs6\"> Stride</a> twice. The <a class=\"entity-link\" draggable=\"true\" data-pack=\"pf2e.equipment-srd\" data-id=\"GS4YvQieBS11JNYR\"> Drakeheart Mutagen</a>'s duration ends.</p>"
        },
        "rarity": {
            "value": "common"
        },
        "requirements": {
            "value": ""
        },
        "rules": [],
        "skill_requirement": {
            "skill": {
                "rank": "",
                "skill": ""
            }
        },
        "skill_requirements": {
            "rank": "",
            "skill": ""
        },
        "source": {
            "value": ""
        },
        "traits": {
            "selected": {},
            "value": []
        },
        "trigger": {
            "value": ""
        },
        "usage": {
            "value": "held-in-one-hand"
        },
        "weapon": {
            "value": ""
        }
    },
    "effects": [],
    "flags": {},
    "img": "systems/pf2e/icons/actions/OneAction.png",
    "name": "Final Surge",
    "permission": {
        "default": 0
    },
    "type": "action"
}
