{
    "_id": "UEkGL7uAGYDPFNfK",
    "data": {
        "actionCategory": {
            "value": ""
        },
        "actionType": {
            "value": "reaction"
        },
        "actions": {
            "value": ""
        },
        "description": {
            "chat": "",
            "unidentified": "",
            "value": "<p><strong>Trigger</strong>&nbsp;A creature moves into the hazard's space</p>\n<hr>\n<p><strong>Effect</strong>&nbsp;The hazard explodes, dealing the bombs' damage and splash damage to the inanimate object. Combine this damage for the purpose of resistances and weaknesses, and this damage ignores an amount of the object's Hardness equal to your level. Any creatures adjacent to the hazard take the bombs' splash damage, similarly combined for the purpose of resistances and weaknesses.&nbsp;As a reminder, since you didn't throw the bombs, <a class=\"entity-link\" draggable=\"true\" data-pack=\"pf2e.feats-srd\" data-id=\"UjWLK86BgHxz3Itd\"> Calculated Splash</a> and similar effects don't apply.</p>"
        },
        "rarity": {
            "value": "common"
        },
        "requirements": {
            "value": ""
        },
        "rules": [],
        "skill_requirement": {
            "skill": {
                "rank": "",
                "skill": ""
            }
        },
        "skill_requirements": {
            "rank": "",
            "skill": ""
        },
        "source": {
            "value": ""
        },
        "traits": {
            "selected": {},
            "value": []
        },
        "trigger": {
            "value": ""
        },
        "usage": {
            "value": "held-in-one-hand"
        },
        "weapon": {
            "value": ""
        }
    },
    "effects": [],
    "flags": {},
    "img": "systems/pf2e/icons/actions/Reaction.png",
    "name": "Fire in the Hole",
    "permission": {
        "default": 0
    },
    "type": "action"
}
