{
    "_id": "AJstokjdG6iDjVjE",
    "data": {
        "actionCategory": {
            "value": ""
        },
        "actionType": {
            "label": "Action Type",
            "type": "String",
            "value": "passive"
        },
        "actions": {
            "label": "Number of Actions",
            "type": "String",
            "value": ""
        },
        "description": {
            "chat": "",
            "label": "Description",
            "type": "String",
            "unidentified": "",
            "value": "<p>You create a disguise to pass yourself off as someone or something you are not. Assembling a convincing disguise takes 10 minutes and requires a <a class=\"entity-link\" draggable=\"true\" data-pack=\"pf2e.equipment-srd\" data-id=\"Jvp0x2Sc82WVpExT\"> Disguise Kit</a>, but a simpler, quicker disguise might do the job if you're not trying to imitate a specific individual, at the GM's discretion.</p>\n<p>In most cases, creatures have a chance to detect your deception only if they use the <a class=\"entity-link\" draggable=\"true\" data-pack=\"pf2e.actionspf2e\" data-id=\"BlAOM2X92SI6HMtJ\"> Seek</a> action to attempt Perception checks against your Deception DC. If you attempt to directly interact with someone while disguised, the GM rolls a secret Deception check for you against that creature's Perception DC instead. If you're disguised as a specific individual, the GM might give creatures you interact with a circumstance bonus based on how well they know the person you're imitating, or the GM might roll a secret Deception check even if you aren't directly interacting with others.</p>\n<hr>\n<p><strong>Success</strong> You trick the creature into thinking you're the person you're disguised as. You might have to attempt a new check if your behavior changes.</p>\n<p><strong>Failure</strong> The creature can tell you're not who you claim to be.</p>\n<p><strong>Critical Failure</strong> The creature can tell you're not who you claim to be, and it recognizes you if it would know you without a disguise.</p>"
        },
        "rarity": {
            "value": "common"
        },
        "requirements": {
            "label": "Requirements",
            "type": "String",
            "value": ""
        },
        "rules": [],
        "skill_requirement": {
            "label": "Skill Req.",
            "skill": {
                "rank": "0",
                "skill": "deception",
                "type": "Number"
            },
            "type": "String"
        },
        "skill_requirements": {
            "rank": "",
            "skill": ""
        },
        "source": {
            "label": "Source",
            "type": "String",
            "value": ""
        },
        "traits": {
            "custom": "",
            "label": "Traits",
            "type": "String",
            "value": [
                "manipulate",
                "concentrate",
                "skill",
                "secret",
                "exploration"
            ]
        },
        "trigger": {
            "label": "Trigger",
            "type": "String",
            "value": ""
        },
        "usage": {
            "value": "held-in-one-hand"
        },
        "weapon": {
            "label": "Associated Weapon",
            "type": "String",
            "value": ""
        }
    },
    "effects": [],
    "flags": {},
    "img": "icons/svg/mystery-man.svg",
    "name": "Impersonate",
    "permission": {
        "default": 0
    },
    "type": "action"
}
