{
    "_id": "Rlp7ND33yYfxiEWi",
    "data": {
        "actionCategory": {
            "value": ""
        },
        "actionType": {
            "value": "free"
        },
        "actions": {
            "value": ""
        },
        "description": {
            "chat": "",
            "unidentified": "",
            "value": "<p><strong>Trigger</strong> Your Strike hits a <a class=\"entity-link\" draggable=\"true\" data-pack=\"pf2e.conditionitems\" data-id=\"AJh5ex99aV6VTggg\"> Flat-Footed</a> creature and deals damage</p>\n<hr>\n<p>The target attempts a Fortitude save at your class DC. It then becomes temporarily immune to your Master Strike for 1 day.</p>\n<hr>\n<p><strong>Critical Success</strong> The target is unaffected.</p>\n<p><strong>Success</strong> The target is <a class=\"entity-link\" draggable=\"true\" data-pack=\"pf2e.conditionitems\" data-id=\"MIRkyAjyBeXivMa7\"> Enfeebled</a> 2 until the end of your next turn.</p>\n<p><strong>Failure</strong> The target is <a class=\"entity-link\" draggable=\"true\" data-pack=\"pf2e.conditionitems\" data-id=\"6uEgoh53GbXuHpTF\"> Paralyzed</a> for 4 rounds.</p>\n<p><strong>Critical Failure</strong> The target is paralyzed for 4 rounds, knocked <a class=\"entity-link\" draggable=\"true\" data-pack=\"pf2e.conditionitems\" data-id=\"fBnFDH2MTzgFijKf\"> Unconscious</a> for 2 hours, or killed (your choice).</p>"
        },
        "rarity": {
            "value": "common"
        },
        "requirements": {
            "value": ""
        },
        "rules": [],
        "skill_requirement": {
            "skill": {
                "rank": "",
                "skill": ""
            }
        },
        "skill_requirements": {
            "rank": "",
            "skill": ""
        },
        "source": {
            "value": ""
        },
        "traits": {
            "custom": "",
            "value": [
                "rogue"
            ]
        },
        "trigger": {
            "value": ""
        },
        "usage": {
            "value": "held-in-one-hand"
        },
        "weapon": {
            "value": ""
        }
    },
    "effects": [],
    "flags": {},
    "img": "systems/pf2e/icons/actions/FreeAction.png",
    "name": "Master Strike",
    "permission": {
        "default": 0
    },
    "type": "action"
}
