{
    "_id": "VjxZFuUXrCU94MWR",
    "data": {
        "actionCategory": {
            "value": ""
        },
        "actionType": {
            "label": "Action Type",
            "type": "String",
            "value": "action"
        },
        "actions": {
            "label": "Number of Actions",
            "type": "String",
            "value": "1"
        },
        "description": {
            "chat": "",
            "label": "Description",
            "type": "String",
            "unidentified": "",
            "value": "<p>You attack with a weapon you're wielding or with an unarmed attack, targeting one creature within your reach (for a melee&nbsp;attack) or within range (for a ranged attack). Roll the attack roll for the weapon or unarmed attack you are using, and compare the result to the target creature's AC to determine the effect. See Attack Rolls on page 446 and Damage on page 450 for details on calculating your attack and damage rolls.</p>\n<hr>\n<p><strong>Critical Success</strong> As success, but you deal double damage.</p>\n<p><strong>Success</strong> You deal damage according to the weapon or unarmed attack, including any modifiers, bonuses, and penalties you have to damage.</p>"
        },
        "rarity": {
            "value": "common"
        },
        "requirements": {
            "label": "Requirements",
            "type": "String",
            "value": ""
        },
        "rules": [],
        "skill_requirement": {
            "label": "Skill Req.",
            "skill": {
                "rank": "",
                "skill": "",
                "type": "Number"
            },
            "type": "String"
        },
        "skill_requirements": {
            "rank": "",
            "skill": ""
        },
        "source": {
            "label": "Source",
            "type": "String",
            "value": ""
        },
        "traits": {
            "custom": "",
            "label": "Traits",
            "type": "String",
            "value": [
                "attack"
            ]
        },
        "trigger": {
            "label": "Trigger",
            "type": "String",
            "value": ""
        },
        "usage": {
            "value": "held-in-one-hand"
        },
        "weapon": {
            "label": "Associated Weapon",
            "type": "String",
            "value": ""
        }
    },
    "effects": [],
    "flags": {},
    "img": "systems/pf2e/icons/actions/OneAction.png",
    "name": "Strike",
    "permission": {
        "default": 0
    },
    "type": "action"
}
