{
    "_id": "uR44wELN9OlU68cL",
    "data": {
        "actionCategory": {
            "value": ""
        },
        "actionType": {
            "label": "Action Type",
            "type": "String",
            "value": "passive"
        },
        "actions": {
            "label": "Number of Actions",
            "type": "String",
            "value": ""
        },
        "description": {
            "chat": "",
            "label": "Description",
            "type": "String",
            "unidentified": "",
            "value": "<p><strong>Prerequisites</strong> Domain Initiate</p>\n<hr>\n<p>Your studies or prayers have unlocked deeper secrets of your deity's domain. You gain an advanced domain spell from one of your domains (as listed in Table 8–2: Domains on page 441). Increase the number of Focus Points in your focus pool by 1.</p>\n<p><strong>Special</strong> You can select this feat multiple times. Each time, you must select a different advanced domain spell from a domain for which you have an initial domain spell.</p>"
        },
        "featType": {
            "label": "Feat Type",
            "type": "String",
            "value": "class"
        },
        "level": {
            "label": "Feat Level",
            "type": "String",
            "value": "8"
        },
        "prerequisites": {
            "label": "Prerequisites",
            "type": "String",
            "value": "Domain Initiate"
        },
        "rarity": {
            "value": "common"
        },
        "source": {
            "label": "Source",
            "type": "String",
            "value": ""
        },
        "traits": {
            "custom": "",
            "label": "Traits",
            "rarity": {
                "value": "common"
            },
            "type": "String",
            "value": [
                "cleric"
            ]
        },
        "usage": {
            "value": "held-in-one-hand"
        }
    },
    "flags": {},
    "img": "systems/pf2e/icons/features/feats/feats.jpg",
    "name": "Advanced Domain",
    "permission": {
        "default": 0
    },
    "type": "feat"
}
