{
    "_id": "Ba6SLqAghsZgqhua",
    "data": {
        "actionCategory": {
            "value": ""
        },
        "actionType": {
            "value": "passive"
        },
        "actions": {
            "value": ""
        },
        "description": {
            "chat": "",
            "unidentified": "",
            "value": "<p><strong>Prerequisites</strong> Expert in Athletics</p>\n<hr>\n<p>Your easily maneuver against your foes. Your <a class=\"entity-link\" data-pack=\"pf2e.actionspf2e\" data-id=\"PMbdMWc2QroouFGD\" draggable=\"true\"><i class=\"fas fa-suitcase\"></i> Grapple</a>, <a class=\"entity-link\" data-pack=\"pf2e.actionspf2e\" data-id=\"7blmbDrQFNfdT731\" draggable=\"true\"><i class=\"fas fa-suitcase\"></i> Shove</a>, and <a class=\"entity-link\" data-pack=\"pf2e.actionspf2e\" data-id=\"ge56Lu1xXVFYUnLP\" draggable=\"true\"><i class=\"fas fa-suitcase\"></i> Trip</a> actions have a lower multiple attack penalty: –4 instead of –5 if they're the second attack on your turn, or –8 instead of –10 if they're the third or subsequent attack on your turn.</p>"
        },
        "featType": {
            "value": "class"
        },
        "level": {
            "value": "6"
        },
        "prerequisites": {
            "value": "expert in Athletics"
        },
        "rarity": {
            "value": "common"
        },
        "source": {
            "value": ""
        },
        "traits": {
            "rarity": {
                "value": "common"
            },
            "value": [
                "swashbuckler"
            ]
        },
        "usage": {
            "value": ""
        }
    },
    "flags": {},
    "img": "systems/pf2e/icons/features/feats/feats.jpg",
    "name": "Agile Maneuvers",
    "permission": {
        "default": 0
    },
    "type": "feat"
}
