{
    "_id": "PRKe5rWYZMZgEpFU",
    "data": {
        "actionCategory": {
            "value": ""
        },
        "actionType": {
            "value": "passive"
        },
        "actions": {
            "value": ""
        },
        "description": {
            "chat": "",
            "unidentified": "",
            "value": "<p><strong>Prerequisites </strong>trained in Perception, Society, and Thievery</p>\n<hr>\n<p>You are a student of peoples and their histories, and are in constant pursuit of knowledge and artifacts from the past. You become an expert in Society and Thievery, and you gain a +1 circumstance bonus to <a class=\"entity-link\" data-pack=\"pf2e.actionspf2e\" data-id=\"1OagaWtBpVXExToo\" draggable=\"true\"><i class=\"fas fa-suitcase\"></i> Recall Knowledge</a> about ancient history, peoples, and cultures.</p>\n<p><strong>Special</strong> You can't select another dedication feat until you have gained two other feats from the archaeologist archetype.</p>"
        },
        "featType": {
            "value": "archetype"
        },
        "level": {
            "value": "2"
        },
        "prerequisites": {
            "value": "trained in Perception, Society, and Thievery"
        },
        "rarity": {
            "value": "common"
        },
        "source": {
            "value": ""
        },
        "traits": {
            "rarity": {
                "value": "common"
            },
            "value": [
                "archetype",
                "dedication"
            ]
        },
        "usage": {
            "value": ""
        }
    },
    "flags": {},
    "img": "systems/pf2e/icons/features/feats/feats.jpg",
    "name": "Archaeologist Dedication",
    "permission": {
        "default": 0
    },
    "type": "feat"
}
