{
    "_id": "jwcNyPDVw313KXZU",
    "data": {
        "actionCategory": {
            "value": ""
        },
        "actionType": {
            "value": "reaction"
        },
        "actions": {
            "value": ""
        },
        "description": {
            "chat": "",
            "unidentified": "",
            "value": "<p><strong>Prerequisites </strong>@Compendium[pf2e.feats-srd.8foxmfC6FFT3oYpV]{Sentinel Dedication}</p>\n<p><strong>Trigger</strong> An adjacent foe critically fails an attack roll to @Compendium[pf2e.actionspf2e.VjxZFuUXrCU94MWR]{Strike} you with a melee weapon or unarmed attack.</p>\n<p><strong>Requirements</strong> You are wearing medium armor or heavier.</p>\n<hr>\n<p>You rebuff puny attacks with your armor, knocking back your foe. Attempt an Athletics check to @Compendium[pf2e.actionspf2e.7blmbDrQFNfdT731]{Shove} the triggering foe, even if you don't have a hand free. If you succeed, you can't @Compendium[pf2e.actionspf2e.Bcxarzksqt9ezrs6]{Stride} to follow the foe, as you're knocking the foe back with the rebounded attack, not by physically moving towards them.</p>"
        },
        "featType": {
            "value": "archetype"
        },
        "level": {
            "value": "8"
        },
        "prerequisites": {
            "value": "Sentinel Dedication"
        },
        "rarity": {
            "value": "common"
        },
        "source": {
            "value": ""
        },
        "traits": {
            "rarity": {
                "value": "common"
            },
            "value": [
                "archetype"
            ]
        },
        "usage": {
            "value": ""
        }
    },
    "flags": {},
    "img": "systems/pf2e/icons/features/feats/feats.jpg",
    "name": "Armored Rebuff",
    "permission": {
        "default": 0
    },
    "type": "feat"
}
