{
    "_id": "NMWXHGWUcZGoLDKb",
    "data": {
        "actionCategory": {
            "value": ""
        },
        "actionType": {
            "value": "reaction"
        },
        "actions": {
            "value": ""
        },
        "description": {
            "chat": "",
            "unidentified": "",
            "value": "<p><strong>Trigger</strong> A creature within your reach uses a manipulate action or a move action, makes a ranged attack, or leaves a square during a move action it's using.</p>\n<hr>\n<p>You swat a foe that leaves an opening. Make a melee @Compendium[pf2e.actionspf2e.VjxZFuUXrCU94MWR]{Strike}&nbsp; against the triggering creature. If your attack is a critical hit and the trigger was a manipulate action, you disrupt that action. This Strike doesn't count toward your multiple attack penalty, and your multiple attack penalty doesn't apply to this Strike.&nbsp;</p>"
        },
        "featType": {
            "value": "class"
        },
        "level": {
            "value": "6"
        },
        "prerequisites": {
            "value": ""
        },
        "rarity": {
            "value": "common"
        },
        "source": {
            "value": ""
        },
        "traits": {
            "custom": "",
            "rarity": {
                "value": "common"
            },
            "value": [
                "barbarian",
                "champion",
                "swashbuckler"
            ]
        },
        "usage": {
            "value": ""
        }
    },
    "flags": {},
    "img": "systems/pf2e/icons/features/feats/feats.jpg",
    "name": "Attack Of Opportunity",
    "permission": {
        "default": 0
    },
    "type": "feat"
}
