{
    "_id": "eBdajOzs8kiJDic2",
    "data": {
        "actionCategory": {
            "value": ""
        },
        "actionType": {
            "value": "passive"
        },
        "actions": {
            "value": ""
        },
        "description": {
            "chat": "",
            "unidentified": "",
            "value": "<p>You are touched by a deity and gifted with the ability to alleviate the suffering of others.</p>\n<p>You gain the @Compendium[pf2e.spells-srd.zNN9212H2FGfM7VS]{Lay on Hands}<em>&nbsp;</em>devotion spell. It costs 1 Focus Point to cast a focus spell. This feat grants a focus pool of 1 Focus Point that you can recover using the @Compendium[pf2e.actionspf2e.OSefkMgojBLqmRDh]{Refocus} activity.</p>\n<p>You can Refocus by meditating, whether you reflect on the deity granting the blessing or not, allowing your blessing to refill your focus pool.</p>\n<p>Your devotion spells from the blessed one archetype are divine spells.</p>\n<p><strong>Special</strong> You can't select another dedication feat until you have gained two other feats from the blessed one archetype.</p>"
        },
        "featType": {
            "value": "archetype"
        },
        "level": {
            "value": "2"
        },
        "prerequisites": {
            "value": ""
        },
        "rarity": {
            "value": "common"
        },
        "source": {
            "value": ""
        },
        "traits": {
            "rarity": {
                "value": "common"
            },
            "value": [
                "archetype",
                "dedication"
            ]
        },
        "usage": {
            "value": ""
        }
    },
    "flags": {},
    "img": "systems/pf2e/icons/features/feats/feats.jpg",
    "name": "Blessed One Dedication",
    "permission": {
        "default": 0
    },
    "type": "feat"
}
