{
    "_id": "0XGLdVbEIISOOuuO",
    "data": {
        "actionCategory": {
            "value": ""
        },
        "actionType": {
            "value": "action"
        },
        "actions": {
            "value": "1"
        },
        "description": {
            "chat": "",
            "unidentified": "",
            "value": "<p>You carefully take aim before making your attack in order to avoid your foe's concealment and cover.</p>\n<p>On your next <a class=\"entity-link\" data-pack=\"pf2e.actionspf2e\" data-id=\"VjxZFuUXrCU94MWR\" draggable=\"true\"><i class=\"fas fa-suitcase\"></i> Strike</a> with a thrown weapon before the end of your turn, you gain a +1 circumstance bonus to your attack roll and ignore your target's <a class=\"entity-link\" data-pack=\"pf2e.conditionspf2e\" data-id=\"DmAIPqOBomZ7H95W\" draggable=\"true\"><i class=\"fas fa-book-open\"></i> Concealed</a> condition, as well as the target's lesser cover or standard cover; if the target had greater cover, they instead have only standard cover against the Strike.</p>"
        },
        "featType": {
            "value": "class"
        },
        "level": {
            "value": "8"
        },
        "prerequisites": {
            "value": ""
        },
        "rarity": {
            "value": "common"
        },
        "source": {
            "value": ""
        },
        "traits": {
            "rarity": {
                "value": "common"
            },
            "value": [
                "rogue"
            ]
        },
        "usage": {
            "value": ""
        }
    },
    "flags": {},
    "img": "systems/pf2e/icons/features/feats/feats.jpg",
    "name": "Bullseye",
    "permission": {
        "default": 0
    },
    "type": "feat"
}
