{
    "_id": "a9zzu4kb7vstq0HQ",
    "data": {
        "actionCategory": {
            "value": ""
        },
        "actionType": {
            "value": "action"
        },
        "actions": {
            "value": "1"
        },
        "description": {
            "chat": "",
            "unidentified": "",
            "value": "<p><strong>Prerequisites</strong> @Compendium[pf2e.feats-srd.MYzRfNExDYp25rro]{Marshal Dedication}</p>\n<p><strong>Frequency</strong> once per minute</p>\n<hr>\n<p>You call out a quick cadence, guiding your allies into a more efficient rhythm.</p>\n<p>Each willing ally within your marshal's aura is @Compendium[pf2e.conditionspf2e.nlCjDvLMf2EkV2dl]{Quickened} until the end of their next turn, and they can use the extra action only to @Compendium[pf2e.actionspf2e.Bcxarzksqt9ezrs6]{Stride}.</p>\n<p>At the end of each ally's turn, if they used the extra action, they then become @Compendium[pf2e.conditionspf2e.xYTAsEpcJE1Ccni3]{Slowed} 1 until the end of their following turn.</p>"
        },
        "featType": {
            "value": "archetype"
        },
        "level": {
            "value": "6"
        },
        "prerequisites": {
            "value": "Marshal Dedication"
        },
        "rarity": {
            "value": "common"
        },
        "source": {
            "value": ""
        },
        "traits": {
            "rarity": {
                "value": "common"
            },
            "value": [
                "archetype",
                "auditory",
                "flourish"
            ]
        },
        "usage": {
            "value": ""
        }
    },
    "flags": {},
    "img": "systems/pf2e/icons/features/feats/feats.jpg",
    "name": "Cadence Call",
    "permission": {
        "default": 0
    },
    "type": "feat"
}
