{
    "_id": "YOU5eCD5S4cS6Qeu",
    "data": {
        "actionCategory": {
            "value": ""
        },
        "actionType": {
            "value": "free"
        },
        "actions": {
            "value": ""
        },
        "description": {
            "chat": "",
            "unidentified": "",
            "value": "<p><span id=\"ctl00_MainContent_DetailedOutput\"><strong>Frequency</strong> once per day<br><strong>Prerequisites</strong> Magaambyan Attendant Dedication, Cascade Bearers affiliation<br><strong>Requirements</strong> You haven't yet acted on your turn.<br></span></p>\n<hr>\n<p>You call upon your Cascade Bearer training to help you adjust a spell for the current situation. Until the end of your turn, you gain a single&nbsp;metamagic feat from the druid class or the wizard class that has a level requirement of no more than half your level.&nbsp;</p>"
        },
        "featType": {
            "value": "class"
        },
        "level": {
            "value": "6"
        },
        "prerequisites": {
            "value": "Magaambyan Attendant Dedication, Cascade Bearers affiliation"
        },
        "rarity": {
            "value": "common"
        },
        "source": {
            "value": ""
        },
        "traits": {
            "custom": "",
            "rarity": {
                "value": "common"
            },
            "value": [
                "archetype",
                "metamagic"
            ]
        },
        "usage": {
            "value": "held-in-one-hand"
        }
    },
    "flags": {},
    "img": "systems/pf2e/icons/features/feats/feats.jpg",
    "name": "Cascade Bearer's Flexibility",
    "permission": {
        "default": 0
    },
    "type": "feat"
}
