{
    "_id": "7qBuzHY8kEG8SdEP",
    "data": {
        "actionCategory": {
            "value": ""
        },
        "actionType": {
            "value": "free"
        },
        "actions": {
            "value": ""
        },
        "description": {
            "chat": "",
            "unidentified": "",
            "value": "<p><strong>Frequency</strong> once per day</p>\n<p><strong>Trigger</strong> You fail a Reflex saving throw.</p>\n<hr>\n<p>You instinctively twist away from danger. You can reroll the triggering saving throw and use the better result.</p>"
        },
        "featType": {
            "value": "ancestry"
        },
        "level": {
            "value": "1"
        },
        "prerequisites": {
            "value": ""
        },
        "rarity": {
            "value": "common"
        },
        "source": {
            "value": ""
        },
        "traits": {
            "rarity": {
                "value": "common"
            },
            "value": [
                "catfolk",
                "fortune"
            ]
        },
        "usage": {
            "value": ""
        }
    },
    "flags": {},
    "img": "systems/pf2e/icons/features/feats/feats.jpg",
    "name": "Cat's Luck",
    "permission": {
        "default": 0
    },
    "type": "feat"
}
