{
    "_id": "EpWgrMznGbm8gceW",
    "data": {
        "actionCategory": {
            "value": ""
        },
        "actionType": {
            "value": "passive"
        },
        "actions": {
            "value": null
        },
        "description": {
            "chat": "",
            "unidentified": "",
            "value": "<p><strong>Prerequisites </strong>Scrollmaster Dedication</p>\n<hr>\n<p>You've studied the many ways that ancient architects and spellcasters protected their possessions, such as by implementing deadly traps and curses, and learned some magic to counteract them. You can cast dispel magic, knock, and resist energy as innate spells, each once per day. If you can already cast spells, these spells are of the same tradition.</p>\n<p>Otherwise, they're arcane spells, you use Intelligence as your spellcasting ability, and you become trained in spell attack rolls and spell DCs for arcane spells.</p>"
        },
        "featType": {
            "value": "archetype"
        },
        "level": {
            "value": "10"
        },
        "prerequisites": {
            "value": "Scrollmaster Dedication"
        },
        "rarity": {
            "value": "common"
        },
        "rules": [],
        "source": {
            "value": ""
        },
        "traits": {
            "custom": "",
            "rarity": {
                "value": "common"
            },
            "value": [
                "archetype"
            ]
        },
        "usage": {
            "value": "held-in-one-hand"
        }
    },
    "effects": [],
    "flags": {
        "core": {
            "sourceId": "Item.HOIdcqygLTZEVb3Y"
        }
    },
    "img": "systems/pf2e/icons/features/feats/feats.jpg",
    "name": "Cautious Delver",
    "permission": {
        "default": 0
    },
    "type": "feat"
}
