{
    "_id": "aXdY2wgn0ItWwTr0",
    "data": {
        "actionCategory": {
            "value": ""
        },
        "actionType": {
            "value": "passive"
        },
        "actions": {
            "value": ""
        },
        "description": {
            "chat": "",
            "unidentified": "",
            "value": "<p><strong>Prerequisites </strong>tenets of evil</p>\n<hr>\n<p>Because you know your mind is superior, you scoff at anyone who would alter your mental state—but this hubris gets the better of you when you're wrong.</p>\n<p>You gain a +2 circumstance bonus to saves against mental effects. If you succeed at a save against a mental effect, you critically succeed instead; similarly, if you fail at a save against a mental effect, you critically fail instead.</p>"
        },
        "featType": {
            "value": "class"
        },
        "level": {
            "value": "2"
        },
        "prerequisites": {
            "value": "tenets of evil"
        },
        "rarity": {
            "value": "common"
        },
        "source": {
            "value": ""
        },
        "traits": {
            "rarity": {
                "value": "common"
            },
            "value": [
                "uncommon",
                "champion"
            ]
        },
        "usage": {
            "value": ""
        }
    },
    "flags": {},
    "img": "systems/pf2e/icons/features/feats/feats.jpg",
    "name": "Conceited Mindset",
    "permission": {
        "default": 0
    },
    "type": "feat"
}
