{
    "_id": "0qGLCpggCcOVkbtT",
    "data": {
        "actionCategory": {
            "value": ""
        },
        "actionType": {
            "value": "reaction"
        },
        "actions": {
            "value": ""
        },
        "description": {
            "chat": "",
            "unidentified": "",
            "value": "<p><strong>Prerequisites</strong> @Compendium[pf2e.feats-srd.aFygWxgSv82WyCsl]{Acrobat Dedication}</p>\n<p><strong>Trigger</strong> You are the target of a melee attack.</p>\n<p><strong>Requirements</strong> You're aware of the attack and aren't @Compendium[pf2e.conditionspf2e.AJh5ex99aV6VTggg]{Flat-Footed}.</p>\n<hr>\n<p>You use your acrobatic prowess to evade an attack, using momentum to keep yourself moving, if you choose.</p>\n<p>You gain a +1 circumstance bonus to AC against the triggering attack. If the attack misses you, you can @Compendium[pf2e.actionspf2e.UHpkTuCtyaPqiCAB]{Step} after the @Compendium[pf2e.actionspf2e.VjxZFuUXrCU94MWR]{Strike}.</p>\n<p>If you're a master in Acrobatics, you can move 10 feet on this Step instead of 5 feet.</p>"
        },
        "featType": {
            "value": "archetype"
        },
        "level": {
            "value": "6"
        },
        "prerequisites": {
            "value": "Acrobat Dedication"
        },
        "rarity": {
            "value": "common"
        },
        "source": {
            "value": ""
        },
        "traits": {
            "rarity": {
                "value": "common"
            },
            "value": [
                "archetype"
            ]
        },
        "usage": {
            "value": ""
        }
    },
    "flags": {},
    "img": "systems/pf2e/icons/features/feats/feats.jpg",
    "name": "Dodge Away",
    "permission": {
        "default": 0
    },
    "type": "feat"
}
