{
    "_id": "oo34CloLefFRi72w",
    "data": {
        "actionCategory": {
            "value": ""
        },
        "actionType": {
            "value": "passive"
        },
        "actions": {
            "value": ""
        },
        "description": {
            "chat": "",
            "unidentified": "",
            "value": "<p><strong>Access</strong> You are a kobold with the dragonscaled or spellscaled <br>heritage, a dragon instinct barbarian, or a draconic&nbsp;<br>bloodline sorcerer.</p>\n<hr>\n<p>You choose to study or worship one type of dragon, and your focus grants you a measure of its power. Choose one color of dragon when you select this feat; if you are a sorcerer with the draconic bloodline, this must be the same type as your bloodline.</p>\n<p>You gain resistance equal to half your level against one type of damage determined by the chosen dragon type. The GM may allow you to choose a dragon type not listed below, and will determine the damage type appropriate for that dragon.</p>\n<ul>\n<li><strong>Black or Copper</strong> Acid</li>\n<li><strong>Blue or Bronze</strong> Electricity</li>\n<li><strong>Brass, Gold, or Red</strong> Fire</li>\n<li><strong>Green</strong> Poison</li>\n<li><strong>Silver or White</strong> Cold</li>\n</ul>\n<p>You also gain a +1 circumstance bonus to saving throws against sleep effects and effects that would make you paralyzed.</p>\n<p><strong>Special</strong> You can't select another dedication feat until you have gained two other feats from the dragon disciple archetype. If you later take the sorcerer archetype, you must choose the draconic bloodline.</p>"
        },
        "featType": {
            "value": "archetype"
        },
        "level": {
            "value": "2"
        },
        "prerequisites": {
            "value": ""
        },
        "rarity": {
            "value": "common"
        },
        "source": {
            "value": ""
        },
        "traits": {
            "rarity": {
                "value": "common"
            },
            "value": [
                "uncommon",
                "archetype",
                "dedication"
            ]
        },
        "usage": {
            "value": ""
        }
    },
    "flags": {},
    "img": "systems/pf2e/icons/features/feats/feats.jpg",
    "name": "Dragon Disciple Dedication",
    "permission": {
        "default": 0
    },
    "type": "feat"
}
