{
    "_id": "AOLf6QX068LR9L9e",
    "data": {
        "actionCategory": {
            "value": ""
        },
        "actionType": {
            "value": "passive"
        },
        "actions": {
            "value": ""
        },
        "description": {
            "chat": "",
            "unidentified": "",
            "value": "<p>By endlessly repeating a motif, you implant an earworm, a memorable song that repeats over and over again in your allies' heads, preparing them to respond to it later.</p>\n<p>Choose a composition cantrip and spend 10 minutes repeating a melody, chant, speech, series of motions, or a similar performance that embodies that cantrip. This activity gains the traits appropriate to the type of performance. You implant the earworm within all allies who can see or hear you (as appropriate for the type of performance) for the entire activity.</p>\n<p>Once you've created the earworm, you can attempt a Performance check as a free action to activate it. This check uses a very hard DC of a level equal to that of the highest-level target of the earworm present at the time of activation (<em>Core Rulebook</em> 503–504).</p>\n<p>On a success, you cast the cantrip on all allies who learned the earworm and can perceive your performance; on a failure, the earworm is corrupted and lost. Because it is based on the earlier repetitions, you can't use further free actions like @Compendium[pf2e.spells-srd.irTdhxTixU9u9YUm]{Lingering Composition}&nbsp;or @Compendium[pf2e.spells-srd.kF0rs9mCPvJGfAZE]{Inspire Heroics}&nbsp;to modify the activated earworm.</p>\n<p>Allies forget the earworm after it is activated, if you spend 10 minutes to implant another earworm, or during your next daily preparations, whichever comes first.</p>"
        },
        "featType": {
            "value": "class"
        },
        "level": {
            "value": "14"
        },
        "prerequisites": {
            "value": ""
        },
        "rarity": {
            "value": "common"
        },
        "source": {
            "value": ""
        },
        "traits": {
            "rarity": {
                "value": "common"
            },
            "value": [
                "bard",
                "exploration"
            ]
        },
        "usage": {
            "value": ""
        }
    },
    "flags": {},
    "img": "systems/pf2e/icons/features/feats/feats.jpg",
    "name": "Earworm",
    "permission": {
        "default": 0
    },
    "type": "feat"
}
