{
    "_id": "F0MYBfiyOD8YHq5t",
    "data": {
        "actionCategory": {
            "value": ""
        },
        "actionType": {
            "label": "Action Type",
            "type": "String",
            "value": "passive"
        },
        "actions": {
            "label": "Number of Actions",
            "type": "String",
            "value": ""
        },
        "description": {
            "chat": "",
            "label": "Description",
            "type": "String",
            "unidentified": "",
            "value": "<p><strong>Prerequisites</strong> Wild Shape</p>\n<hr>\n<p>You understand the fundamental elements of nature such that you can imbue them into your body and manifest as a living embodiment of those elements. Add the forms in elemental form to your wild shape list. Whenever you're polymorphed into another form using wild shape, you gain resistance 5 to fire.</p>"
        },
        "featType": {
            "label": "Feat Type",
            "type": "String",
            "value": "class"
        },
        "level": {
            "label": "Feat Level",
            "type": "String",
            "value": "10"
        },
        "prerequisites": {
            "label": "Prerequisites",
            "type": "String",
            "value": "Wild Shape"
        },
        "rarity": {
            "value": "common"
        },
        "source": {
            "label": "Source",
            "type": "String",
            "value": ""
        },
        "traits": {
            "custom": "",
            "label": "Traits",
            "rarity": {
                "value": "common"
            },
            "type": "String",
            "value": [
                "druid"
            ]
        },
        "usage": {
            "value": "held-in-one-hand"
        }
    },
    "flags": {},
    "img": "systems/pf2e/icons/features/feats/feats.jpg",
    "name": "Elemental Shape",
    "permission": {
        "default": 0
    },
    "type": "feat"
}
