{
    "_id": "y7Or0CbcQBDdS9yG",
    "data": {
        "actionCategory": {
            "value": ""
        },
        "actionType": {
            "value": "passive"
        },
        "actions": {
            "value": ""
        },
        "description": {
            "chat": "",
            "unidentified": "",
            "value": "<p>As much as you might care for them, you've come to terms with the ephemeral nature of non-elves, and it makes their threats feel less troublesome.</p>\n<p>If a non-elf rolls a failure on a check to @Compendium[pf2e.actionspf2e.tHCqgwjtQtzNqVvd]{Coerce} you using Intimidation, it gets a critical failure instead (and thus can't try to Coerce you again for 1 week).</p>\n<p>When a non-elf attempts to @Compendium[pf2e.actionspf2e.2u915NdUyQan6uKF]{Demoralize} you, you become temporarily immune for 1 day, instead of 10 minutes.</p>"
        },
        "featType": {
            "value": "ancestry"
        },
        "level": {
            "value": "1"
        },
        "prerequisites": {
            "value": ""
        },
        "rarity": {
            "value": "common"
        },
        "source": {
            "value": ""
        },
        "traits": {
            "rarity": {
                "value": "common"
            },
            "value": [
                "elf"
            ]
        },
        "usage": {
            "value": ""
        }
    },
    "flags": {},
    "img": "systems/pf2e/icons/features/feats/feats.jpg",
    "name": "Elven Aloofness",
    "permission": {
        "default": 0
    },
    "type": "feat"
}
