{
    "_id": "MS53Ds75BT379ZFm",
    "data": {
        "actionCategory": {
            "value": ""
        },
        "actionType": {
            "value": "reaction"
        },
        "actions": {
            "value": ""
        },
        "description": {
            "chat": "",
            "unidentified": "",
            "value": "<p><strong>Prerequisites </strong>trained in Diplomacy</p>\n<p><strong>Trigger</strong> You are attacked by a creature that you haven't yet acted hostile toward. You must use this reaction before the creature rolls its attack.</p>\n<hr>\n<p>The way you cringe or use those puppy-dog eyes you've been practicing elicits an empathetic response in the attacker. Attempt a Diplomacy check against your attacker's Will DC.</p>\n<p><strong>Critical Success</strong> The creature pulls its attack, wasting its <br>action, and can't use hostile actions against you until the beginning of its next turn.</p>\n<p><strong>Success</strong> The creature takes a –2 circumstance penalty to damage on the triggering Strike and all its Strikes against you until the beginning of its next turn. The penalty is –4 if you're an expert in Diplomacy, –6 if you're a master, and –8 if you're legendary.</p>\n<p><strong>Failure</strong> The creature's attack is unaffected, and the creature is <br>temporarily immune to your Empathic Pleas for 24 hours.</p>"
        },
        "featType": {
            "value": "ancestry"
        },
        "level": {
            "value": "1"
        },
        "prerequisites": {
            "value": "trained in Diplomacy"
        },
        "rarity": {
            "value": "common"
        },
        "source": {
            "value": ""
        },
        "traits": {
            "rarity": {
                "value": "common"
            },
            "value": [
                "auditory",
                "emotion",
                "gnome",
                "mental",
                "visual"
            ]
        },
        "usage": {
            "value": ""
        }
    },
    "flags": {},
    "img": "systems/pf2e/icons/features/feats/feats.jpg",
    "name": "Empathetic Plea",
    "permission": {
        "default": 0
    },
    "type": "feat"
}
