{
    "_id": "bmWvMfYxZbZtigDp",
    "data": {
        "actionCategory": {
            "value": ""
        },
        "actionType": {
            "value": "passive"
        },
        "actions": {
            "value": ""
        },
        "description": {
            "chat": "",
            "unidentified": "",
            "value": "<p><strong>Prerequisites </strong>@Compendium[pf2e.feats-srd.kU4K9jj9qnktoAaQ]{Ritualist Dedication}</p>\n<hr>\n<p>You can perform two aspects of a ritual yourself.</p>\n<p>When you cast a ritual, you can reduce the number of secondary casters by 1.</p>\n<p>When you do, you must fulfill any requirements for the secondary caster, and you attempt the secondary check normally performed by that secondary caster. You can't replace a secondary caster who is the target of the spell (as in the @Compendium[pf2e.spells-srd.7Fd4lxozd11MQ55N]{Atone} ritual).</p>"
        },
        "featType": {
            "value": "archetype"
        },
        "level": {
            "value": "6"
        },
        "prerequisites": {
            "value": "Ritualist Dedication"
        },
        "rarity": {
            "value": "common"
        },
        "source": {
            "value": ""
        },
        "traits": {
            "rarity": {
                "value": "common"
            },
            "value": [
                "archetype"
            ]
        },
        "usage": {
            "value": ""
        }
    },
    "flags": {},
    "img": "systems/pf2e/icons/features/feats/feats.jpg",
    "name": "Flexible Ritualist",
    "permission": {
        "default": 0
    },
    "type": "feat"
}
