{
    "_id": "eXNkcM7gtCGC7udi",
    "data": {
        "actionCategory": {
            "value": ""
        },
        "actionType": {
            "value": "passive"
        },
        "actions": {
            "value": ""
        },
        "description": {
            "chat": "",
            "unidentified": "",
            "value": "<p><span id=\"ctl00_MainContent_DetailedOutput\"><strong>Prerequisites</strong> Lastwall Sentry Dedication<br></span></p>\n<hr>\n<p>Your time spent hunting the undead allows you to sense them. You sense undead as a vague sense similar to a human's sense of smell, an uncomfortable sensation akin to smelling something cloying and rotting. When in proximity to the undead, you eventually sense their presence, though you might not do so instantly, and you can't pinpoint their location. An undead using a disguise or otherwise trying to hide its presence must attempt a Deception check against your Perception DC to hide its presence from you. If the creature succeeds at its Deception check, it is then temporarily immune to your Grave Sense for 1 day.&nbsp; &nbsp; &nbsp; &nbsp;</p>"
        },
        "featType": {
            "value": "archetype"
        },
        "level": {
            "value": "6"
        },
        "prerequisites": {
            "value": "Lastwall Sentry Dedication"
        },
        "rarity": {
            "value": "common"
        },
        "source": {
            "value": ""
        },
        "traits": {
            "custom": "",
            "rarity": {
                "value": "common"
            },
            "value": [
                "archetype"
            ]
        },
        "usage": {
            "value": "held-in-one-hand"
        }
    },
    "flags": {},
    "img": "systems/pf2e/icons/features/feats/feats.jpg",
    "name": "Grave Sense",
    "permission": {
        "default": 0
    },
    "type": "feat"
}
