{
    "_id": "8HYfYT4fHtxXP199",
    "data": {
        "actionCategory": {
            "value": ""
        },
        "actionType": {
            "label": "Action Type",
            "type": "String",
            "value": "passive"
        },
        "actions": {
            "label": "Number of Actions",
            "type": "String",
            "value": ""
        },
        "description": {
            "chat": "",
            "label": "Description",
            "type": "String",
            "unidentified": "",
            "value": "<p><strong>Prerequisites</strong> Arcane Evolution or Occult Evolution</p>\n<hr>\n<p>Your bloodline's deep connection to mental essence greatly enhances your spell repertoire. Add one spell to your spell repertoire for each spell level you can cast.</p>"
        },
        "featType": {
            "label": "Feat Type",
            "type": "String",
            "value": "class"
        },
        "level": {
            "label": "Feat Level",
            "type": "String",
            "value": "16"
        },
        "prerequisites": {
            "label": "Prerequisites",
            "type": "String",
            "value": "Arcane Evolution or Occult Evolution"
        },
        "rarity": {
            "value": "common"
        },
        "source": {
            "label": "Source",
            "type": "String",
            "value": ""
        },
        "traits": {
            "custom": "",
            "label": "Traits",
            "rarity": {
                "value": "common"
            },
            "type": "String",
            "value": [
                "sorcerer"
            ]
        },
        "usage": {
            "value": "held-in-one-hand"
        }
    },
    "flags": {},
    "img": "systems/pf2e/icons/features/feats/feats.jpg",
    "name": "Greater Mental Evolution",
    "permission": {
        "default": 0
    },
    "type": "feat"
}
