{
    "_id": "zs2FFGI88zB7EaBT",
    "data": {
        "actionCategory": {
            "value": ""
        },
        "actionType": {
            "value": "passive"
        },
        "actions": {
            "value": ""
        },
        "description": {
            "chat": "",
            "unidentified": "",
            "value": "<p><span id=\"ctl00_MainContent_DetailedOutput\"><strong>Prerequisites</strong> umbral gnome heritage<br></span></p>\n<hr>\n<p>Others' attempts to scare you often grant you insights about your would-be bullies that you can then exploit. If you roll a success on a saving throw against a fear effect, you get a critical success instead, and the source of the fear effect is @Compendium[pf2e.conditionspf2e.AJh5ex99aV6VTggg]{Flat-Footed} to you until the end of your next turn.&nbsp;</p>"
        },
        "featType": {
            "value": "ancestry"
        },
        "level": {
            "value": "1"
        },
        "prerequisites": {
            "value": "umbral gnome heritage"
        },
        "rarity": {
            "value": "common"
        },
        "source": {
            "value": ""
        },
        "traits": {
            "custom": "",
            "rarity": {
                "value": "common"
            },
            "value": [
                "gnome"
            ]
        },
        "usage": {
            "value": "held-in-one-hand"
        }
    },
    "flags": {},
    "img": "systems/pf2e/icons/features/feats/feats.jpg",
    "name": "Grim Insight",
    "permission": {
        "default": 0
    },
    "type": "feat"
}
