{
    "_id": "OJxEF5FONTtEdbpP",
    "data": {
        "actionCategory": {
            "value": ""
        },
        "actionType": {
            "value": "passive"
        },
        "actions": {
            "value": ""
        },
        "description": {
            "chat": "",
            "unidentified": "",
            "value": "<p><strong>Prerequisites</strong> @Compendium[pf2e.feats-srd.wdmUH6hdat7jpEWt]{Beastmaster Dedication}</p>\n<hr>\n<p>You can heal your animal companion's wounds. You can cast@Compendium[pf2e.spells-srd.Zmh4ynfnCtwKeAYl]{Heal Animal}&nbsp;as a beastmaster focus spell (Core Rulebook 399).&nbsp; Increase the number of Focus Points in your focus pool by 1.</p>"
        },
        "featType": {
            "value": "archetype"
        },
        "level": {
            "value": "4"
        },
        "prerequisites": {
            "value": "Beastmaster Dedication"
        },
        "rarity": {
            "value": "common"
        },
        "source": {
            "value": ""
        },
        "traits": {
            "rarity": {
                "value": "common"
            },
            "value": [
                "archetype"
            ]
        },
        "usage": {
            "value": ""
        }
    },
    "flags": {},
    "img": "systems/pf2e/icons/features/feats/feats.jpg",
    "name": "Heal Animal",
    "permission": {
        "default": 0
    },
    "type": "feat"
}
