{
    "_id": "cQptGH6RUYZmS41Q",
    "data": {
        "actionCategory": {
            "value": ""
        },
        "actionType": {
            "value": "passive"
        },
        "actions": {
            "value": ""
        },
        "description": {
            "chat": "",
            "unidentified": "",
            "value": "<p><strong>Prerequisites</strong> <a class=\"entity-link\" data-pack=\"pf2e.feats-srd\" data-id=\"20jNBiIIxaiOVyi0\" draggable=\"true\"><i class=\"fas fa-suitcase\"></i> Oozemorph Dedication</a>, trained in Performance</p>\n<hr>\n<p>Your throat has multiple separate chambers that can give your voice an eerie echo. You can be clearly heard at distances of up to 300 feet regardless of ambient sound, although your voice doesn't penetrate a magical <a class=\"entity-link\" data-pack=\"pf2e.spells-srd\" data-id=\"gIdDLrbswTV3OBJy\" draggable=\"true\"><i class=\"fas fa-suitcase\"></i> Silence</a> effect.</p>"
        },
        "featType": {
            "value": "archetype"
        },
        "level": {
            "value": "4"
        },
        "prerequisites": {
            "value": ""
        },
        "rarity": {
            "value": "common"
        },
        "source": {
            "value": ""
        },
        "traits": {
            "custom": "",
            "rarity": {
                "value": "common"
            },
            "selected": {
                "archetype": "Archetype",
                "skill": "Skill"
            },
            "value": [
                "archetype",
                "skill"
            ]
        },
        "usage": {
            "value": "held-in-one-hand"
        }
    },
    "flags": {},
    "img": "systems/pf2e/icons/features/feats/feats.jpg",
    "name": "Hideous Ululation",
    "permission": {
        "default": 0
    },
    "type": "feat"
}
