{
    "_id": "mCXoiMLAbGHGsZS3",
    "data": {
        "actionCategory": {
            "value": ""
        },
        "actionType": {
            "label": "Action Type",
            "type": "String",
            "value": "passive"
        },
        "actions": {
            "label": "Number of Actions",
            "type": "String",
            "value": ""
        },
        "description": {
            "chat": "",
            "label": "Description",
            "type": "String",
            "unidentified": "",
            "value": "<p><strong>Prerequisites</strong> Swift Banishment</p>\n<hr>\n<p>You easily banish creatures with your weapon. You can use Swift Banishment as long as you have a spell slot of 5th level or higher remaining, even if you don't have banishment prepared. You must sacrifice a prepared spell of 5th level or higher, and the banishment effect you create is heightened to the level of that spell. Your weapon serves as the special material component of banishment, causing the target to take the –2 penalty to its save against any banishment you cast using Swift Banishment.</p>"
        },
        "featType": {
            "label": "Feat Type",
            "type": "String",
            "value": "class"
        },
        "level": {
            "label": "Feat Level",
            "type": "String",
            "value": "18"
        },
        "prerequisites": {
            "label": "Prerequisites",
            "type": "String",
            "value": "Swift Banishment"
        },
        "rarity": {
            "value": "common"
        },
        "source": {
            "label": "Source",
            "type": "String",
            "value": ""
        },
        "traits": {
            "custom": "",
            "label": "Traits",
            "rarity": {
                "value": "common"
            },
            "type": "String",
            "value": [
                "cleric"
            ]
        },
        "usage": {
            "value": "held-in-one-hand"
        }
    },
    "flags": {},
    "img": "systems/pf2e/icons/features/feats/feats.jpg",
    "name": "Improved Swift Banishment",
    "permission": {
        "default": 0
    },
    "type": "feat"
}
