{
    "_id": "4xeDjt8eARzAGARP",
    "data": {
        "actionCategory": {
            "value": ""
        },
        "actionType": {
            "value": "free"
        },
        "actions": {
            "value": ""
        },
        "description": {
            "chat": "",
            "unidentified": "",
            "value": "<p><span id=\"ctl00_MainContent_DetailedOutput\"><strong>Prerequisites</strong> Hellknight Signifer Dedication <br><strong>Requirements</strong> You are wearing your signifer's mask.<br><strong>Trigger</strong> You begin Casting a Spell.<br></span></p>\n<hr>\n<p>You harness the magical energy flowing through your eyeless mask to effortlessly protect you from visual effects. You @Compendium[pf2e.actionspf2e.UWdRX1VelipCzrCg]{Avert your Gaze}.&nbsp;</p>"
        },
        "featType": {
            "value": "archetype"
        },
        "level": {
            "value": "8"
        },
        "prerequisites": {
            "value": "Hellknight Signifer Dedication "
        },
        "rarity": {
            "value": "common"
        },
        "source": {
            "value": ""
        },
        "traits": {
            "custom": "",
            "rarity": {
                "value": "common"
            },
            "value": [
                "archetype"
            ]
        },
        "usage": {
            "value": "held-in-one-hand"
        }
    },
    "flags": {},
    "img": "systems/pf2e/icons/features/feats/feats.jpg",
    "name": "Masked Casting",
    "permission": {
        "default": 0
    },
    "type": "feat"
}
