{
    "_id": "CkK7WwaWnrLXK9sW",
    "data": {
        "actionCategory": {
            "value": ""
        },
        "actionType": {
            "value": "passive"
        },
        "actions": {
            "value": ""
        },
        "description": {
            "chat": "",
            "unidentified": "",
            "value": "<p><strong>Prerequisites </strong>@Compendium[pf2e.classfeatures.RyOkmu0W9svavuAB]{Mastermind Racket}, @Compendium[pf2e.classfeatures.9SruVg2lZpNaYLOB]{Debilitating Strikes}</p>\n<hr>\n<p>You strategically craft your debilitations to lessen or negate an enemy's tactical advantages. Add the following debilitations to the list you can choose from when you use Debilitating Strike.</p>\n<ul>\n<li><strong>Debilitation</strong> The target can't flank other creatures, and it can't provide flanking for its allies.</li>\n<li><strong>Debilitation</strong> The target doesn't gain a circumstance bonus to AC from @Compendium[pf2e.actionspf2e.xjGwis0uaC2305pm]{Raising a Shield}, lesser cover, or standard cover; it gains only a +2 circumstance bonus to AC from greater cover or @Compendium[pf2e.actionspf2e.ust1jJSCZQUhBZIz]{Taking Cover}.</li>\n</ul>"
        },
        "featType": {
            "value": "class"
        },
        "level": {
            "value": "10"
        },
        "prerequisites": {
            "value": "mastermind racket, Debilitating Strike"
        },
        "rarity": {
            "value": "common"
        },
        "source": {
            "value": ""
        },
        "traits": {
            "rarity": {
                "value": "common"
            },
            "value": [
                "rogue"
            ]
        },
        "usage": {
            "value": ""
        }
    },
    "flags": {},
    "img": "systems/pf2e/icons/features/feats/feats.jpg",
    "name": "Methodical Debilitations",
    "permission": {
        "default": 0
    },
    "type": "feat"
}
