{
    "_id": "YG2RxXE9SMfwo6wP",
    "data": {
        "actionCategory": {
            "value": ""
        },
        "actionType": {
            "value": "action"
        },
        "actions": {
            "value": "1"
        },
        "description": {
            "chat": "",
            "unidentified": "",
            "value": "<p><strong>Requirements</strong> You are unarmored and wielding a @Compendium[pf2e.equipment-srd.MVAWttmT0QDa7LsV]{Longbow}, <br>@Compendium[pf2e.equipment-srd.hIgqLgH3YcLZBeoT]{Shortbow}, or a bow with the monk trait.</p>\n<hr>\n<p>You enter a specialized stance for a unique martial art centered around the use of a bow. While in this stance, the only @Compendium[pf2e.actionspf2e.VjxZFuUXrCU94MWR]{Strikes} you can make are those using longbows, shortbows, or bows with the monk trait.</p>\n<p>You can use @Compendium[pf2e.actionspf2e.nbfNETdpee8CVM17]{Flurry of Blows} with these bows. You can use your other monk feats or monk abilities that normally require unarmed attacks with these bows when attacking within half the first range increment (normally 50 feet for a longbow and 30 feet for a shortbow), so long as the feat or ability doesn't require a single, specific Strike.</p>\n<p><strong>Special</strong> When you select this feat, you become trained in the longbow, shortbow, and any simple and martial bows with the monk trait. If you gain the expert strikes class feature, your proficiency rank for these weapons increases to expert, and if you gain the master strikes class feature, your proficiency rank for these weapons increases to master.</p>"
        },
        "featType": {
            "value": "class"
        },
        "level": {
            "value": "1"
        },
        "prerequisites": {
            "value": ""
        },
        "rarity": {
            "value": "common"
        },
        "source": {
            "value": ""
        },
        "traits": {
            "rarity": {
                "value": "common"
            },
            "value": [
                "monk",
                "stance"
            ]
        },
        "usage": {
            "value": ""
        }
    },
    "flags": {},
    "img": "systems/pf2e/icons/features/feats/feats.jpg",
    "name": "Monastic Archer Stance",
    "permission": {
        "default": 0
    },
    "type": "feat"
}
