{
    "_id": "jaAnxfXVmUQy0IKU",
    "data": {
        "actionCategory": {
            "value": ""
        },
        "actionType": {
            "value": "action"
        },
        "actions": {
            "value": "3"
        },
        "description": {
            "chat": "",
            "unidentified": "",
            "value": "<p><strong>Prerequisites </strong>expert strikes</p>\n<hr>\n<p>You put all your force into a single mighty, carefully controlled blow. Make an unarmed @Compendium[pf2e.actionspf2e.VjxZFuUXrCU94MWR]{Strike}. If you spend two actions and this Strike hits, you deal an extra die of weapon damage. You can instead spend 3 actions to perform an even more powerful attack, dealing a second additional die of weapon damage on a hit.</p>\n<p>If you're at least 10th level, the number of additional dice you add from this feat doubles, for a total of 2 additional dice if you spend 2 actions or 4 additional dice if you spend 3 actions. If you're at least 18th level, the number of additional dice you add from this feat triples, for a total of 3 additional dice if you spend 2 actions or 6 additional dice if you spend 3 actions.</p>"
        },
        "featType": {
            "value": "class"
        },
        "level": {
            "value": "6"
        },
        "prerequisites": {
            "value": "expert strikes"
        },
        "rarity": {
            "value": "common"
        },
        "source": {
            "value": ""
        },
        "traits": {
            "rarity": {
                "value": "common"
            },
            "value": [
                "monk"
            ]
        },
        "usage": {
            "value": ""
        }
    },
    "flags": {},
    "img": "systems/pf2e/icons/features/feats/feats.jpg",
    "name": "One-Inch Punch",
    "permission": {
        "default": 0
    },
    "type": "feat"
}
