{
    "_id": "Wsrw68pklQyaScMX",
    "data": {
        "actionCategory": {
            "value": ""
        },
        "actionType": {
            "value": "passive"
        },
        "actions": {
            "value": ""
        },
        "description": {
            "chat": "",
            "unidentified": "",
            "value": "<p><strong>Prerequisites </strong>@Compendium[pf2e.feats-srd.u6SDVWbzHnBBPNMo]{Linguist Dedication}, expert in Society</p>\n<hr>\n<p>You can pronounce and repeat words with near-perfect accuracy even if you don't understand their meaning, and you can write them down in a phonetic script that allows you or another creature with Phonetic Training to read it later. Even if the words are in a language with sound you can't pronounce, you can faithfully transcribe them. Memorizing long sequences of words remains just as difficult as it is normally.</p>"
        },
        "featType": {
            "value": "archetype"
        },
        "level": {
            "value": "4"
        },
        "prerequisites": {
            "value": "Linguist Dedication, expert in Society"
        },
        "rarity": {
            "value": "common"
        },
        "rules": [],
        "source": {
            "value": ""
        },
        "traits": {
            "rarity": {
                "value": "common"
            },
            "value": [
                "archetype",
                "skill"
            ]
        },
        "usage": {
            "value": ""
        }
    },
    "flags": {},
    "img": "systems/pf2e/icons/features/feats/feats.jpg",
    "name": "Phonetic Training",
    "permission": {
        "default": 0
    },
    "type": "feat"
}
