{
    "_id": "x9xA8P2Vlz98He7C",
    "data": {
        "actionCategory": {
            "value": ""
        },
        "actionType": {
            "value": "passive"
        },
        "actions": {
            "value": ""
        },
        "description": {
            "chat": "",
            "unidentified": "",
            "value": "<p><strong>Prerequisites </strong>master in Crafting</p>\n<hr>\n<p>You take only 1 minute to @Compendium[pf2e.actionspf2e.UAaQk93a30nx0nYY]{Affix a Talisman}. If you're legendary in Crafting, you can Affix a Talisman as a 3-action activity.</p>"
        },
        "featType": {
            "value": "skill"
        },
        "level": {
            "value": "7"
        },
        "prerequisites": {
            "value": "master in Crafting"
        },
        "rarity": {
            "value": "common"
        },
        "rules": [],
        "source": {
            "value": ""
        },
        "traits": {
            "rarity": {
                "value": "common"
            },
            "value": [
                "general",
                "skill"
            ]
        },
        "usage": {
            "value": ""
        }
    },
    "flags": {},
    "img": "systems/pf2e/icons/features/feats/feats.jpg",
    "name": "Rapid Affixture",
    "permission": {
        "default": 0
    },
    "type": "feat"
}
