{
    "_id": "lleedxE6fTDSK6og",
    "data": {
        "actionCategory": {
            "value": ""
        },
        "actionType": {
            "value": "action"
        },
        "actions": {
            "value": "3"
        },
        "description": {
            "chat": "",
            "unidentified": "",
            "value": "<p><strong>Prerequisites </strong><a class=\"entity-link\" data-pack=\"pf2e.feats-srd\" data-id=\"MJg24e9fJd7OASvF\" draggable=\"true\"><i class=\"fas fa-suitcase\"></i> Medic Dedication</a>, legendary in Medicine</p>\n<p><strong>Requirements</strong> You are holding healer's tools or are wearing them and have a hand free. Also, the target's body is mostly intact.</p>\n<hr>\n<p>You can use Medicine to resuscitate the dead. Attempt a DC 40 Medicine check to revive a dead creature that has been dead for no more than 3 rounds. If you succeed, the target returns to life with the effects of <a class=\"entity-link\" data-pack=\"pf2e.spells-srd\" data-id=\"IkGYwHRLhkuoGReG\" draggable=\"true\"><i class=\"fas fa-suitcase\"></i> Raise Dead</a>, except it still has the <a class=\"entity-link\" data-pack=\"pf2e.conditionspf2e\" data-id=\"Yl48xTdMh3aeQYL2\" draggable=\"true\"><i class=\"fas fa-book-open\"></i> Wounded</a> condition it had before <a class=\"entity-link\" data-pack=\"pf2e.conditionspf2e\" data-id=\"yZRUzMqrMmfLu0V1\" draggable=\"true\"><i class=\"fas fa-book-open\"></i> Dying</a>, increased by 1 (or wounded 1 if it wasn't wounded before dying). Whether you succeed or fail, the target is temporarily immune to Resuscitate for 1 day.</p>"
        },
        "featType": {
            "value": "archetype"
        },
        "level": {
            "value": "16"
        },
        "prerequisites": {
            "value": "Medic Dedication, legendary in Medicine"
        },
        "rarity": {
            "value": "common"
        },
        "rules": [],
        "source": {
            "value": ""
        },
        "traits": {
            "rarity": {
                "value": "common"
            },
            "value": [
                "archetype",
                "healing",
                "manipulate"
            ]
        },
        "usage": {
            "value": ""
        }
    },
    "flags": {},
    "img": "systems/pf2e/icons/features/feats/feats.jpg",
    "name": "Resuscitate",
    "permission": {
        "default": 0
    },
    "type": "feat"
}
