{
    "_id": "ATiQDz27aiBTAt17",
    "data": {
        "actionCategory": {
            "value": ""
        },
        "actionType": {
            "value": "reaction"
        },
        "actions": {
            "value": ""
        },
        "description": {
            "chat": "",
            "unidentified": "",
            "value": "<p><span id=\"ctl00_MainContent_DetailedOutput\"><strong>Prerequisites</strong> unbreakable goblin heritage, Bouncy Goblin<br><strong>Trigger</strong> A foe hits you with a melee weapon or unarmed attack.<br></span></p>\n<hr>\n<p>When you take a big hit, your foe bounces you around like a rubber ball, but you escape the worst of the blow. Your foe can move you any distance of its choice up to 30 feet in a direction of its choice (this is not forced movement, and it triggers reactions as normal). You fall prone and are stunned 1. Attempt a DC 6 flat check. On a success, you take minimum damage from the attack, and on a critical success, if the attack was a critical hit, you don't take double damage from the critical hit.</p>"
        },
        "featType": {
            "value": "ancestry"
        },
        "level": {
            "value": "9"
        },
        "prerequisites": {
            "value": "unbreakable goblin heritage, Bouncy Goblin"
        },
        "rarity": {
            "value": "common"
        },
        "rules": [],
        "source": {
            "value": ""
        },
        "traits": {
            "custom": "",
            "rarity": {
                "value": "common"
            },
            "value": [
                "goblin"
            ]
        },
        "usage": {
            "value": "held-in-one-hand"
        }
    },
    "flags": {},
    "img": "systems/pf2e/icons/features/feats/feats.jpg",
    "name": "Roll with It",
    "permission": {
        "default": 0
    },
    "type": "feat"
}
