{
    "_id": "wUHnauB3atxO1RIo",
    "data": {
        "actionCategory": {
            "value": ""
        },
        "actionType": {
            "value": "passive"
        },
        "actions": {
            "value": ""
        },
        "description": {
            "chat": "",
            "unidentified": "",
            "value": "<p><strong>Prerequisites</strong> <a class=\"entity-link\" data-pack=\"pf2e.feats-srd\" data-id=\"zWEu9xuAxBnPoSrv\" draggable=\"true\"><i class=\"fas fa-suitcase\"></i> Disturbing Defense</a></p>\n<hr>\n<p>Your skin develops a malleable, rubbery quality. You gain resistance to bludgeoning damage equal to 2 + your number of class feats from the oozemorph archetype. You also gain resistance equal to twice that amount to extra damage from critical hits; if the resistance is greater than the extra damage, it reduces the extra damage to 0 but doesn't reduce the attack's normal damage.</p>"
        },
        "featType": {
            "value": "archetype"
        },
        "level": {
            "value": "10"
        },
        "prerequisites": {
            "value": ""
        },
        "rarity": {
            "value": "common"
        },
        "rules": [],
        "source": {
            "value": ""
        },
        "traits": {
            "custom": "",
            "rarity": {
                "value": "common"
            },
            "selected": {
                "archetype": "Archetype"
            },
            "value": [
                "archetype"
            ]
        },
        "usage": {
            "value": "held-in-one-hand"
        }
    },
    "flags": {},
    "img": "systems/pf2e/icons/features/feats/feats.jpg",
    "name": "Rubbery Skin",
    "permission": {
        "default": 0
    },
    "type": "feat"
}
