{
    "_id": "csoGdGuWasEw3boD",
    "data": {
        "actionCategory": {
            "value": ""
        },
        "actionType": {
            "value": "action"
        },
        "actions": {
            "value": "1"
        },
        "description": {
            "chat": "",
            "unidentified": "",
            "value": "<p><span id=\"ctl00_MainContent_DetailedOutput\"><strong>Frequency</strong> 3 times per day<br><strong>Access</strong> Lirgeni nationality<br><strong>Requirements</strong> You must spend 10 minutes just after your daily preparations examining the sky or consulting a star chart or you can't use this action that day.<br></span></p>\n<hr>\n<p>The ancient Saoc Brethren were the masters of astrology, and while your knowledge may be but a pale shadow of their wisdom, it still comes in handy. You recall the stars' predictions about your current situation. If your next action requires you to attempt one or more skill checks, roll 1d8. On a result of 6, 7, or 8, you gain a +2 circumstance bonus to the first such skill check you attempt. On a 3, 4, or 5, you gain a +1 circumstance bonus. On a 2, you gain nothing. On a 1, you take a –1 circumstance penalty to the skill check.&nbsp;</p>"
        },
        "featType": {
            "value": "ancestry"
        },
        "level": {
            "value": "1"
        },
        "prerequisites": {
            "value": ""
        },
        "rarity": {
            "value": "common"
        },
        "rules": [],
        "source": {
            "value": ""
        },
        "traits": {
            "custom": "",
            "rarity": {
                "value": "common"
            },
            "value": [
                "uncommon",
                "concentrate",
                "human"
            ]
        },
        "usage": {
            "value": "held-in-one-hand"
        }
    },
    "flags": {},
    "img": "systems/pf2e/icons/features/feats/feats.jpg",
    "name": "Saoc Astrology",
    "permission": {
        "default": 0
    },
    "type": "feat"
}
