{
    "_id": "uhfZtjbfJ8pZIWrF",
    "data": {
        "actionCategory": {
            "value": ""
        },
        "actionType": {
            "value": "passive"
        },
        "actions": {
            "value": ""
        },
        "description": {
            "chat": "",
            "unidentified": "",
            "value": "<div><strong>Archetype </strong>@Compendium[pf2e.archetypes.2eAiIynDWTMKTGDU]{Scrollmaster}</div>\n<div><span id=\"ctl00_MainContent_DetailedOutput\"><strong>Prerequisites</strong> expert in any Lore skill, member of the Pathfinder Society affiliated with the School of Scrolls<br></span></div>\n<hr>\n<p>Your experience chronicling adventures and discoveries grants you heightened discernment and memory. For 24 hours after learning a prominent fact—such as the name of an NPC you have met, the details of your mission briefing, and similar information—you can recall it without attempting a check, though this doesn't allow you to automatically memorize long strings of numbers or text. You also gain a +2 circumstance bonus to checks to remember a detail that has come up before in the current adventure, even if it was more than 24 hours ago.</p>\n<p>If you have the@Compendium[pf2e.feats-srd.0Dy8RlFqrzCVOTl4]{Thorough Reports}&nbsp;feat and have expert proficiency in the skill you're using to Recall Knowledge, your circumstance bonus to Recall Knowledge about creatures from that feat increases to +4.</p>\n<p><strong>Special</strong> You cannot select another dedication feat until you have gained two other feats from the Scrollmaster archetype.&nbsp;</p>"
        },
        "featType": {
            "value": "class"
        },
        "level": {
            "value": "6"
        },
        "prerequisites": {
            "value": "expert in any Lore skill, member of the Pathfinder Society affiliated with the School of Scrolls"
        },
        "rarity": {
            "value": "common"
        },
        "rules": [],
        "source": {
            "value": ""
        },
        "traits": {
            "custom": "",
            "rarity": {
                "value": "uncommon"
            },
            "value": [
                "uncommon",
                "archetype",
                "dedication"
            ]
        },
        "usage": {
            "value": "held-in-one-hand"
        }
    },
    "flags": {},
    "img": "systems/pf2e/icons/features/feats/feats.jpg",
    "name": "Scrollmaster Dedication",
    "permission": {
        "default": 0
    },
    "type": "feat"
}
