{
    "_id": "P9swngiLXbhMegQ8",
    "data": {
        "actionCategory": {
            "value": ""
        },
        "actionType": {
            "label": "Action Type",
            "type": "String",
            "value": "passive"
        },
        "actions": {
            "label": "Number of Actions",
            "type": "String",
            "value": ""
        },
        "description": {
            "chat": "",
            "label": "Description",
            "type": "String",
            "unidentified": "",
            "value": "<p><strong>Prerequisites</strong> divine ally (shield)</p>\n<hr>\n<p>Your shield is a vessel of divine protection. When you're wielding your chosen shield, it is always raised, even without you using the Raise a Shield action. Your chosen shield doubles its HP and BT, rather than increasing them by half. If it would be destroyed, it vanishes to your deity's realm instead, where your divine ally repairs it. During your next daily preparations, the shield returns to you fully repaired.</p>"
        },
        "featType": {
            "label": "Feat Type",
            "type": "String",
            "value": "class"
        },
        "level": {
            "label": "Feat Level",
            "type": "String",
            "value": "20"
        },
        "prerequisites": {
            "label": "Prerequisites",
            "type": "String",
            "value": "divine ally (shield)"
        },
        "rarity": {
            "value": "common"
        },
        "rules": [],
        "source": {
            "label": "Source",
            "type": "String",
            "value": ""
        },
        "traits": {
            "custom": "",
            "label": "Traits",
            "rarity": {
                "value": "common"
            },
            "type": "String",
            "value": [
                "champion"
            ]
        },
        "usage": {
            "value": "held-in-one-hand"
        }
    },
    "flags": {},
    "img": "systems/pf2e/icons/features/feats/feats.jpg",
    "name": "Shield Paragon",
    "permission": {
        "default": 0
    },
    "type": "feat"
}
