{
    "_id": "DS0XlHfi3ztb3ET7",
    "data": {
        "actionCategory": {
            "value": ""
        },
        "actionType": {
            "value": "action"
        },
        "actions": {
            "value": "1"
        },
        "description": {
            "chat": "",
            "unidentified": "",
            "value": "<p>You fragment a ranged spell into a pair of smaller shots. If your next action is to <a class=\"entity-link\" data-pack=\"pf2e.actionspf2e\" data-id=\"aBQ8ajvEBByv45yz\" draggable=\"true\"><i class=\"fas fa-suitcase\"></i> Cast a Spell</a> without a duration that requires an attack roll against a single target and has no effect beyond dealing damage, you roll a single attack roll and compare the result to the AC of two targets within the spell's range. The spell deals only half its usual damage to each target.</p>\n<p>This counts as one attack for your multiple attack penalty.</p>"
        },
        "featType": {
            "value": "class"
        },
        "level": {
            "value": "4"
        },
        "prerequisites": {
            "value": ""
        },
        "rarity": {
            "value": "common"
        },
        "rules": [],
        "source": {
            "value": ""
        },
        "traits": {
            "rarity": {
                "value": "common"
            },
            "value": [
                "concentrate",
                "metamagic",
                "sorcerer"
            ]
        },
        "usage": {
            "value": ""
        }
    },
    "flags": {},
    "img": "systems/pf2e/icons/features/feats/feats.jpg",
    "name": "Split Shot",
    "permission": {
        "default": 0
    },
    "type": "feat"
}
