{
    "_id": "bWyY9NtLU5wXr03y",
    "data": {
        "actionCategory": {
            "value": ""
        },
        "actionType": {
            "value": "passive"
        },
        "actions": {
            "value": ""
        },
        "description": {
            "chat": "",
            "unidentified": "",
            "value": "<p>Wind and lightning have always been close friends to you. You can cast the <a class=\"entity-link\" data-pack=\"pf2e.spells-srd\" data-id=\"kBhaPuzLUSwS6vVf\" draggable=\"true\"><i class=\"fas fa-suitcase\"></i> Electric Arc</a> cantrip as a primal innate spell at will. A cantrip is heightened to a spell level equal to half your level rounded up.</p>"
        },
        "featType": {
            "value": "ancestry"
        },
        "level": {
            "value": "1"
        },
        "prerequisites": {
            "value": ""
        },
        "rarity": {
            "value": "common"
        },
        "rules": [],
        "source": {
            "value": ""
        },
        "traits": {
            "rarity": {
                "value": "common"
            },
            "value": [
                "tengu"
            ]
        },
        "usage": {
            "value": ""
        }
    },
    "flags": {},
    "img": "systems/pf2e/icons/features/feats/feats.jpg",
    "name": "Storm's Lash",
    "permission": {
        "default": 0
    },
    "type": "feat"
}
