{
    "_id": "eHjqNXgylSuvA887",
    "data": {
        "actionCategory": {
            "value": ""
        },
        "actionType": {
            "value": "passive"
        },
        "actions": {
            "value": ""
        },
        "description": {
            "chat": "",
            "unidentified": "",
            "value": "<div><strong>Archetype </strong><a class=\"entity-link\" data-pack=\"pf2e.archetypes\" data-id=\"JiRqSMv1STETLwSP\" draggable=\"true\"><i class=\"fas fa-book-open\"></i> Student of Perfection</a></div>\n<div><span id=\"ctl00_MainContent_DetailedOutput\"><strong>Prerequisites</strong> powerful fist or expert in unarmed attacks; member of a House of Perfection<br><strong>Access</strong> You are from Jalmeray.<br></span></div>\n<hr>\n<p>You have learned the martial arts techniques of your House of Perfection. You become trained in your choice of Acrobatics or Athletics and Warfare Lore; if you were already trained, you become an expert instead. You gain the <a class=\"entity-link\" data-pack=\"pf2e.feats-srd\" data-id=\"3a07jkWezSuORSpS\" draggable=\"true\"><i class=\"fas fa-suitcase\"></i> Ki Strike</a> monk class feat, which grants you the ki strike ki spell and a focus pool of 1 Focus Point that you can recover using the Refocus activity as a monk does. Your ki spells from Student of Perfection are occult spells.</p>\n<p><strong>Special</strong> You can't select another dedication feat until you have gained two other feats from the student of perfection archetype.&nbsp;</p>"
        },
        "featType": {
            "value": "archetype"
        },
        "level": {
            "value": "2"
        },
        "prerequisites": {
            "value": "powerful fist or expert in unarmed attacks; member of a House of Perfection"
        },
        "rarity": {
            "value": "common"
        },
        "rules": [],
        "source": {
            "value": ""
        },
        "traits": {
            "custom": "",
            "rarity": {
                "value": "uncommon"
            },
            "value": [
                "uncommon",
                "archetype",
                "dedication"
            ]
        },
        "usage": {
            "value": "held-in-one-hand"
        }
    },
    "flags": {},
    "img": "systems/pf2e/icons/features/feats/feats.jpg",
    "name": "Student of Perfection Dedication",
    "permission": {
        "default": 0
    },
    "type": "feat"
}
