{
    "_id": "QZ00D2xdJnbWFzml",
    "data": {
        "actionCategory": {
            "value": ""
        },
        "actionType": {
            "value": "passive"
        },
        "actions": {
            "value": ""
        },
        "description": {
            "chat": "",
            "unidentified": "",
            "value": "<p>You can capably deliver toxins with a @Compendium[pf2e.equipment-srd.FPwsiGqMCNPLHmjX]{Blowgun}. Your blowgun @Compendium[pf2e.actionspf2e.VjxZFuUXrCU94MWR]{Strikes} can apply injury poisons even if they deal no damage due to a creature's resistance.</p>\n<p>If you critically succeed at an attack roll using a blowgun loaded with a dart you've poisoned and the target rolls a failure on the poison's initial save, the target critically fails instead.</p>"
        },
        "featType": {
            "value": "class"
        },
        "level": {
            "value": "1"
        },
        "prerequisites": {
            "value": ""
        },
        "rarity": {
            "value": "common"
        },
        "rules": [],
        "source": {
            "value": ""
        },
        "traits": {
            "rarity": {
                "value": "common"
            },
            "value": [
                "alchemist"
            ]
        },
        "usage": {
            "value": ""
        }
    },
    "flags": {},
    "img": "systems/pf2e/icons/features/feats/feats.jpg",
    "name": "Subtle Delivery",
    "permission": {
        "default": 0
    },
    "type": "feat"
}
