{
    "_id": "fHWYICk6cSePr30c",
    "data": {
        "actionCategory": {
            "value": ""
        },
        "actionType": {
            "value": "passive"
        },
        "actions": {
            "value": ""
        },
        "description": {
            "chat": "",
            "unidentified": "",
            "value": "<p><span id=\"ctl00_MainContent_DetailedOutput\"><strong>Prerequisites</strong> Spellmaster Dedication <br></span></p>\n<hr>\n<p>You've learned that it pays for a Pathfinder to be able to cast spells without being noticed. You gain the @Compendium[pf2e.feats-srd.sIeuPW0j39fTZm08]{Conceal Spell} wizard class feat, though it's not a wizard feat for you. You also gain a +2 circumstance bonus to Stealth checks to Conceal a Spell and to Deception checks to conceal verbal components.&nbsp;</p>"
        },
        "featType": {
            "value": "archetype"
        },
        "level": {
            "value": "8"
        },
        "prerequisites": {
            "value": "Spellmaster Dedication "
        },
        "rarity": {
            "value": "common"
        },
        "rules": [],
        "source": {
            "value": ""
        },
        "traits": {
            "custom": "",
            "rarity": {
                "value": "common"
            },
            "value": [
                "archetype"
            ]
        },
        "usage": {
            "value": "held-in-one-hand"
        }
    },
    "flags": {},
    "img": "systems/pf2e/icons/features/feats/feats.jpg",
    "name": "Surreptitious Spellcaster",
    "permission": {
        "default": 0
    },
    "type": "feat"
}
