{
    "_id": "Xdmz09kzLjIxWz9C",
    "data": {
        "actionCategory": {
            "value": ""
        },
        "actionType": {
            "label": "Action Type",
            "type": "String",
            "value": "passive"
        },
        "actions": {
            "label": "Number of Actions",
            "type": "String",
            "value": ""
        },
        "description": {
            "chat": "",
            "label": "Description",
            "type": "String",
            "unidentified": "",
            "value": "<p><strong>Prerequisites</strong> scoundrel racket, Debilitating Strike</p>\n<hr>\n<p>You learn new debilitations that grant you tactical advantages against your foes. Add the following debilitations to the list you can choose from when you use Debilitating Strike.&nbsp;</p>\n<ul>\n<li><strong>Debilitation</strong> The target can't use reactions.</li>\n<li><strong>Debilitation</strong> The target can't flank or contribute to allies' flanking.</li>\n</ul>"
        },
        "featType": {
            "label": "Feat Type",
            "type": "String",
            "value": "class"
        },
        "level": {
            "label": "Feat Level",
            "type": "String",
            "value": "10"
        },
        "prerequisites": {
            "label": "Prerequisites",
            "type": "String",
            "value": "scoundrel racket, Debilitating Strike"
        },
        "rarity": {
            "value": "common"
        },
        "rules": [],
        "source": {
            "label": "Source",
            "type": "String",
            "value": ""
        },
        "traits": {
            "custom": "",
            "label": "Traits",
            "rarity": {
                "value": "common"
            },
            "type": "String",
            "value": [
                "rogue"
            ]
        },
        "usage": {
            "value": "held-in-one-hand"
        }
    },
    "flags": {},
    "img": "systems/pf2e/icons/features/feats/feats.jpg",
    "name": "Tactical Debilitations",
    "permission": {
        "default": 0
    },
    "type": "feat"
}
