{
    "_id": "V7bwuYADV8huWeF7",
    "data": {
        "actionCategory": {
            "value": ""
        },
        "actionType": {
            "value": "free"
        },
        "actions": {
            "value": ""
        },
        "description": {
            "chat": "",
            "unidentified": "",
            "value": "<p><span id=\"ctl00_MainContent_DetailedOutput\"><strong>Trigger</strong> You critically succeed at a Strike or Disarm with your Aldori dueling sword.<br></span></p>\n<hr>\n<p>Your incredible skill with your blade unnerves your foes. You attempt to @Compendium[pf2e.actionspf2e.2u915NdUyQan6uKF]{Demoralize} the target of your Strike or @Compendium[pf2e.actionspf2e.Dt6B1slsBy8ipJu9]{Disarm}. This Demoralize attempt does not have the auditory trait, nor do you take a penalty to the check if the target doesn't understand your language.&nbsp;</p>"
        },
        "featType": {
            "value": "archetype"
        },
        "level": {
            "value": "6"
        },
        "prerequisites": {
            "value": "Aldori Duelist Dedication"
        },
        "rarity": {
            "value": "common"
        },
        "rules": [],
        "source": {
            "value": ""
        },
        "traits": {
            "custom": "",
            "rarity": {
                "value": "common"
            },
            "value": [
                "archetype"
            ]
        },
        "usage": {
            "value": "held-in-one-hand"
        }
    },
    "flags": {},
    "img": "systems/pf2e/icons/features/feats/feats.jpg",
    "name": "Unnerving Prowess",
    "permission": {
        "default": 0
    },
    "type": "feat"
}
