{
    "_id": "Jnhkl2BOhxxRCTpp",
    "data": {
        "actionCategory": {
            "value": ""
        },
        "actionType": {
            "value": "action"
        },
        "actions": {
            "value": "2"
        },
        "description": {
            "chat": "",
            "unidentified": "",
            "value": "<p><strong>Prerequisites</strong> <a class=\"entity-link\" data-pack=\"pf2e.feats-srd\" data-id=\"1YFrl8I6ZGo7BIM9\" draggable=\"true\"><i class=\"fas fa-suitcase\"></i> Knight Vigilant Dedication</a> (Lost Omens Character Guide 94), <a class=\"entity-link\" data-pack=\"pf2e.feats-srd\" data-id=\"jM72TjJ965jocBV8\" draggable=\"true\"><i class=\"fas fa-suitcase\"></i> Shield Block</a></p>\n<hr>\n<p>As part of daily preparation, you can drill with a number of allies up to your Charisma modifier. These allies must be present and listening during this time, but this does not otherwise impede their own preparation. When you use this feat's benefit, you and all drilled companions within 30 feet who are wielding shields <a class=\"entity-link\" data-pack=\"pf2e.actionspf2e\" data-id=\"xjGwis0uaC2305pm\" draggable=\"true\"><i class=\"fas fa-suitcase\"></i> Raise a Shield</a>. Allies who Raise their Shields keep them raised until the start of their next turn, as normal.</p>"
        },
        "featType": {
            "value": "archetype"
        },
        "level": {
            "value": "10"
        },
        "prerequisites": {
            "value": ""
        },
        "rarity": {
            "value": "common"
        },
        "rules": [],
        "source": {
            "value": ""
        },
        "traits": {
            "custom": "",
            "rarity": {
                "value": "rare"
            },
            "selected": {
                "archetype": "Archetype"
            },
            "value": [
                "archetype"
            ]
        },
        "usage": {
            "value": "held-in-one-hand"
        }
    },
    "flags": {},
    "img": "systems/pf2e/icons/features/feats/feats.jpg",
    "name": "Vigil's Walls Rise Anew",
    "permission": {
        "default": 0
    },
    "type": "feat"
}
