{
    "_id": "8H72RC7QI1i8wjJ1",
    "data": {
        "actionCategory": {
            "value": ""
        },
        "actionType": {
            "value": "passive"
        },
        "actions": {
            "value": ""
        },
        "description": {
            "chat": "",
            "unidentified": "",
            "value": "<p>You've learned to put your sturdy claws to work digging through the earth. You gain a <a class=\"entity-link\" data-pack=\"pf2e.actionspf2e\" data-id=\"H6v1VgowHaKHnVlG\" draggable=\"true\"><i class=\"fas fa-suitcase\"></i> Burrow</a> Speed of 15 feet.</p>"
        },
        "featType": {
            "value": "ancestry"
        },
        "level": {
            "value": "13"
        },
        "prerequisites": {
            "value": ""
        },
        "rarity": {
            "value": "common"
        },
        "rules": [],
        "source": {
            "value": ""
        },
        "traits": {
            "rarity": {
                "value": "common"
            },
            "value": [
                "ratfolk"
            ]
        },
        "usage": {
            "value": ""
        }
    },
    "flags": {},
    "img": "systems/pf2e/icons/features/feats/feats.jpg",
    "name": "Warren Digger",
    "permission": {
        "default": 0
    },
    "type": "feat"
}
