{
    "_id": "9Orkgjgfx8AILuqD",
    "data": {
        "actionCategory": {
            "value": ""
        },
        "actionType": {
            "value": "passive"
        },
        "actions": {
            "value": ""
        },
        "description": {
            "chat": "",
            "unidentified": "",
            "value": "<p>You're particularly good at solving mazes and navigating twists and turns. You gain the trained proficiency rank in Survival. If you would automatically become trained in Survival (from your background or class, for example), you become trained in another skill of your choice. When you <a class=\"entity-link\" data-pack=\"pf2e.actionspf2e\" data-id=\"fJImDBQfqfjKJOhk\" draggable=\"true\"><i class=\"fas fa-suitcase\"></i> Sense Direction</a> or attempt a roll against a <a class=\"entity-link\" data-pack=\"pf2e.spells-srd\" data-id=\"Oj1PJBMQD9vuwCv7\" draggable=\"true\"><i class=\"fas fa-suitcase\"></i> Maze</a> spell, you get a result one degree of success better than you rolled. You don't take a penalty to <a class=\"entity-link\" data-pack=\"pf2e.actionspf2e\" data-id=\"fJImDBQfqfjKJOhk\" draggable=\"true\"><i class=\"fas fa-suitcase\"></i> Sense Direction</a> when you lack a compass.</p>"
        },
        "featType": {
            "value": "ancestry"
        },
        "level": {
            "value": "1"
        },
        "prerequisites": {
            "value": ""
        },
        "rarity": {
            "value": "common"
        },
        "rules": [],
        "source": {
            "value": ""
        },
        "traits": {
            "rarity": {
                "value": "common"
            },
            "value": [
                "ratfolk"
            ]
        },
        "usage": {
            "value": ""
        }
    },
    "flags": {},
    "img": "systems/pf2e/icons/features/feats/feats.jpg",
    "name": "Warren Navigator",
    "permission": {
        "default": 0
    },
    "type": "feat"
}
