{
    "_id": "w0nSRBNwexM5Dh0D",
    "data": {
        "actionCategory": {
            "value": ""
        },
        "actionType": {
            "label": "Action Type",
            "type": "String",
            "value": "action"
        },
        "actions": {
            "label": "Number of Actions",
            "type": "String",
            "value": "1"
        },
        "description": {
            "chat": "",
            "label": "Description",
            "type": "String",
            "unidentified": "",
            "value": "<p><strong>Requirements</strong> You have a creature grabbed or restrained.</p>\n<hr>\n<p>You propel your grabbed or restrained foe a great distance. You can throw the creature any distance up to 10 feet, plus 5 feet × your Strength modifier. If you successfully throw the creature, it takes bludgeoning damage equal to your Strength modifier plus 1d6 per 10 feet you threw it.</p>\n<p>Attempt an Athletics check against the foe's Fortitude DC. You take a –2 circumstance penalty to your check if the target is one size larger than you and a –4 circumstance penalty if it's larger than that. You gain a +2 circumstance bonus to your check if the target is one size smaller than you and a +4 circumstance bonus if it's smaller than that.</p>\n<hr>\n<p><strong>Critical Success</strong> You throw the creature the desired distance and it lands prone.</p>\n<p><strong>Success</strong> You throw the creature the desired distance.</p>\n<p><strong>Failure</strong> You don't throw the creature.</p>\n<p><strong>Critical Failure</strong> You don't throw the creature, and it's no longer grabbed or restrained by you.</p>"
        },
        "featType": {
            "label": "Feat Type",
            "type": "String",
            "value": "class"
        },
        "level": {
            "label": "Feat Level",
            "type": "String",
            "value": "6"
        },
        "prerequisites": {
            "label": "Prerequisites",
            "type": "String",
            "value": "You have a creature grabbed or restrained"
        },
        "rarity": {
            "value": "common"
        },
        "rules": [],
        "source": {
            "label": "Source",
            "type": "String",
            "value": ""
        },
        "traits": {
            "custom": "",
            "label": "Traits",
            "rarity": {
                "value": "common"
            },
            "type": "String",
            "value": [
                "monk"
            ]
        },
        "usage": {
            "value": "held-in-one-hand"
        }
    },
    "flags": {},
    "img": "systems/pf2e/icons/features/feats/feats.jpg",
    "name": "Whirling Throw",
    "permission": {
        "default": 0
    },
    "type": "feat"
}
