{
    "_id": "VN3OHDYcnLaw0nW1",
    "data": {
        "actionCategory": {
            "value": ""
        },
        "actionType": {
            "value": "passive"
        },
        "actions": {
            "value": ""
        },
        "description": {
            "chat": "",
            "unidentified": "",
            "value": "<p><strong>Prerequisite</strong> @Compendium[pf2e.feats-srd.pZMBq7gn66SEEA0n]{Horizon Walker Dedication}</p>\n<hr>\n<p>Natural obstacles pose no obstacle to you. You gain the ranger's @Compendium[pf2e.classfeatures.RlwE99yKnhq8FUuy]{Wild Stride} class feature. This allows you to ignore the effects of all non-magical difficult terrain, treat greater difficult terrain as merely difficult terrain, and gives you an additional benefit from @Compendium[pf2e.feats-srd.sgo7J9BVofBqwlsF]{Favored Terrain} based on the terrain.</p>"
        },
        "featType": {
            "value": "archetype"
        },
        "level": {
            "value": "12"
        },
        "prerequisites": {
            "value": "Horizon Walker Dedication"
        },
        "rarity": {
            "value": "common"
        },
        "rules": [],
        "source": {
            "value": ""
        },
        "traits": {
            "rarity": {
                "value": "common"
            },
            "value": [
                "archetype"
            ]
        },
        "usage": {
            "value": ""
        }
    },
    "flags": {},
    "img": "systems/pf2e/icons/features/feats/feats.jpg",
    "name": "Wild Strider",
    "permission": {
        "default": 0
    },
    "type": "feat"
}
