{
    "_id": "ouGM2y2aO0yisPAs",
    "data": {
        "abilities": {
            "cha": {
                "min": 3,
                "mod": 2,
                "value": 14
            },
            "con": {
                "min": 3,
                "mod": 2,
                "value": 14
            },
            "dex": {
                "min": 3,
                "mod": 2,
                "value": 14
            },
            "int": {
                "min": 3,
                "mod": 2,
                "value": 14
            },
            "str": {
                "min": 3,
                "mod": "+2",
                "value": 14
            },
            "wis": {
                "min": 3,
                "mod": 2,
                "value": 14
            }
        },
        "attributes": {
            "ac": {
                "check": 0,
                "details": "",
                "dex": 0,
                "item": 0,
                "min": 0,
                "value": "15"
            },
            "allSaves": {
                "value": ""
            },
            "ancestryhp": 0,
            "bonusEncumbranceBulk": 0,
            "bonusLimitBulk": 0,
            "classDC": {
                "ability": "str",
                "breakdown": "",
                "item": 0,
                "rank": 0,
                "value": 0
            },
            "classhp": 0,
            "flatbonushp": 0,
            "flatbonussp": 0,
            "hp": {
                "details": "",
                "max": "22",
                "min": 0,
                "temp": 0,
                "tempmax": 0,
                "value": "22"
            },
            "init": {
                "bonus": 0,
                "value": 0
            },
            "initiative": {
                "ability": "",
                "circumstance": 0,
                "status": 0
            },
            "levelbonushp": 0,
            "levelbonussp": 0,
            "perception": {
                "ability": "wis",
                "breakdown": "",
                "item": 0,
                "rank": 0,
                "value": 7
            },
            "resolve": {
                "value": 0
            },
            "shield": {
                "ac": 0,
                "brokenThreshold": 0,
                "hardness": 0,
                "max": 0,
                "min": 0,
                "value": 0
            },
            "sp": {
                "details": "",
                "max": 0,
                "min": 0,
                "value": 0
            },
            "speed": {
                "otherSpeeds": [],
                "special": "",
                "value": "25 feet"
            }
        },
        "currency": {
            "cp": {
                "value": 0
            },
            "gp": {
                "value": 0
            },
            "pp": {
                "value": 0
            },
            "sp": {
                "value": 0
            }
        },
        "details": {
            "alignment": {
                "value": "A"
            },
            "ancestry": {
                "value": ""
            },
            "biography": {
                "public": "",
                "value": ""
            },
            "class": {
                "value": ""
            },
            "creatureType": "Petitioner",
            "deity": {
                "image": "systems/pf2e/assets/sheet/deity.png",
                "value": ""
            },
            "flavorText": "When a mortal dies, their soul travels to the Boneyard in the Outer Planes where they are judged by Pharasma, the goddess of the dead. Once they have been judged, their soul is sent on to their final reward or punishment in the afterlife, and in the process is transformed into a creature known as a petitioner. This process grants the soul a new body, one whose shape is the result of the prevailing philosophical forces of the plane to which it is sent. The petitioner's memories from their life are typically wiped nearly clean, allowing them to retain only a few hazy fragments akin to half-remembered dreams. Regardless of the petitioner's size, power, or nature in life, they're a Medium creature in their afterlife.<br><br> Existence as a petitioner can last for eons, but this state is not necessarily eternal. Deities, powerful denizens of the Great Beyond, or even the outer planes themselves can further change the petitioner's nature by transforming them into raw quintessence, spiritual essence that is then used to expand a plane's physical manifestation, or by transforming the petitioner into a new form of supernatural life such as a celestial, monitor, or fiend. Should a petitioner die, their body breaks down in a process akin to decay, their nature reverting back to the quintessence or elements that make up their plane. This represents the true end of a soul's journey: their associated life essence travels back to the heart of the Great Beyond to be recycled into the Positive Energy plane, fueling the creation of entirely new souls.",
            "flavourText": "",
            "heritage": {
                "value": ""
            },
            "keyability": {
                "value": "str"
            },
            "level": {
                "min": 1,
                "value": "1"
            },
            "nethysUrl": "https://2e.aonprd.com/Monsters.aspx?ID=758",
            "recallKnowledgeText": "",
            "sidebarText": "<h3 class=\"title\"><img alt=\"Sidebar - Additional Lore\" title=\"Sidebar - Additional Lore\" style=\"height:20px; padding:2px 10px 0px 2px\" src=\"Images\\Icons\\Sidebar_2_AdditionalLore.png\"> First World Petitioners</h3>A soul sent to the First World does not become a petitioner. Rather, they immediately reincarnate into a fey creature whose temperament and role match their mortal personalities. This process tends to leave souls who incarnate into the First World with slightly more fragments of memories than most petitioners, yet still not enough that they remember who they once were.<h3 class=\"title\"><img alt=\"Sidebar - Advice and Rules\" title=\"Sidebar - Advice and Rules\" style=\"height:20px; padding:2px 10px 0px 2px\" src=\"Images\\Icons\\Sidebar_1_AdviceAndRules.png\"> Other Petitioners</h3>Each plane  has its own category of petitioner, but not every plane or demiplane present in the Pathfinder setting is listed here. Certainly, planes of your own design aren&apos;t represented! You can use the wide range of petitioner types and descriptions here as templates or inspiration for creating new types of petitioners: each needs a name, appearance, alignment, language, additional ability, and attack. For instance, Desna maintains a demiplane called Cynosure that straddles the Material Plane and Elysium. Petitioners on Cynosure are known as the chosen dreamers, and they appear as idealized and softly glowing versions of their mortal selves; they are chaotic good, speak Celestial, are immune to @Compendium[pf2e.conditionspf2e.yblD8fOR1J8rDwEQ]{Confused} and @Compendium[pf2e.conditionspf2e.e1XGnhKNSQIm5IXg]{Stupefied}, and deal bludgeoning damage with their fists.",
            "source": {
                "value": "Bestiary 2 pg. 198"
            }
        },
        "martial": {
            "advanced": {
                "breakdown": "",
                "rank": 0,
                "value": 0
            },
            "heavy": {
                "breakdown": "",
                "rank": 0,
                "value": 0
            },
            "light": {
                "breakdown": "",
                "rank": 0,
                "value": 0
            },
            "martial": {
                "breakdown": "",
                "rank": 0,
                "value": 0
            },
            "medium": {
                "breakdown": "",
                "rank": 0,
                "value": 0
            },
            "simple": {
                "breakdown": "",
                "rank": 0,
                "value": 0
            },
            "unarmed": {
                "breakdown": "",
                "rank": 0,
                "value": 0
            },
            "unarmored": {
                "breakdown": "",
                "rank": 0,
                "value": 0
            }
        },
        "saves": {
            "fortitude": {
                "ability": "con",
                "breakdown": "",
                "item": 0,
                "rank": 0,
                "saveDetail": "",
                "value": 7
            },
            "reflex": {
                "ability": "dex",
                "breakdown": "",
                "item": 0,
                "rank": 0,
                "saveDetail": "",
                "value": 7
            },
            "will": {
                "ability": "wis",
                "breakdown": "",
                "item": 0,
                "rank": 0,
                "saveDetail": "",
                "value": 7
            }
        },
        "schema": {
            "version": {
                "value": ""
            }
        },
        "skills": {
            "acr": {
                "ability": "dex",
                "armor": 1,
                "breakdown": "",
                "item": 0,
                "mod": 0,
                "rank": 0,
                "value": 0
            },
            "arc": {
                "ability": "int",
                "breakdown": "",
                "item": 0,
                "mod": 0,
                "rank": 0,
                "value": 0
            },
            "ath": {
                "ability": "str",
                "armor": 1,
                "breakdown": "",
                "item": 0,
                "mod": 0,
                "rank": 0,
                "value": 0
            },
            "cra": {
                "ability": "int",
                "breakdown": "",
                "item": 0,
                "mod": 0,
                "rank": 0,
                "value": 0
            },
            "dec": {
                "ability": "cha",
                "breakdown": "",
                "item": 0,
                "mod": 0,
                "rank": 0,
                "value": 0
            },
            "dip": {
                "ability": "cha",
                "breakdown": "",
                "item": 0,
                "mod": 0,
                "rank": 0,
                "value": 0
            },
            "itm": {
                "ability": "cha",
                "breakdown": "",
                "item": 0,
                "mod": 0,
                "rank": 0,
                "value": 0
            },
            "med": {
                "ability": "wis",
                "breakdown": "",
                "item": 0,
                "mod": 0,
                "rank": 0,
                "value": 0
            },
            "nat": {
                "ability": "wis",
                "breakdown": "",
                "item": 0,
                "mod": 0,
                "rank": 0,
                "value": 0
            },
            "occ": {
                "ability": "int",
                "breakdown": "",
                "item": 0,
                "mod": 0,
                "rank": 0,
                "value": 0
            },
            "prf": {
                "ability": "cha",
                "breakdown": "",
                "item": 0,
                "mod": 0,
                "rank": 0,
                "value": 0
            },
            "rel": {
                "ability": "wis",
                "breakdown": "",
                "item": 0,
                "mod": 0,
                "rank": 0,
                "value": 0
            },
            "soc": {
                "ability": "int",
                "breakdown": "",
                "item": 0,
                "mod": 0,
                "rank": 0,
                "value": 0
            },
            "ste": {
                "ability": "dex",
                "armor": 1,
                "breakdown": "",
                "item": 0,
                "mod": 0,
                "rank": 0,
                "value": 0
            },
            "sur": {
                "ability": "wis",
                "breakdown": "",
                "item": 0,
                "mod": 0,
                "rank": 0,
                "value": 0
            },
            "thi": {
                "ability": "dex",
                "armor": 1,
                "breakdown": "",
                "item": 0,
                "mod": 0,
                "rank": 0,
                "value": 0
            }
        },
        "spells": {
            "spell0": {
                "max": 0
            },
            "spell1": {
                "max": 0
            },
            "spell10": {
                "max": 0
            },
            "spell11": {
                "max": 0
            },
            "spell2": {
                "max": 0
            },
            "spell3": {
                "max": 0
            },
            "spell4": {
                "max": 0
            },
            "spell5": {
                "max": 0
            },
            "spell6": {
                "max": 0
            },
            "spell7": {
                "max": 0
            },
            "spell8": {
                "max": 0
            },
            "spell9": {
                "max": 0
            }
        },
        "statusEffects": [],
        "traits": {
            "ci": [],
            "di": {
                "custom": "",
                "value": []
            },
            "dr": [],
            "dv": [],
            "languages": {
                "custom": "see planar incarnation",
                "selected": [],
                "value": [
                    "custom"
                ]
            },
            "rarity": {
                "value": "common"
            },
            "senses": {
                "value": "darkvision"
            },
            "size": {
                "value": "med"
            },
            "traits": {
                "custom": "",
                "value": [
                    "petitioner"
                ]
            }
        }
    },
    "flags": {
        "pf2e_updatednpcsheet": {}
    },
    "img": "icons/svg/mystery-man.svg",
    "items": [
        {
            "_id": "9yu44cM7W0Xg2Q36",
            "data": {
                "actionCategory": {
                    "value": "offensive"
                },
                "actionType": {
                    "value": "action"
                },
                "actions": {
                    "value": 1
                },
                "description": {
                    "chat": "",
                    "unidentified": "",
                    "value": "All petitioners are formed from and personify the nature of the plane on which they manifest, and their statistics are adjusted as summarized below. They also gain any trait associated with creatures from their plane. <br><b>Abaddon </b> The hunted appear as Medium sized versions of themselves from their prior lives, and they exist to be pursued and consumed by daemons; <b>Alignment</b> NE; <b>Language</b> Daemonic; <b>Additional Ability</b> @Compendium[pf2e.bestiary-ability-glossary-srd.fJSNOw4zHGbIm4bZ]{Fast Healing} 5; <b>Melee</b> fist +7, <b>Damage</b> 1d8+2 bludgeoning <br><b>Abyss </b> The larvae appear as maggot-like grubs with the face the petitioners had in life; <b>Alignment</b> CE; <b>Language</b> Abyssal; <b>Additional Ability</b> immune to disease and poison; <b>Melee</b> jaws +7, <b>Damage</b> 1d8+2 piercing <br><b>Astral Plane </b> The untethered appear as astrally projected versions of their mortal forms, yet they lack a silver cord; <b>Alignment</b> any; <b>Language</b> any one spoken in life (such as Common); <b>Additional Ability</b> fly Speed 20 feet; <b>Melee</b> fist +7, <b>Damage</b> 1d8+2 bludgeoning <br><b>Axis </b> The unmade appear as parchment-skinned humanoids covered in lines of close black script; <b>Alignment</b> LN; <b>Language</b> Utopian; <b>Additional Ability</b> immune to emotion and fear; <b>Melee</b> fist +7, <b>Damage</b> 1d8+2 bludgeoning <br><b>Boneyard </b> The dead appear as animated skeletons of the type of creature they were when they were alive; <b>Alignment</b> N; <b>Language</b> Requian; <b>Additional Ability</b> resist piercing and slashing 3; Melee claw +7, Damage 1d8+2 slashing <br><b>Dead Vault </b> The caged are sent to Rovagug&apos;s prison plane, the Dead Vault; they appear as chained versions of their mortal bodies, save that their faces are hideous insectile visages; <b>Alignment</b> CE; <b>Language</b> Abyssal; <b>Additional Ability</b> @Compendium[pf2e.bestiary-ability-glossary-srd.3JOi2cMcGhT3eze1]{Rend} bite; <b>Melee</b> bite +7, <b>Damage</b> 1d8+2 piercing <br><b>Dimension of Dreams </b> The dreamers appear as their ideal appearance, age, and gender from their mortal bodies; <b>Alignment</b> any; <b>Language</b> Aklo; <b>Additional Ability</b> +1 circumstance bonus on all saving throws; <b>Melee</b> fist +7, <b>Damage</b> 1d8+2 bludgeoning <br><b>Elysium </b> The chosen appear as idealized versions of their mortal selves with glowing eyes; <b>Alignment</b> CG; <b>Language</b> Celestial; <b>Additional Ability</b> immune to @Compendium[pf2e.spells-srd.VosLNn2M8S7JH67D]{Blindness} and @Compendium[pf2e.conditionspf2e.Dazzled]; <b>Melee</b> fist +7, <b>Damage</b> 1d8+2 bludgeoning <br><b>Ethereal Plane </b> The terrorized appear as sickly, haunted-looking versions of their mortal selves; <b>Alignment</b> any; <b>Language</b> any one spoken in life (such as Common); <b>Additional Ability</b> immune to bleed and death effects; <b>Melee</b> fist +7, <b>Damage</b> 1d8+2 bludgeoning <br><b>Heaven </b> The elect have golden halos and ghostly wings, but they otherwise appear as their mortal forms; <b>Alignment</b> LG; <b>Language</b> Celestial; <b>Additional Ability</b> fly Speed 20 feet; <b>Melee</b> wing +7, <b>Damage</b> 1d8+2 bludgeoning <br><b>Hell </b> The damned look like terribly scarred or mutilated versions of their mortal selves; <b>Alignment</b> LE; <b>Language</b> Infernal; <b>Additional Ability</b> immune to fire; <b>Melee</b> jaws +7, <b>Damage</b> 1d8+2 piercing <br><b>Maelstrom</b> The shapeless appear as half-melted reflections of their former mortal selves; <b>Alignment</b> CN; <b>Language</b> Protean; <b>Additional Ability</b> immune to critical hits and precision; <b>Melee</b> fist +7, <b>Damage</b> 1d8+2 bludgeoning <br><b>Material Plane </b> The remnants are among the rarest of petitioners; they appear as plain, bland versions of the ancestry of their mortal lives; <b>Alignment</b> any; <b>Language</b> any one spoken in life (such as Common); <b>Additional Ability</b> @Compendium[pf2e.bestiary-ability-glossary-srd.N1kstYbHScxgUQtN]{Ferocity}; <b>Melee</b> fist +7, <b>Damage</b> 1d8+2 bludgeoning <br><b>Nirvana </b> The cleansed take on animal forms that match their personalities in life; <b>Alignment</b> NG; <b>Language</b> Celestial; <b>Additional Ability</b> speed 35 feet; <b>Melee</b> claw +7, <b>Damage</b> 1d8+2 slashing <br><b>Plane of Air </b> Air pneuma appear as versions of their mortal selves composed of air; <b>Alignment</b> any; <b>Language</b> Auran; <b>Additional Ability</b> fly Speed 20 feet; <b>Melee</b> gust +7 (air), <b>Damage</b> 1d8+2 bludgeoning <br><b>Plane of Earth </b> Earth pneuma appear as versions of their mortal selves built of earth or stone; <b>Alignment</b> any; <b>Language</b> Terran; <b>Additional Ability</b> burrow Speed 20 feet; <b>Melee</b> fist +7 (earth), <b>Damage</b> 1d8+2 bludgeoning <br><b>Plane of Fire </b> Fire pneuma appear as versions of their mortal selves shaped from flame; <b>Alignment</b> any; <b>Language</b> Ignan; <b>Additional Ability</b> immunity to fire; <b>Melee</b> cinder +7 (fire), <b>Damage</b> 1d8+2 fire <br><b>Plane of Water </b> Water pneuma appear as versions of their mortal selves formed of flowing water; <b>Alignment</b> any; <b>Language</b> Aquan; <b>Additional Ability</b> amphibious, swim Speed 20 feet; <b>Melee</b> current +7 (water), <b>Damage</b> 1d8+2 bludgeoning <br><b>Positive Energy Plane </b> The enlightened appear as diaphanous, radiant versions of their mortal selves; <b>Alignment</b> any good; <b>Language</b> Jyoti; <b>Additional Ability</b> @Compendium[pf2e.bestiary-ability-glossary-srd.fJSNOw4zHGbIm4bZ]{Fast Healing} 5; <b>Melee</b> glowing touch +7, <b>Damage</b> 1d8+2 positive <br><b>Shadow Plane </b> The mutilated appear as they did in their mortal lives, yet are covered in wounds or partially adorned or wrapped in chains; <b>Alignment</b> any evil; <b>Language</b> Shadowtongue; <b>Additional Ability</b> immune to bleed and fear; <b>Melee</b> chain +7, <b>Damage</b> 1d8+2 bludgeoning"
                },
                "rarity": {
                    "value": "common"
                },
                "requirements": {
                    "value": ""
                },
                "skill_requirements": {
                    "rank": "",
                    "skill": ""
                },
                "source": {
                    "value": ""
                },
                "traits": {
                    "value": [
                        "disease",
                        "poison",
                        "emotion",
                        "fear",
                        "Dimension of Dreams",
                        "death",
                        "amphibious"
                    ]
                },
                "trigger": {
                    "value": ""
                },
                "usage": {
                    "value": "held-in-one-hand"
                },
                "weapon": {
                    "value": ""
                }
            },
            "flags": {},
            "img": "icons/svg/mystery-man.svg",
            "name": "Planar Incarnation",
            "sort": 100000,
            "type": "action"
        },
        {
            "_id": "Oiqxjokle1WbAEyL",
            "data": {
                "description": {
                    "chat": "",
                    "unidentified": "",
                    "value": ""
                },
                "featType": "",
                "item": {
                    "value": 0
                },
                "mod": {
                    "value": 7
                },
                "proficient": {
                    "value": 0
                },
                "rarity": {
                    "value": "common"
                },
                "source": {
                    "value": ""
                },
                "traits": {
                    "value": []
                },
                "usage": {
                    "value": "held-in-one-hand"
                }
            },
            "flags": {},
            "img": "icons/svg/mystery-man.svg",
            "name": "Athletics",
            "sort": 200000,
            "type": "lore"
        },
        {
            "_id": "HUJdrgu9JAWlm7bC",
            "data": {
                "description": {
                    "chat": "",
                    "unidentified": "",
                    "value": ""
                },
                "featType": "",
                "item": {
                    "value": 0
                },
                "mod": {
                    "value": 7
                },
                "proficient": {
                    "value": 0
                },
                "rarity": {
                    "value": "common"
                },
                "source": {
                    "value": ""
                },
                "traits": {
                    "value": []
                },
                "usage": {
                    "value": "held-in-one-hand"
                }
            },
            "flags": {},
            "img": "icons/svg/mystery-man.svg",
            "name": "Planar Lore",
            "sort": 300000,
            "type": "lore"
        }
    ],
    "name": "Petitioner",
    "permission": {
        "default": 0
    },
    "token": {
        "actorData": {},
        "actorId": "ouGM2y2aO0yisPAs",
        "actorLink": false,
        "bar1": {
            "attribute": "attributes.hp"
        },
        "bar2": {},
        "brightLight": 0,
        "brightSight": 0,
        "dimLight": 0,
        "dimSight": 0,
        "displayBars": 20,
        "displayName": 20,
        "disposition": -1,
        "flags": {},
        "height": 1,
        "img": "icons/svg/mystery-man.svg",
        "lightAlpha": 1,
        "lightAngle": 360,
        "lockRotation": false,
        "name": "Petitioner",
        "randomImg": false,
        "rotation": 0,
        "scale": 1,
        "sightAngle": 360,
        "tint": null,
        "vision": false,
        "width": 1
    },
    "type": "npc"
}
