{
    "_id": "nipVBTEgG6itWJSW",
    "data": {
        "abilities": {
            "cha": {
                "min": 3,
                "mod": 7,
                "value": 24
            },
            "con": {
                "min": 3,
                "mod": 7,
                "value": 24
            },
            "dex": {
                "min": 3,
                "mod": 5,
                "value": 20
            },
            "int": {
                "min": 3,
                "mod": -3,
                "value": 4
            },
            "str": {
                "min": 3,
                "mod": "+8",
                "value": 26
            },
            "wis": {
                "min": 3,
                "mod": 6,
                "value": 22
            }
        },
        "attributes": {
            "ac": {
                "check": 0,
                "details": "",
                "dex": 0,
                "item": 0,
                "min": 0,
                "value": "38"
            },
            "allSaves": {
                "value": "+1 status to all saves vs. magic"
            },
            "ancestryhp": 0,
            "bonusEncumbranceBulk": 0,
            "bonusLimitBulk": 0,
            "classDC": {
                "ability": "str",
                "breakdown": "",
                "item": 0,
                "rank": 0,
                "value": 0
            },
            "classhp": 0,
            "flatbonushp": 0,
            "flatbonussp": 0,
            "hp": {
                "details": "regeneration 10 ",
                "max": "295",
                "min": 0,
                "temp": 0,
                "tempmax": 0,
                "value": "295"
            },
            "init": {
                "bonus": 0,
                "value": 0
            },
            "initiative": {
                "ability": "",
                "circumstance": 0,
                "status": 0
            },
            "levelbonushp": 0,
            "levelbonussp": 0,
            "perception": {
                "ability": "wis",
                "breakdown": "",
                "item": 0,
                "rank": 0,
                "value": 27
            },
            "resolve": {
                "value": 0
            },
            "shield": {
                "ac": 0,
                "brokenThreshold": 0,
                "hardness": 0,
                "max": 0,
                "min": 0,
                "value": 0
            },
            "sp": {
                "details": "",
                "max": 0,
                "min": 0,
                "value": 0
            },
            "speed": {
                "otherSpeeds": [
                    {
                        "type": "Fly",
                        "value": "100 feet"
                    },
                    {
                        "type": "Swim",
                        "value": "100 feet"
                    }
                ],
                "special": "",
                "value": "35 feet"
            }
        },
        "currency": {
            "cp": {
                "value": 0
            },
            "gp": {
                "value": 0
            },
            "pp": {
                "value": 0
            },
            "sp": {
                "value": 0
            }
        },
        "details": {
            "alignment": {
                "value": "CE"
            },
            "ancestry": {
                "value": "Linnorm"
            },
            "biography": {
                "public": "",
                "value": ""
            },
            "class": {
                "value": ""
            },
            "creatureType": "Dragon",
            "deity": {
                "image": "systems/pf2e/assets/sheet/deity.png",
                "value": ""
            },
            "flavorText": "Shoal linnorms occupy rocky shoreline shallows and slither along lonely coastlines. While they do not intentionally seek out large settlements, these linnorms nonetheless beleaguer fishers headed out from small coastal towns, and they may even follow skiffs back to their home port to appraise the town's defenses and plan a raid. Shoal linnorms tend to hunt large prey, both underwater and on land. Their preferred quarries includes giant squid and grizzly bears—meals rich in fat, which the linnorms metabolize into the fiery steam that courses through their veins.<br><br>",
            "flavourText": "",
            "heritage": {
                "value": ""
            },
            "keyability": {
                "value": "str"
            },
            "level": {
                "min": 1,
                "value": "15"
            },
            "nethysUrl": "https://2e.aonprd.com/Monsters.aspx?ID=720",
            "recallKnowledgeText": "Recall Knowledge - Dragon : DC 36",
            "sidebarText": "",
            "source": {
                "value": "Bestiary 2 pg. 164"
            }
        },
        "martial": {
            "advanced": {
                "breakdown": "",
                "rank": 0,
                "value": 0
            },
            "heavy": {
                "breakdown": "",
                "rank": 0,
                "value": 0
            },
            "light": {
                "breakdown": "",
                "rank": 0,
                "value": 0
            },
            "martial": {
                "breakdown": "",
                "rank": 0,
                "value": 0
            },
            "medium": {
                "breakdown": "",
                "rank": 0,
                "value": 0
            },
            "simple": {
                "breakdown": "",
                "rank": 0,
                "value": 0
            },
            "unarmed": {
                "breakdown": "",
                "rank": 0,
                "value": 0
            },
            "unarmored": {
                "breakdown": "",
                "rank": 0,
                "value": 0
            }
        },
        "saves": {
            "fortitude": {
                "ability": "con",
                "breakdown": "",
                "item": 0,
                "rank": 0,
                "saveDetail": "",
                "value": 29
            },
            "reflex": {
                "ability": "dex",
                "breakdown": "",
                "item": 0,
                "rank": 0,
                "saveDetail": "",
                "value": 25
            },
            "will": {
                "ability": "wis",
                "breakdown": "",
                "item": 0,
                "rank": 0,
                "saveDetail": "",
                "value": 22
            }
        },
        "schema": {
            "version": {
                "value": ""
            }
        },
        "skills": {
            "acr": {
                "ability": "dex",
                "armor": 1,
                "breakdown": "",
                "item": 0,
                "mod": 0,
                "rank": 0,
                "value": 0
            },
            "arc": {
                "ability": "int",
                "breakdown": "",
                "item": 0,
                "mod": 0,
                "rank": 0,
                "value": 0
            },
            "ath": {
                "ability": "str",
                "armor": 1,
                "breakdown": "",
                "item": 0,
                "mod": 0,
                "rank": 0,
                "value": 0
            },
            "cra": {
                "ability": "int",
                "breakdown": "",
                "item": 0,
                "mod": 0,
                "rank": 0,
                "value": 0
            },
            "dec": {
                "ability": "cha",
                "breakdown": "",
                "item": 0,
                "mod": 0,
                "rank": 0,
                "value": 0
            },
            "dip": {
                "ability": "cha",
                "breakdown": "",
                "item": 0,
                "mod": 0,
                "rank": 0,
                "value": 0
            },
            "itm": {
                "ability": "cha",
                "breakdown": "",
                "item": 0,
                "mod": 0,
                "rank": 0,
                "value": 0
            },
            "med": {
                "ability": "wis",
                "breakdown": "",
                "item": 0,
                "mod": 0,
                "rank": 0,
                "value": 0
            },
            "nat": {
                "ability": "wis",
                "breakdown": "",
                "item": 0,
                "mod": 0,
                "rank": 0,
                "value": 0
            },
            "occ": {
                "ability": "int",
                "breakdown": "",
                "item": 0,
                "mod": 0,
                "rank": 0,
                "value": 0
            },
            "prf": {
                "ability": "cha",
                "breakdown": "",
                "item": 0,
                "mod": 0,
                "rank": 0,
                "value": 0
            },
            "rel": {
                "ability": "wis",
                "breakdown": "",
                "item": 0,
                "mod": 0,
                "rank": 0,
                "value": 0
            },
            "soc": {
                "ability": "int",
                "breakdown": "",
                "item": 0,
                "mod": 0,
                "rank": 0,
                "value": 0
            },
            "ste": {
                "ability": "dex",
                "armor": 1,
                "breakdown": "",
                "item": 0,
                "mod": 0,
                "rank": 0,
                "value": 0
            },
            "sur": {
                "ability": "wis",
                "breakdown": "",
                "item": 0,
                "mod": 0,
                "rank": 0,
                "value": 0
            },
            "thi": {
                "ability": "dex",
                "armor": 1,
                "breakdown": "",
                "item": 0,
                "mod": 0,
                "rank": 0,
                "value": 0
            }
        },
        "spells": {
            "spell0": {
                "max": 0
            },
            "spell1": {
                "max": 0
            },
            "spell10": {
                "max": 0
            },
            "spell11": {
                "max": 0
            },
            "spell2": {
                "max": 0
            },
            "spell3": {
                "max": 0
            },
            "spell4": {
                "max": 0
            },
            "spell5": {
                "max": 0
            },
            "spell6": {
                "max": 0
            },
            "spell7": {
                "max": 0
            },
            "spell8": {
                "max": 0
            },
            "spell9": {
                "max": 0
            }
        },
        "statusEffects": [],
        "traits": {
            "ci": [],
            "di": {
                "custom": "curse, fire, paralyzed, sleep",
                "value": [
                    "custom"
                ]
            },
            "dr": [],
            "dv": [
                {
                    "label": "Cold Iron",
                    "type": "coldiron",
                    "value": "10"
                }
            ],
            "languages": {
                "custom": "",
                "selected": [],
                "value": [
                    "aklo",
                    "draconic",
                    "sylvan"
                ]
            },
            "rarity": {
                "value": "uncommon"
            },
            "senses": {
                "value": "darkvision, scent (imprecise) 60 feet, true seeing"
            },
            "size": {
                "value": "grg"
            },
            "traits": {
                "custom": "",
                "value": [
                    "amphibious",
                    "dragon"
                ]
            }
        }
    },
    "flags": {
        "pf2e_updatednpcsheet": {}
    },
    "img": "icons/svg/mystery-man.svg",
    "items": [
        {
            "_id": "QbjjKmqSkCf93Xw5",
            "data": {
                "ability": {
                    "value": ""
                },
                "description": {
                    "chat": "",
                    "unidentified": "",
                    "value": ""
                },
                "displayLevel": {},
                "displayLevels": {},
                "focus": {
                    "points": 1,
                    "pool": 1
                },
                "item": {
                    "value": 0
                },
                "prepared": {
                    "value": "Innate"
                },
                "proficiency": {
                    "value": 0
                },
                "rarity": {
                    "value": "common"
                },
                "showUnpreparedSpells": {
                    "value": false
                },
                "slots": {
                    "slot0": {
                        "max": 0,
                        "prepared": [],
                        "value": 0
                    },
                    "slot1": {
                        "max": 0,
                        "prepared": [],
                        "value": 0
                    },
                    "slot10": {
                        "max": 0,
                        "prepared": [],
                        "value": 0
                    },
                    "slot11": {
                        "max": 0,
                        "prepared": [],
                        "value": 0
                    },
                    "slot2": {
                        "max": 0,
                        "prepared": [],
                        "value": 0
                    },
                    "slot3": {
                        "max": 0,
                        "prepared": [],
                        "value": 0
                    },
                    "slot4": {
                        "max": 0,
                        "prepared": [],
                        "value": 0
                    },
                    "slot5": {
                        "max": 0,
                        "prepared": [],
                        "value": 0
                    },
                    "slot6": {
                        "max": 0,
                        "prepared": [],
                        "value": 0
                    },
                    "slot7": {
                        "max": 0,
                        "prepared": [],
                        "value": 0
                    },
                    "slot8": {
                        "max": 0,
                        "prepared": [],
                        "value": 0
                    },
                    "slot9": {
                        "max": 0,
                        "prepared": [],
                        "value": 0
                    }
                },
                "source": {
                    "value": ""
                },
                "spelldc": {
                    "dc": "36",
                    "item": 0,
                    "mod": 0,
                    "value": 26
                },
                "tradition": {
                    "value": "primal"
                },
                "traits": {
                    "value": []
                },
                "usage": {
                    "value": "held-in-one-hand"
                }
            },
            "flags": {},
            "img": "icons/svg/mystery-man.svg",
            "name": "Primal Innate Spells",
            "sort": 100000,
            "type": "spellcastingEntry"
        },
        {
            "_id": "xJZfeP18N9FJrBxt",
            "data": {
                "ability": {
                    "label": "Spellcasting Ability",
                    "type": "String",
                    "value": ""
                },
                "area": {
                    "areaType": "",
                    "label": "Area",
                    "type": "String",
                    "value": null
                },
                "components": {
                    "label": "Spell Components",
                    "type": "String",
                    "value": "somatic, verbal"
                },
                "cost": {
                    "label": "Cost",
                    "type": "String",
                    "value": ""
                },
                "damage": {
                    "applyMod": false,
                    "label": "Spell Damage",
                    "type": "String",
                    "value": ""
                },
                "damageType": {
                    "label": "Damage Type",
                    "type": "String",
                    "value": ""
                },
                "description": {
                    "chat": "",
                    "label": "Description",
                    "type": "String",
                    "unidentified": "",
                    "value": "<p>You repel effects that would hinder a creature or slow its movement. While under this spell's effect, the target ignores effects that would give them a circumstance penalty to Speed. When they attempt to Escape an effect that has them @Compendium[pf2e.conditionspf2e.eIcWbB5o3pP6OIMe]{Immobilized}, @Compendium[pf2e.conditionspf2e.kWc1fhmv9LBiTuei]{Grabbed}, or @Compendium[pf2e.conditionspf2e.VcDeM8A5oI6VqhbM]{Restrained}, they automatically succeed unless the effect is magical and of a higher level than the freedom of movement spell.</p>"
                },
                "duration": {
                    "label": "Duration",
                    "type": "String",
                    "value": "10 minutes"
                },
                "level": {
                    "label": "Spell Level",
                    "type": "Number",
                    "value": "7"
                },
                "location": {
                    "value": "QbjjKmqSkCf93Xw5"
                },
                "materials": {
                    "label": "Materials",
                    "type": "String",
                    "value": ""
                },
                "prepared": {
                    "label": "Prepared Spell",
                    "type": "String",
                    "value": ""
                },
                "range": {
                    "label": "Range",
                    "type": "String",
                    "value": "touch"
                },
                "rarity": {
                    "value": "common"
                },
                "save": {
                    "basic": "",
                    "label": "Saving Throw",
                    "type": "String",
                    "value": ""
                },
                "scaling": {
                    "formula": "",
                    "mode": "none"
                },
                "school": {
                    "label": "Spell School",
                    "type": "String",
                    "value": "abj"
                },
                "source": {
                    "label": "Source",
                    "type": "String",
                    "value": "https://2e.aonprd.com/Spells.aspx?ID=128"
                },
                "spellCategory": {
                    "value": ""
                },
                "spellType": {
                    "label": "Spell Type",
                    "type": "String",
                    "value": "utility"
                },
                "sustained": {
                    "label": "Can be Sustained",
                    "type": "Boolean",
                    "value": false
                },
                "target": {
                    "label": "Target",
                    "type": "String",
                    "value": "1 creature touched"
                },
                "time": {
                    "label": "Casting Time",
                    "type": "String",
                    "value": "2"
                },
                "traditions": {
                    "label": "Spell Traditions",
                    "type": "String",
                    "value": [
                        "arcane",
                        "divine",
                        "primal"
                    ]
                },
                "traits": {
                    "label": "Spell Traits",
                    "type": "String",
                    "value": [
                        "abjuration"
                    ]
                },
                "usage": {
                    "value": "held-in-one-hand"
                }
            },
            "flags": {},
            "img": "systems/pf2e/icons/spells/freedom-of-movement.jpg",
            "name": "Freedom of Movement ",
            "sort": 200000,
            "type": "spell"
        },
        {
            "_id": "J8i7cr8sUNeRft2T",
            "data": {
                "ability": {
                    "label": "Spellcasting Ability",
                    "type": "String",
                    "value": ""
                },
                "area": {
                    "areaType": "",
                    "label": "Area",
                    "type": "String",
                    "value": null
                },
                "components": {
                    "label": "Spell Components",
                    "type": "String",
                    "value": "somatic, verbal"
                },
                "cost": {
                    "label": "Cost",
                    "type": "String",
                    "value": ""
                },
                "damage": {
                    "applyMod": false,
                    "label": "Spell Damage",
                    "type": "String",
                    "value": ""
                },
                "damageType": {
                    "label": "Damage Type",
                    "type": "String",
                    "value": ""
                },
                "description": {
                    "chat": "",
                    "label": "Description",
                    "type": "String",
                    "unidentified": "",
                    "value": "<p>You see things within 60 feet as they actually are. The GM rolls a secret counteract check against any illusion or transmutation in the area, but only for the purpose of determining whether you see through it (for instance, if the check succeeds against a polymorph spell, you can see the creature’s true form, but you don’t end the polymorph spell).</p>"
                },
                "duration": {
                    "label": "Duration",
                    "type": "String",
                    "value": "10 minutes"
                },
                "level": {
                    "label": "Spell Level",
                    "type": "Number",
                    "value": 6
                },
                "location": {
                    "value": "QbjjKmqSkCf93Xw5"
                },
                "materials": {
                    "label": "Materials",
                    "type": "String",
                    "value": ""
                },
                "prepared": {
                    "label": "Prepared Spell",
                    "type": "String",
                    "value": ""
                },
                "range": {
                    "label": "Range",
                    "type": "String",
                    "value": ""
                },
                "rarity": {
                    "value": "common"
                },
                "save": {
                    "basic": "",
                    "label": "Saving Throw",
                    "type": "String",
                    "value": ""
                },
                "scaling": {
                    "formula": "",
                    "mode": "none"
                },
                "school": {
                    "label": "Spell School",
                    "type": "String",
                    "value": "div"
                },
                "source": {
                    "label": "Source",
                    "type": "String",
                    "value": "https://2e.aonprd.com/Spells.aspx?ID=344"
                },
                "spellCategory": {
                    "value": ""
                },
                "spellType": {
                    "label": "Spell Type",
                    "type": "String",
                    "value": "utility"
                },
                "sustained": {
                    "label": "Can be Sustained",
                    "type": "Boolean",
                    "value": false
                },
                "target": {
                    "label": "Target",
                    "type": "String",
                    "value": ""
                },
                "time": {
                    "label": "Casting Time",
                    "type": "String",
                    "value": "2"
                },
                "traditions": {
                    "label": "Spell Traditions",
                    "type": "String",
                    "value": [
                        "arcane",
                        "divine",
                        "occult",
                        "primal"
                    ]
                },
                "traits": {
                    "label": "Spell Traits",
                    "type": "String",
                    "value": [
                        "divination",
                        "revelation"
                    ]
                },
                "usage": {
                    "value": "held-in-one-hand"
                }
            },
            "flags": {},
            "img": "systems/pf2e/icons/spells/true-seeing.jpg",
            "name": "True Seeing",
            "sort": 300000,
            "type": "spell"
        },
        {
            "_id": "goYkQxQdewpmD26j",
            "data": {
                "attack": {
                    "value": ""
                },
                "attackEffects": {
                    "value": [
                        "shoal linnorm venom"
                    ]
                },
                "bonus": {
                    "total": 31,
                    "value": 31
                },
                "brokenThreshold": {
                    "value": 0
                },
                "bulkCapacity": {
                    "value": ""
                },
                "collapsed": {
                    "value": false
                },
                "containerId": {
                    "value": ""
                },
                "damage": {
                    "damageType": "piercing",
                    "die": "3d12+16"
                },
                "damageRolls": [
                    {
                        "damage": "3d12+16",
                        "damageType": "piercing"
                    }
                ],
                "description": {
                    "chat": "",
                    "unidentified": "",
                    "value": ""
                },
                "equipped": {
                    "value": false
                },
                "equippedBulk": {
                    "value": ""
                },
                "hardness": {
                    "value": 0
                },
                "hp": {
                    "value": 0
                },
                "identified": {
                    "value": false
                },
                "invested": {
                    "value": false
                },
                "maxHp": {
                    "value": 0
                },
                "negateBulk": {
                    "value": "0"
                },
                "preciousMaterial": {
                    "value": ""
                },
                "preciousMaterialGrade": {
                    "value": ""
                },
                "price": {
                    "value": 0
                },
                "property1": {
                    "critDamage": "",
                    "critDamageType": "",
                    "critDice": 0,
                    "critDie": "",
                    "damageType": "",
                    "dice": 0,
                    "die": "",
                    "value": ""
                },
                "property2": {
                    "critDamage": "",
                    "critDamageType": "",
                    "critDice": 0,
                    "critDie": "",
                    "damageType": "",
                    "dice": 0,
                    "die": "",
                    "value": ""
                },
                "property3": {
                    "critDamage": "",
                    "critDamageType": "",
                    "critDice": 0,
                    "critDie": "",
                    "damageType": "",
                    "dice": 0,
                    "die": "",
                    "value": ""
                },
                "quantity": {
                    "value": 1
                },
                "rarity": {
                    "value": "common"
                },
                "source": {
                    "value": ""
                },
                "stackGroup": {
                    "value": ""
                },
                "traits": {
                    "value": [
                        "magical",
                        "reach 20 feet"
                    ]
                },
                "usage": {
                    "value": "held-in-one-hand"
                },
                "weight": {
                    "value": 0
                }
            },
            "flags": {
                "pf2e_updatednpcsheet": {}
            },
            "img": "icons/svg/mystery-man.svg",
            "name": "Jaws",
            "sort": 400000,
            "type": "melee"
        },
        {
            "_id": "VrxOb3MaxvXl1OR3",
            "data": {
                "attack": {
                    "value": ""
                },
                "attackEffects": {
                    "value": []
                },
                "bonus": {
                    "total": 31,
                    "value": 31
                },
                "brokenThreshold": {
                    "value": 0
                },
                "bulkCapacity": {
                    "value": ""
                },
                "collapsed": {
                    "value": false
                },
                "containerId": {
                    "value": ""
                },
                "damage": {
                    "damageType": "slashing",
                    "die": "3d8+16"
                },
                "damageRolls": [
                    {
                        "damage": "3d8+16",
                        "damageType": "slashing"
                    }
                ],
                "description": {
                    "chat": "",
                    "unidentified": "",
                    "value": ""
                },
                "equipped": {
                    "value": false
                },
                "equippedBulk": {
                    "value": ""
                },
                "hardness": {
                    "value": 0
                },
                "hp": {
                    "value": 0
                },
                "identified": {
                    "value": false
                },
                "invested": {
                    "value": false
                },
                "maxHp": {
                    "value": 0
                },
                "negateBulk": {
                    "value": "0"
                },
                "preciousMaterial": {
                    "value": ""
                },
                "preciousMaterialGrade": {
                    "value": ""
                },
                "price": {
                    "value": 0
                },
                "property1": {
                    "critDamage": "",
                    "critDamageType": "",
                    "critDice": 0,
                    "critDie": "",
                    "damageType": "",
                    "dice": 0,
                    "die": "",
                    "value": ""
                },
                "property2": {
                    "critDamage": "",
                    "critDamageType": "",
                    "critDice": 0,
                    "critDie": "",
                    "damageType": "",
                    "dice": 0,
                    "die": "",
                    "value": ""
                },
                "property3": {
                    "critDamage": "",
                    "critDamageType": "",
                    "critDice": 0,
                    "critDie": "",
                    "damageType": "",
                    "dice": 0,
                    "die": "",
                    "value": ""
                },
                "quantity": {
                    "value": 1
                },
                "rarity": {
                    "value": "common"
                },
                "source": {
                    "value": ""
                },
                "stackGroup": {
                    "value": ""
                },
                "traits": {
                    "value": [
                        "agile",
                        "magical",
                        "reach 15 feet"
                    ]
                },
                "usage": {
                    "value": "held-in-one-hand"
                },
                "weight": {
                    "value": 0
                }
            },
            "flags": {
                "pf2e_updatednpcsheet": {}
            },
            "img": "icons/svg/mystery-man.svg",
            "name": "Claw",
            "sort": 500000,
            "type": "melee"
        },
        {
            "_id": "9H6kMOzk61FQZoC9",
            "data": {
                "attack": {
                    "value": ""
                },
                "attackEffects": {
                    "value": [
                        "Improved Grab"
                    ]
                },
                "bonus": {
                    "total": 31,
                    "value": 31
                },
                "brokenThreshold": {
                    "value": 0
                },
                "bulkCapacity": {
                    "value": ""
                },
                "collapsed": {
                    "value": false
                },
                "containerId": {
                    "value": ""
                },
                "damage": {
                    "damageType": "bludgeoning",
                    "die": "4d6+16"
                },
                "damageRolls": [
                    {
                        "damage": "4d6+16",
                        "damageType": "bludgeoning"
                    }
                ],
                "description": {
                    "chat": "",
                    "unidentified": "",
                    "value": ""
                },
                "equipped": {
                    "value": false
                },
                "equippedBulk": {
                    "value": ""
                },
                "hardness": {
                    "value": 0
                },
                "hp": {
                    "value": 0
                },
                "identified": {
                    "value": false
                },
                "invested": {
                    "value": false
                },
                "maxHp": {
                    "value": 0
                },
                "negateBulk": {
                    "value": "0"
                },
                "preciousMaterial": {
                    "value": ""
                },
                "preciousMaterialGrade": {
                    "value": ""
                },
                "price": {
                    "value": 0
                },
                "property1": {
                    "critDamage": "",
                    "critDamageType": "",
                    "critDice": 0,
                    "critDie": "",
                    "damageType": "",
                    "dice": 0,
                    "die": "",
                    "value": ""
                },
                "property2": {
                    "critDamage": "",
                    "critDamageType": "",
                    "critDice": 0,
                    "critDie": "",
                    "damageType": "",
                    "dice": 0,
                    "die": "",
                    "value": ""
                },
                "property3": {
                    "critDamage": "",
                    "critDamageType": "",
                    "critDice": 0,
                    "critDie": "",
                    "damageType": "",
                    "dice": 0,
                    "die": "",
                    "value": ""
                },
                "quantity": {
                    "value": 1
                },
                "rarity": {
                    "value": "common"
                },
                "source": {
                    "value": ""
                },
                "stackGroup": {
                    "value": ""
                },
                "traits": {
                    "value": [
                        "magical",
                        "reach 25 feet"
                    ]
                },
                "usage": {
                    "value": "held-in-one-hand"
                },
                "weight": {
                    "value": 0
                }
            },
            "flags": {
                "pf2e_updatednpcsheet": {}
            },
            "img": "icons/svg/mystery-man.svg",
            "name": "Tail",
            "sort": 600000,
            "type": "melee"
        },
        {
            "_id": "2oTY3Ohbh0C59vOv",
            "data": {
                "actionCategory": {
                    "value": "defensive"
                },
                "actionType": {
                    "value": "passive"
                },
                "actions": {
                    "value": ""
                },
                "description": {
                    "chat": "",
                    "unidentified": "",
                    "value": "When a creature slays a shoal linnorm, it must succeed at a DC 38 Will save or become cursed. As long as the curse of drowning persists, the character must spend 3 actions when drinking any liquid. Attempting to drink liquid faster causes the victim to begin drowning, immediately running out of air and falling unconscious."
                },
                "rarity": {
                    "value": "common"
                },
                "requirements": {
                    "value": ""
                },
                "skill_requirements": {
                    "rank": "",
                    "skill": ""
                },
                "source": {
                    "value": ""
                },
                "traits": {
                    "value": [
                        "curse",
                        "primal",
                        "water"
                    ]
                },
                "trigger": {
                    "value": ""
                },
                "usage": {
                    "value": "held-in-one-hand"
                },
                "weapon": {
                    "value": ""
                }
            },
            "flags": {},
            "img": "icons/svg/mystery-man.svg",
            "name": "Curse of Drowning",
            "sort": 700000,
            "type": "action"
        },
        {
            "_id": "JiBu4pOYoMUCvAKw",
            "data": {
                "actionCategory": {
                    "value": "defensive"
                },
                "actionType": {
                    "value": "reaction"
                },
                "actions": {
                    "value": ""
                },
                "description": {
                    "chat": "",
                    "unidentified": "",
                    "value": "Tail only.<br><b>Trigger</b> A creature within the monster’s reach uses a manipulate action or a move action, makes a ranged attack, or leaves a square during a move action it’s using. <b>Effect</b> The monster attempts a melee Strike against the triggering creature. If the attack is a critical hit and the trigger was a manipulate action, the monster disrupts that action. This Strike doesn’t count toward the monster’s multiple attack penalty, and its multiple attack penalty doesn’t apply to this Strike."
                },
                "rarity": {
                    "value": "common"
                },
                "requirements": {
                    "value": ""
                },
                "skill_requirements": {
                    "rank": "",
                    "skill": ""
                },
                "source": {
                    "value": ""
                },
                "traits": {
                    "value": []
                },
                "trigger": {
                    "value": ""
                },
                "usage": {
                    "value": "held-in-one-hand"
                },
                "weapon": {
                    "value": ""
                }
            },
            "flags": {},
            "img": "icons/svg/mystery-man.svg",
            "name": "Attack of Opportunity",
            "sort": 800000,
            "type": "action"
        },
        {
            "_id": "xdcR3l3iekCECcMF",
            "data": {
                "actionCategory": {
                    "value": "defensive"
                },
                "actionType": {
                    "value": "passive"
                },
                "actions": {
                    "value": ""
                },
                "description": {
                    "chat": "",
                    "unidentified": "",
                    "value": "This monster regains the listed number of Hit Points each round at the beginning of its turn. Its @Compendium[pf2e.conditionspf2e.Dying] condition never increases beyond @Compendium[pf2e.conditionspf2e.Dying] 3 as long as its regeneration is active. However, if it takes damage of a type listed in the regeneration entry, its regeneration deactivates until the end of its next turn. Deactivate the regeneration before applying any damage of a listed type, since that damage might kill the monster by bringing it to @Compendium[pf2e.conditionspf2e.Dying] 4."
                },
                "rarity": {
                    "value": "common"
                },
                "requirements": {
                    "value": ""
                },
                "skill_requirements": {
                    "rank": "",
                    "skill": ""
                },
                "source": {
                    "value": ""
                },
                "traits": {
                    "value": []
                },
                "trigger": {
                    "value": ""
                },
                "usage": {
                    "value": "held-in-one-hand"
                },
                "weapon": {
                    "value": ""
                }
            },
            "flags": {},
            "img": "icons/svg/mystery-man.svg",
            "name": "Regeneration",
            "sort": 900000,
            "type": "action"
        },
        {
            "_id": "CThMS3QhSA3Obh7Z",
            "data": {
                "actionCategory": {
                    "value": "offensive"
                },
                "actionType": {
                    "value": "action"
                },
                "actions": {
                    "value": 2
                },
                "description": {
                    "chat": "",
                    "unidentified": "",
                    "value": "The shoal linnorm exhales scalding steam that deals [[/r 12d8 # fire damage]] fire damage in a 60-foot cone (DC 36 basic Reflex save). The steam lingers until the end of the linnorm's next turn; anyone who enters the area or begins their turn in the area takes [[/r 6d8 # fire damage]] fire damage (DC 36 Reflex save negates). During this time, the steam is so thick that it impedes movement as well as sight, turning the area into difficult terrain. All creatures in the steam become @Compendium[pf2e.conditionspf2e.Concealed], and all creatures outside the steam become concealed to creatures within it. The shoal linnorm can't use Breath Weapon again for 1d4 rounds."
                },
                "rarity": {
                    "value": "common"
                },
                "requirements": {
                    "value": ""
                },
                "skill_requirements": {
                    "rank": "",
                    "skill": ""
                },
                "source": {
                    "value": ""
                },
                "traits": {
                    "value": [
                        "evocation",
                        "fire",
                        "primal",
                        "water"
                    ]
                },
                "trigger": {
                    "value": ""
                },
                "usage": {
                    "value": "held-in-one-hand"
                },
                "weapon": {
                    "value": ""
                }
            },
            "flags": {},
            "img": "icons/svg/mystery-man.svg",
            "name": "Breath Weapon",
            "sort": 1000000,
            "type": "action"
        },
        {
            "_id": "hREXXxR78zjxAtPW",
            "data": {
                "actionCategory": {
                    "value": "offensive"
                },
                "actionType": {
                    "value": "passive"
                },
                "actions": {
                    "value": ""
                },
                "description": {
                    "chat": "",
                    "unidentified": "",
                    "value": "<b>Saving Throw</b> DC 36 Fortitude; <b>Maximum Duration</b> 10 rounds; <b>Stage 1</b> [[/r 4d6 # fire damage]] fire damage and @Compendium[pf2e.conditionspf2e.Enfeebled] 1 (1 round); <b>Stage 2</b> [[/r 6d6 # fire damage]] fire damage and enfeebled 2 (1 round)."
                },
                "rarity": {
                    "value": "common"
                },
                "requirements": {
                    "value": ""
                },
                "skill_requirements": {
                    "rank": "",
                    "skill": ""
                },
                "source": {
                    "value": ""
                },
                "traits": {
                    "value": [
                        "fire",
                        "poison"
                    ]
                },
                "trigger": {
                    "value": ""
                },
                "usage": {
                    "value": "held-in-one-hand"
                },
                "weapon": {
                    "value": ""
                }
            },
            "flags": {},
            "img": "icons/svg/mystery-man.svg",
            "name": "Shoal Linnorm Venom",
            "sort": 1100000,
            "type": "action"
        },
        {
            "_id": "B7txWxgRhRFv5og5",
            "data": {
                "actionCategory": {
                    "value": "offensive"
                },
                "actionType": {
                    "value": "free"
                },
                "actions": {
                    "value": ""
                },
                "description": {
                    "chat": "",
                    "unidentified": "",
                    "value": "The monster can use Grab as a free action triggered by a hit with its initial attack. A monster with Improved Grab still needs to spend an action to extend the duration for creatures it already has grabbed. <br><b>Effect</b> The monster automatically Grabs the target until the end of the monster’s next turn. The creature is grabbed by whichever body part the monster attacked with, and that body part can’t be used to Strike creatures until the grab is ended.<br><br> Using Grab extends the duration of the monster’s Grab until the end of its next turn for all creatures grabbed by it. A grabbed creature can use the @Compendium[pf2e.actionspf2e.Escape] action to get out of the grab, and the Grab ends for a grabbed creatures if the monster moves away from it."
                },
                "rarity": {
                    "value": "common"
                },
                "requirements": {
                    "value": ""
                },
                "skill_requirements": {
                    "rank": "",
                    "skill": ""
                },
                "source": {
                    "value": ""
                },
                "traits": {
                    "value": []
                },
                "trigger": {
                    "value": ""
                },
                "usage": {
                    "value": "held-in-one-hand"
                },
                "weapon": {
                    "value": ""
                }
            },
            "flags": {},
            "img": "icons/svg/mystery-man.svg",
            "name": "Improved Grab",
            "sort": 1200000,
            "type": "action"
        },
        {
            "_id": "k16YT8M3zYzci1Wm",
            "data": {
                "description": {
                    "chat": "",
                    "unidentified": "",
                    "value": ""
                },
                "featType": "",
                "item": {
                    "value": 0
                },
                "mod": {
                    "value": 28
                },
                "proficient": {
                    "value": 0
                },
                "rarity": {
                    "value": "common"
                },
                "source": {
                    "value": ""
                },
                "traits": {
                    "value": []
                },
                "usage": {
                    "value": "held-in-one-hand"
                }
            },
            "flags": {},
            "img": "icons/svg/mystery-man.svg",
            "name": "Acrobatics",
            "sort": 1300000,
            "type": "lore"
        },
        {
            "_id": "E8KSNW23KrolLigE",
            "data": {
                "description": {
                    "chat": "",
                    "unidentified": "",
                    "value": ""
                },
                "featType": "",
                "item": {
                    "value": 0
                },
                "mod": {
                    "value": 31
                },
                "proficient": {
                    "value": 0
                },
                "rarity": {
                    "value": "common"
                },
                "source": {
                    "value": ""
                },
                "traits": {
                    "value": []
                },
                "usage": {
                    "value": "held-in-one-hand"
                }
            },
            "flags": {},
            "img": "icons/svg/mystery-man.svg",
            "name": "Athletics",
            "sort": 1400000,
            "type": "lore"
        },
        {
            "_id": "kFllTAvFwLSsenw0",
            "data": {
                "description": {
                    "chat": "",
                    "unidentified": "",
                    "value": ""
                },
                "featType": "",
                "item": {
                    "value": 0
                },
                "mod": {
                    "value": 28
                },
                "proficient": {
                    "value": 0
                },
                "rarity": {
                    "value": "common"
                },
                "source": {
                    "value": ""
                },
                "traits": {
                    "value": []
                },
                "usage": {
                    "value": "held-in-one-hand"
                }
            },
            "flags": {},
            "img": "icons/svg/mystery-man.svg",
            "name": "Stealth",
            "sort": 1500000,
            "type": "lore"
        }
    ],
    "name": "Shoal Linnorm",
    "permission": {
        "default": 0
    },
    "token": {
        "actorData": {},
        "actorId": "nipVBTEgG6itWJSW",
        "actorLink": false,
        "bar1": {
            "attribute": "attributes.hp"
        },
        "bar2": {},
        "brightLight": 0,
        "brightSight": 0,
        "dimLight": 0,
        "dimSight": 0,
        "displayBars": 20,
        "displayName": 20,
        "disposition": -1,
        "flags": {},
        "height": 4,
        "img": "icons/svg/mystery-man.svg",
        "lightAlpha": 1,
        "lightAngle": 360,
        "lockRotation": false,
        "name": "Shoal Linnorm",
        "randomImg": false,
        "rotation": 0,
        "scale": 1,
        "sightAngle": 360,
        "tint": null,
        "vision": false,
        "width": 4
    },
    "type": "npc"
}
