{
    "_id": "vjEHKCgMunMHKl7r",
    "data": {
        "abilities": {
            "cha": {
                "min": 3,
                "mod": -1,
                "value": 8
            },
            "con": {
                "min": 3,
                "mod": 4,
                "value": 18
            },
            "dex": {
                "min": 3,
                "mod": 1,
                "value": 12
            },
            "int": {
                "min": 3,
                "mod": 0,
                "value": 10
            },
            "str": {
                "min": 3,
                "mod": "+4",
                "value": 18
            },
            "wis": {
                "min": 3,
                "mod": 2,
                "value": 14
            }
        },
        "attributes": {
            "ac": {
                "check": 0,
                "details": "",
                "dex": 0,
                "item": 0,
                "min": 0,
                "value": "18"
            },
            "allSaves": {
                "value": ""
            },
            "ancestryhp": 0,
            "bonusEncumbranceBulk": 0,
            "bonusLimitBulk": 0,
            "classDC": {
                "ability": "str",
                "breakdown": "",
                "item": 0,
                "rank": 0,
                "value": 0
            },
            "classhp": 0,
            "flatbonushp": 0,
            "flatbonussp": 0,
            "hp": {
                "details": "",
                "max": "45",
                "min": 0,
                "temp": 0,
                "tempmax": 0,
                "value": "45"
            },
            "init": {
                "bonus": 0,
                "value": 0
            },
            "initiative": {
                "ability": "",
                "circumstance": 0,
                "status": 0
            },
            "levelbonushp": 0,
            "levelbonussp": 0,
            "perception": {
                "ability": "wis",
                "breakdown": "",
                "item": 0,
                "rank": 0,
                "value": 8
            },
            "resolve": {
                "value": 0
            },
            "shield": {
                "ac": 0,
                "brokenThreshold": 0,
                "hardness": 0,
                "max": 0,
                "min": 0,
                "value": 0
            },
            "sp": {
                "details": "",
                "max": 0,
                "min": 0,
                "value": 0
            },
            "speed": {
                "otherSpeeds": [],
                "special": "",
                "value": "25 feet"
            }
        },
        "currency": {
            "cp": {
                "value": 0
            },
            "gp": {
                "value": 0
            },
            "pp": {
                "value": 0
            },
            "sp": {
                "value": 0
            }
        },
        "details": {
            "alignment": {
                "value": "CN"
            },
            "ancestry": {
                "value": "Werecreature"
            },
            "biography": {
                "public": "",
                "value": ""
            },
            "class": {
                "value": ""
            },
            "creatureType": "Beast, Humanoid",
            "deity": {
                "image": "systems/pf2e/assets/sheet/deity.png",
                "value": ""
            },
            "flavorText": "Wereboars tend to be aggressive and stubborn, and often live with their own kind in small, remote communities. Even when they're inclined to interact with others, wereboars' short tempers and hostile nature lead other creatures to avoid them. Lone wereboars who settle down—often on remote farms—are extremely territorial, though others are content to roam and explore lands far from home. Their other habits also vary widely from individual to individual, right down to diet: some wereboars might feast on human flesh, while others are mostly vegetarian.<br><br>",
            "flavourText": "",
            "heritage": {
                "value": ""
            },
            "keyability": {
                "value": "str"
            },
            "level": {
                "min": 1,
                "value": "2"
            },
            "nethysUrl": "https://2e.aonprd.com/Monsters.aspx?ID=857",
            "recallKnowledgeText": "Recall Knowledge - Beast : DC 16<br>Recall Knowledge - Humanoid : DC 16",
            "sidebarText": "",
            "source": {
                "value": "Bestiary 2 pg. 290"
            }
        },
        "martial": {
            "advanced": {
                "breakdown": "",
                "rank": 0,
                "value": 0
            },
            "heavy": {
                "breakdown": "",
                "rank": 0,
                "value": 0
            },
            "light": {
                "breakdown": "",
                "rank": 0,
                "value": 0
            },
            "martial": {
                "breakdown": "",
                "rank": 0,
                "value": 0
            },
            "medium": {
                "breakdown": "",
                "rank": 0,
                "value": 0
            },
            "simple": {
                "breakdown": "",
                "rank": 0,
                "value": 0
            },
            "unarmed": {
                "breakdown": "",
                "rank": 0,
                "value": 0
            },
            "unarmored": {
                "breakdown": "",
                "rank": 0,
                "value": 0
            }
        },
        "saves": {
            "fortitude": {
                "ability": "con",
                "breakdown": "",
                "item": 0,
                "rank": 0,
                "saveDetail": "",
                "value": 10
            },
            "reflex": {
                "ability": "dex",
                "breakdown": "",
                "item": 0,
                "rank": 0,
                "saveDetail": "",
                "value": 5
            },
            "will": {
                "ability": "wis",
                "breakdown": "",
                "item": 0,
                "rank": 0,
                "saveDetail": "",
                "value": 8
            }
        },
        "schema": {
            "version": {
                "value": ""
            }
        },
        "skills": {
            "acr": {
                "ability": "dex",
                "armor": 1,
                "breakdown": "",
                "item": 0,
                "mod": 0,
                "rank": 0,
                "value": 0
            },
            "arc": {
                "ability": "int",
                "breakdown": "",
                "item": 0,
                "mod": 0,
                "rank": 0,
                "value": 0
            },
            "ath": {
                "ability": "str",
                "armor": 1,
                "breakdown": "",
                "item": 0,
                "mod": 0,
                "rank": 0,
                "value": 0
            },
            "cra": {
                "ability": "int",
                "breakdown": "",
                "item": 0,
                "mod": 0,
                "rank": 0,
                "value": 0
            },
            "dec": {
                "ability": "cha",
                "breakdown": "",
                "item": 0,
                "mod": 0,
                "rank": 0,
                "value": 0
            },
            "dip": {
                "ability": "cha",
                "breakdown": "",
                "item": 0,
                "mod": 0,
                "rank": 0,
                "value": 0
            },
            "itm": {
                "ability": "cha",
                "breakdown": "",
                "item": 0,
                "mod": 0,
                "rank": 0,
                "value": 0
            },
            "med": {
                "ability": "wis",
                "breakdown": "",
                "item": 0,
                "mod": 0,
                "rank": 0,
                "value": 0
            },
            "nat": {
                "ability": "wis",
                "breakdown": "",
                "item": 0,
                "mod": 0,
                "rank": 0,
                "value": 0
            },
            "occ": {
                "ability": "int",
                "breakdown": "",
                "item": 0,
                "mod": 0,
                "rank": 0,
                "value": 0
            },
            "prf": {
                "ability": "cha",
                "breakdown": "",
                "item": 0,
                "mod": 0,
                "rank": 0,
                "value": 0
            },
            "rel": {
                "ability": "wis",
                "breakdown": "",
                "item": 0,
                "mod": 0,
                "rank": 0,
                "value": 0
            },
            "soc": {
                "ability": "int",
                "breakdown": "",
                "item": 0,
                "mod": 0,
                "rank": 0,
                "value": 0
            },
            "ste": {
                "ability": "dex",
                "armor": 1,
                "breakdown": "",
                "item": 0,
                "mod": 0,
                "rank": 0,
                "value": 0
            },
            "sur": {
                "ability": "wis",
                "breakdown": "",
                "item": 0,
                "mod": 0,
                "rank": 0,
                "value": 0
            },
            "thi": {
                "ability": "dex",
                "armor": 1,
                "breakdown": "",
                "item": 0,
                "mod": 0,
                "rank": 0,
                "value": 0
            }
        },
        "spells": {
            "spell0": {
                "max": 0
            },
            "spell1": {
                "max": 0
            },
            "spell10": {
                "max": 0
            },
            "spell11": {
                "max": 0
            },
            "spell2": {
                "max": 0
            },
            "spell3": {
                "max": 0
            },
            "spell4": {
                "max": 0
            },
            "spell5": {
                "max": 0
            },
            "spell6": {
                "max": 0
            },
            "spell7": {
                "max": 0
            },
            "spell8": {
                "max": 0
            },
            "spell9": {
                "max": 0
            }
        },
        "statusEffects": [],
        "traits": {
            "ci": [],
            "di": {
                "custom": "",
                "value": []
            },
            "dr": [],
            "dv": [
                {
                    "label": "Silver",
                    "type": "silver",
                    "value": "5"
                }
            ],
            "languages": {
                "custom": "boar empathy",
                "selected": [],
                "value": [
                    "common",
                    "custom"
                ]
            },
            "rarity": {
                "value": "common"
            },
            "senses": {
                "value": "low-light vision, scent (imprecise) 30 feet"
            },
            "size": {
                "value": "med"
            },
            "traits": {
                "custom": "",
                "value": [
                    "beast",
                    "human",
                    "humanoid",
                    "werecreature"
                ]
            }
        }
    },
    "flags": {
        "pf2e_updatednpcsheet": {}
    },
    "img": "icons/svg/mystery-man.svg",
    "items": [
        {
            "_id": "cBVxPYPm7cixfTrB",
            "data": {
                "brokenThreshold": {
                    "value": 0
                },
                "bulkCapacity": {
                    "value": ""
                },
                "collapsed": {
                    "value": false
                },
                "containerId": {
                    "value": ""
                },
                "description": {
                    "chat": "",
                    "label": "Description",
                    "type": "String",
                    "unidentified": "",
                    "value": "(2)"
                },
                "equipped": {
                    "value": false
                },
                "equippedBulk": {
                    "value": ""
                },
                "hardness": {
                    "value": 0
                },
                "hp": {
                    "value": 0
                },
                "identified": {
                    "value": false
                },
                "invested": {
                    "value": false
                },
                "level": {
                    "value": 0
                },
                "maxHp": {
                    "value": 0
                },
                "negateBulk": {
                    "value": "0"
                },
                "preciousMaterial": {
                    "value": ""
                },
                "preciousMaterialGrade": {
                    "value": ""
                },
                "price": {
                    "value": 0
                },
                "quantity": {
                    "value": 1
                },
                "rarity": {
                    "value": "common"
                },
                "source": {
                    "value": ""
                },
                "stackGroup": {
                    "value": ""
                },
                "traits": {
                    "value": []
                },
                "usage": {
                    "value": "held-in-one-hand"
                },
                "weight": {
                    "value": 0
                }
            },
            "flags": {},
            "img": "icons/svg/mystery-man.svg",
            "name": "dagger (2)",
            "sort": 100000,
            "type": "equipment"
        },
        {
            "_id": "Gp5muhGYDn0UoZO9",
            "data": {
                "brokenThreshold": {
                    "value": 0
                },
                "bulkCapacity": {
                    "value": ""
                },
                "collapsed": {
                    "value": false
                },
                "containerId": {
                    "value": ""
                },
                "description": {
                    "chat": "",
                    "label": "Description",
                    "type": "String",
                    "unidentified": "",
                    "value": ""
                },
                "equipped": {
                    "value": false
                },
                "equippedBulk": {
                    "value": ""
                },
                "hardness": {
                    "value": 0
                },
                "hp": {
                    "value": 0
                },
                "identified": {
                    "value": false
                },
                "invested": {
                    "value": false
                },
                "level": {
                    "value": 0
                },
                "maxHp": {
                    "value": 0
                },
                "negateBulk": {
                    "value": "0"
                },
                "preciousMaterial": {
                    "value": ""
                },
                "preciousMaterialGrade": {
                    "value": ""
                },
                "price": {
                    "value": 0
                },
                "quantity": {
                    "value": 1
                },
                "rarity": {
                    "value": "common"
                },
                "source": {
                    "value": ""
                },
                "stackGroup": {
                    "value": ""
                },
                "traits": {
                    "value": []
                },
                "usage": {
                    "value": "held-in-one-hand"
                },
                "weight": {
                    "value": 0
                }
            },
            "flags": {},
            "img": "icons/svg/mystery-man.svg",
            "name": "studded leather armor",
            "sort": 200000,
            "type": "equipment"
        },
        {
            "_id": "FTil5NFptMbuNK7y",
            "data": {
                "attack": {
                    "value": ""
                },
                "attackEffects": {
                    "value": []
                },
                "bonus": {
                    "total": 10,
                    "value": 10
                },
                "brokenThreshold": {
                    "value": 0
                },
                "bulkCapacity": {
                    "value": ""
                },
                "collapsed": {
                    "value": false
                },
                "containerId": {
                    "value": ""
                },
                "damage": {
                    "damageType": "piercing",
                    "die": "1d4+6"
                },
                "damageRolls": [
                    {
                        "damage": "1d4+6",
                        "damageType": "piercing"
                    }
                ],
                "description": {
                    "chat": "",
                    "unidentified": "",
                    "value": ""
                },
                "equipped": {
                    "value": false
                },
                "equippedBulk": {
                    "value": ""
                },
                "hardness": {
                    "value": 0
                },
                "hp": {
                    "value": 0
                },
                "identified": {
                    "value": false
                },
                "invested": {
                    "value": false
                },
                "maxHp": {
                    "value": 0
                },
                "negateBulk": {
                    "value": "0"
                },
                "preciousMaterial": {
                    "value": ""
                },
                "preciousMaterialGrade": {
                    "value": ""
                },
                "price": {
                    "value": 0
                },
                "property1": {
                    "critDamage": "",
                    "critDamageType": "",
                    "critDice": 0,
                    "critDie": "",
                    "damageType": "",
                    "dice": 0,
                    "die": "",
                    "value": ""
                },
                "property2": {
                    "critDamage": "",
                    "critDamageType": "",
                    "critDice": 0,
                    "critDie": "",
                    "damageType": "",
                    "dice": 0,
                    "die": "",
                    "value": ""
                },
                "property3": {
                    "critDamage": "",
                    "critDamageType": "",
                    "critDice": 0,
                    "critDie": "",
                    "damageType": "",
                    "dice": 0,
                    "die": "",
                    "value": ""
                },
                "quantity": {
                    "value": 1
                },
                "rarity": {
                    "value": "common"
                },
                "source": {
                    "value": ""
                },
                "stackGroup": {
                    "value": ""
                },
                "traits": {
                    "value": [
                        "agile",
                        "versatile S"
                    ]
                },
                "usage": {
                    "value": "held-in-one-hand"
                },
                "weight": {
                    "value": 0
                }
            },
            "flags": {
                "pf2e_updatednpcsheet": {}
            },
            "img": "icons/svg/mystery-man.svg",
            "name": "Dagger",
            "sort": 300000,
            "type": "melee"
        },
        {
            "_id": "A3RVgZkJQrtRoYi2",
            "data": {
                "attack": {
                    "value": ""
                },
                "attackEffects": {
                    "value": [
                        "curse of the wereboar"
                    ]
                },
                "bonus": {
                    "total": 10,
                    "value": 10
                },
                "brokenThreshold": {
                    "value": 0
                },
                "bulkCapacity": {
                    "value": ""
                },
                "collapsed": {
                    "value": false
                },
                "containerId": {
                    "value": ""
                },
                "damage": {
                    "damageType": "piercing",
                    "die": "1d8+6"
                },
                "damageRolls": [
                    {
                        "damage": "1d8+6",
                        "damageType": "piercing"
                    }
                ],
                "description": {
                    "chat": "",
                    "unidentified": "",
                    "value": ""
                },
                "equipped": {
                    "value": false
                },
                "equippedBulk": {
                    "value": ""
                },
                "hardness": {
                    "value": 0
                },
                "hp": {
                    "value": 0
                },
                "identified": {
                    "value": false
                },
                "invested": {
                    "value": false
                },
                "maxHp": {
                    "value": 0
                },
                "negateBulk": {
                    "value": "0"
                },
                "preciousMaterial": {
                    "value": ""
                },
                "preciousMaterialGrade": {
                    "value": ""
                },
                "price": {
                    "value": 0
                },
                "property1": {
                    "critDamage": "",
                    "critDamageType": "",
                    "critDice": 0,
                    "critDie": "",
                    "damageType": "",
                    "dice": 0,
                    "die": "",
                    "value": ""
                },
                "property2": {
                    "critDamage": "",
                    "critDamageType": "",
                    "critDice": 0,
                    "critDie": "",
                    "damageType": "",
                    "dice": 0,
                    "die": "",
                    "value": ""
                },
                "property3": {
                    "critDamage": "",
                    "critDamageType": "",
                    "critDice": 0,
                    "critDie": "",
                    "damageType": "",
                    "dice": 0,
                    "die": "",
                    "value": ""
                },
                "quantity": {
                    "value": 1
                },
                "rarity": {
                    "value": "common"
                },
                "source": {
                    "value": ""
                },
                "stackGroup": {
                    "value": ""
                },
                "traits": {
                    "value": []
                },
                "usage": {
                    "value": "held-in-one-hand"
                },
                "weight": {
                    "value": 0
                }
            },
            "flags": {
                "pf2e_updatednpcsheet": {}
            },
            "img": "icons/svg/mystery-man.svg",
            "name": "Tusk",
            "sort": 400000,
            "type": "melee"
        },
        {
            "_id": "WpPjPwdGV3sTxsSN",
            "data": {
                "attack": {
                    "value": ""
                },
                "attackEffects": {
                    "value": []
                },
                "bonus": {
                    "total": 10,
                    "value": 10
                },
                "brokenThreshold": {
                    "value": 0
                },
                "bulkCapacity": {
                    "value": ""
                },
                "collapsed": {
                    "value": false
                },
                "containerId": {
                    "value": ""
                },
                "damage": {
                    "damageType": "piercing",
                    "die": "1d4+6"
                },
                "damageRolls": [
                    {
                        "damage": "1d4+6",
                        "damageType": "piercing"
                    }
                ],
                "description": {
                    "chat": "",
                    "unidentified": "",
                    "value": ""
                },
                "equipped": {
                    "value": false
                },
                "equippedBulk": {
                    "value": ""
                },
                "hardness": {
                    "value": 0
                },
                "hp": {
                    "value": 0
                },
                "identified": {
                    "value": false
                },
                "invested": {
                    "value": false
                },
                "maxHp": {
                    "value": 0
                },
                "negateBulk": {
                    "value": "0"
                },
                "preciousMaterial": {
                    "value": ""
                },
                "preciousMaterialGrade": {
                    "value": ""
                },
                "price": {
                    "value": 0
                },
                "property1": {
                    "critDamage": "",
                    "critDamageType": "",
                    "critDice": 0,
                    "critDie": "",
                    "damageType": "",
                    "dice": 0,
                    "die": "",
                    "value": ""
                },
                "property2": {
                    "critDamage": "",
                    "critDamageType": "",
                    "critDice": 0,
                    "critDie": "",
                    "damageType": "",
                    "dice": 0,
                    "die": "",
                    "value": ""
                },
                "property3": {
                    "critDamage": "",
                    "critDamageType": "",
                    "critDice": 0,
                    "critDie": "",
                    "damageType": "",
                    "dice": 0,
                    "die": "",
                    "value": ""
                },
                "quantity": {
                    "value": 1
                },
                "rarity": {
                    "value": "common"
                },
                "source": {
                    "value": ""
                },
                "stackGroup": {
                    "value": ""
                },
                "traits": {
                    "value": [
                        "agile"
                    ]
                },
                "usage": {
                    "value": "held-in-one-hand"
                },
                "weight": {
                    "value": 0
                }
            },
            "flags": {
                "pf2e_updatednpcsheet": {}
            },
            "img": "icons/svg/mystery-man.svg",
            "name": "Claw",
            "sort": 500000,
            "type": "melee"
        },
        {
            "_id": "9G77nycfkHc93HGi",
            "data": {
                "attack": {
                    "value": ""
                },
                "attackEffects": {
                    "value": []
                },
                "bonus": {
                    "total": 7,
                    "value": 7
                },
                "brokenThreshold": {
                    "value": 0
                },
                "bulkCapacity": {
                    "value": ""
                },
                "collapsed": {
                    "value": false
                },
                "containerId": {
                    "value": ""
                },
                "damage": {
                    "damageType": "piercing",
                    "die": "1d4+4"
                },
                "damageRolls": [
                    {
                        "damage": "1d4+4",
                        "damageType": "piercing"
                    }
                ],
                "description": {
                    "chat": "",
                    "unidentified": "",
                    "value": ""
                },
                "equipped": {
                    "value": false
                },
                "equippedBulk": {
                    "value": ""
                },
                "hardness": {
                    "value": 0
                },
                "hp": {
                    "value": 0
                },
                "identified": {
                    "value": false
                },
                "invested": {
                    "value": false
                },
                "maxHp": {
                    "value": 0
                },
                "negateBulk": {
                    "value": "0"
                },
                "preciousMaterial": {
                    "value": ""
                },
                "preciousMaterialGrade": {
                    "value": ""
                },
                "price": {
                    "value": 0
                },
                "property1": {
                    "critDamage": "",
                    "critDamageType": "",
                    "critDice": 0,
                    "critDie": "",
                    "damageType": "",
                    "dice": 0,
                    "die": "",
                    "value": ""
                },
                "property2": {
                    "critDamage": "",
                    "critDamageType": "",
                    "critDice": 0,
                    "critDie": "",
                    "damageType": "",
                    "dice": 0,
                    "die": "",
                    "value": ""
                },
                "property3": {
                    "critDamage": "",
                    "critDamageType": "",
                    "critDice": 0,
                    "critDie": "",
                    "damageType": "",
                    "dice": 0,
                    "die": "",
                    "value": ""
                },
                "quantity": {
                    "value": 1
                },
                "rarity": {
                    "value": "common"
                },
                "source": {
                    "value": ""
                },
                "stackGroup": {
                    "value": ""
                },
                "traits": {
                    "value": [
                        "agile",
                        "thrown 10 feet",
                        "versatile S"
                    ]
                },
                "usage": {
                    "value": "held-in-one-hand"
                },
                "weaponType": {
                    "value": "ranged"
                },
                "weight": {
                    "value": 0
                }
            },
            "flags": {
                "pf2e_updatednpcsheet": {}
            },
            "img": "icons/svg/mystery-man.svg",
            "name": "Dagger",
            "sort": 600000,
            "type": "melee"
        },
        {
            "_id": "LqV3ag2bSeXmlk7D",
            "data": {
                "actionCategory": {
                    "value": "interaction"
                },
                "actionType": {
                    "value": "passive"
                },
                "actions": {
                    "value": ""
                },
                "description": {
                    "chat": "",
                    "unidentified": "",
                    "value": "The wereboar can communicate with boars and pigs."
                },
                "rarity": {
                    "value": "common"
                },
                "requirements": {
                    "value": ""
                },
                "skill_requirements": {
                    "rank": "",
                    "skill": ""
                },
                "source": {
                    "value": ""
                },
                "traits": {
                    "value": [
                        "divination",
                        "primal"
                    ]
                },
                "trigger": {
                    "value": ""
                },
                "usage": {
                    "value": "held-in-one-hand"
                },
                "weapon": {
                    "value": ""
                }
            },
            "flags": {},
            "img": "icons/svg/mystery-man.svg",
            "name": "Boar Empathy",
            "sort": 700000,
            "type": "action"
        },
        {
            "_id": "j04iY0JAMTqJltDY",
            "data": {
                "actionCategory": {
                    "value": "defensive"
                },
                "actionType": {
                    "value": "passive"
                },
                "actions": {
                    "value": ""
                },
                "description": {
                    "chat": "",
                    "unidentified": "",
                    "value": ""
                },
                "rarity": {
                    "value": "common"
                },
                "requirements": {
                    "value": ""
                },
                "skill_requirements": {
                    "rank": "",
                    "skill": ""
                },
                "source": {
                    "value": ""
                },
                "traits": {
                    "value": []
                },
                "trigger": {
                    "value": ""
                },
                "usage": {
                    "value": "held-in-one-hand"
                },
                "weapon": {
                    "value": ""
                }
            },
            "flags": {},
            "img": "icons/svg/mystery-man.svg",
            "name": "Ferocity ",
            "sort": 800000,
            "type": "action"
        },
        {
            "_id": "lA1KEaw1II1i4twA",
            "data": {
                "actionCategory": {
                    "value": "offensive"
                },
                "actionType": {
                    "value": "action"
                },
                "actions": {
                    "value": 2
                },
                "description": {
                    "chat": "",
                    "unidentified": "",
                    "value": "The wereboar Strides twice and then makes a melee Strike. As long as they moved at least 20 feet, they gain a +2 circumstance bonus to their attack roll."
                },
                "rarity": {
                    "value": "common"
                },
                "requirements": {
                    "value": ""
                },
                "skill_requirements": {
                    "rank": "",
                    "skill": ""
                },
                "source": {
                    "value": ""
                },
                "traits": {
                    "value": []
                },
                "trigger": {
                    "value": ""
                },
                "usage": {
                    "value": "held-in-one-hand"
                },
                "weapon": {
                    "value": ""
                }
            },
            "flags": {},
            "img": "icons/svg/mystery-man.svg",
            "name": "Boar Charge",
            "sort": 900000,
            "type": "action"
        },
        {
            "_id": "m2mWyOGdPqIEG3CN",
            "data": {
                "actionCategory": {
                    "value": "offensive"
                },
                "actionType": {
                    "value": "action"
                },
                "actions": {
                    "value": 1
                },
                "description": {
                    "chat": "",
                    "unidentified": "",
                    "value": "The werecreature changes into their humanoid, hybrid, or animal shape. Each shape has a specific, persistent appearance. A true werecreature's natural form is their hybrid shape. In humanoid shape, the werecreature uses their original humanoid size, loses their jaws and claw Strikes, and gains a melee fist Strike that deals bludgeoning damage equal to the slashing damage dealt by their claw. In animal shape, their Speed and size change to that of the animal, they gain any special Strike effects of the animal that they didn't already have (such as Grab), and they lose their weapon Strikes.<br>Human with fist +10 for 1d4+2 bludgeoning, or boar with Speed 40 feet and tusk for 2d6+4 piercing.<br>The monster changes its shape indefinitely. It can use this action again to return to its natural shape or adopt a new shape. Unless otherwise noted, a monster cannot use Change Shape to appear as a specific individual. Using Change Shape counts as creating a disguise for the Impersonate use of Deception. The monster’s transformation automatically defeats Perception DCs to determine whether the creature is a member of the ancestry or creature type into which it transformed, and it gains a +4 status bonus to its Deception DC to prevent others from seeing through its disguise. Change Shape abilities specify what shapes the monster can adopt. The monster doesn’t gain any special abilities of the new shape, only its physical form. For example, in each shape, it replaces its normal Speeds and Strikes, and might potentially change its senses or size. Any changes are listed in its stat block."
                },
                "rarity": {
                    "value": "common"
                },
                "requirements": {
                    "value": ""
                },
                "skill_requirements": {
                    "rank": "",
                    "skill": ""
                },
                "source": {
                    "value": ""
                },
                "traits": {
                    "value": [
                        "concentrate",
                        "polymorph",
                        "primal",
                        "transmutation"
                    ]
                },
                "trigger": {
                    "value": ""
                },
                "usage": {
                    "value": "held-in-one-hand"
                },
                "weapon": {
                    "value": ""
                }
            },
            "flags": {},
            "img": "icons/svg/mystery-man.svg",
            "name": "Change Shape",
            "sort": 1000000,
            "type": "action"
        },
        {
            "_id": "5g1Keo0L3GpJZyQp",
            "data": {
                "actionCategory": {
                    "value": "offensive"
                },
                "actionType": {
                    "value": "passive"
                },
                "actions": {
                    "value": ""
                },
                "description": {
                    "chat": "",
                    "unidentified": "",
                    "value": "This curse affects only humanoids; <b>Saving Throw</b> DC 18 Fortitude. On each full moon, the cursed creature must succeed at another Fortitude save or turn into a wearboar until dawn. The creature is under the GM's control and goes on a rampage for half the night before falling unconscious until dawn."
                },
                "rarity": {
                    "value": "common"
                },
                "requirements": {
                    "value": ""
                },
                "skill_requirements": {
                    "rank": "",
                    "skill": ""
                },
                "source": {
                    "value": ""
                },
                "traits": {
                    "value": [
                        "curse",
                        "necromancy",
                        "primal",
                        "humanoids"
                    ]
                },
                "trigger": {
                    "value": ""
                },
                "usage": {
                    "value": "held-in-one-hand"
                },
                "weapon": {
                    "value": ""
                }
            },
            "flags": {},
            "img": "icons/svg/mystery-man.svg",
            "name": "Curse of the Wereboar",
            "sort": 1100000,
            "type": "action"
        },
        {
            "_id": "hSvaFFK9ERUSfUry",
            "data": {
                "actionCategory": {
                    "value": "offensive"
                },
                "actionType": {
                    "value": "passive"
                },
                "actions": {
                    "value": ""
                },
                "description": {
                    "chat": "",
                    "unidentified": "",
                    "value": "When a full moon appears in the night sky, the werecreature must enter hybrid form, can't Change Shape thereafter, becomes one size larger, increases their reach by 5 feet, and increases the damage of their jaws Strike by 2. When the moon sets or the sun rises, the werecreature returns to humanoid form and is @Compendium[pf2e.conditionspf2e.Fatigued] for 2d4 hours."
                },
                "rarity": {
                    "value": "common"
                },
                "requirements": {
                    "value": ""
                },
                "skill_requirements": {
                    "rank": "",
                    "skill": ""
                },
                "source": {
                    "value": ""
                },
                "traits": {
                    "value": [
                        "polymorph",
                        "primal",
                        "transmutation"
                    ]
                },
                "trigger": {
                    "value": ""
                },
                "usage": {
                    "value": "held-in-one-hand"
                },
                "weapon": {
                    "value": ""
                }
            },
            "flags": {},
            "img": "icons/svg/mystery-man.svg",
            "name": "Moon Frenzy",
            "sort": 1200000,
            "type": "action"
        },
        {
            "_id": "kARJlZ7KAn328vUS",
            "data": {
                "description": {
                    "chat": "",
                    "unidentified": "",
                    "value": ""
                },
                "featType": "",
                "item": {
                    "value": 0
                },
                "mod": {
                    "value": 7
                },
                "proficient": {
                    "value": 0
                },
                "rarity": {
                    "value": "common"
                },
                "source": {
                    "value": ""
                },
                "traits": {
                    "value": []
                },
                "usage": {
                    "value": "held-in-one-hand"
                }
            },
            "flags": {},
            "img": "icons/svg/mystery-man.svg",
            "name": "Acrobatics",
            "sort": 1300000,
            "type": "lore"
        },
        {
            "_id": "FwJnr9sqrQeoHFBz",
            "data": {
                "description": {
                    "chat": "",
                    "unidentified": "",
                    "value": ""
                },
                "featType": "",
                "item": {
                    "value": 0
                },
                "mod": {
                    "value": 8
                },
                "proficient": {
                    "value": 0
                },
                "rarity": {
                    "value": "common"
                },
                "source": {
                    "value": ""
                },
                "traits": {
                    "value": []
                },
                "usage": {
                    "value": "held-in-one-hand"
                }
            },
            "flags": {},
            "img": "icons/svg/mystery-man.svg",
            "name": "Athletics",
            "sort": 1400000,
            "type": "lore"
        },
        {
            "_id": "bP5ihnhPkmjCNEOK",
            "data": {
                "description": {
                    "chat": "",
                    "unidentified": "",
                    "value": ""
                },
                "featType": "",
                "item": {
                    "value": 0
                },
                "mod": {
                    "value": 5
                },
                "proficient": {
                    "value": 0
                },
                "rarity": {
                    "value": "common"
                },
                "source": {
                    "value": ""
                },
                "traits": {
                    "value": []
                },
                "usage": {
                    "value": "held-in-one-hand"
                }
            },
            "flags": {},
            "img": "icons/svg/mystery-man.svg",
            "name": "Intimidation",
            "sort": 1500000,
            "type": "lore"
        },
        {
            "_id": "HnK2ZAQgEWPu8Qxl",
            "data": {
                "description": {
                    "chat": "",
                    "unidentified": "",
                    "value": ""
                },
                "featType": "",
                "item": {
                    "value": 0
                },
                "mod": {
                    "value": 7
                },
                "proficient": {
                    "value": 0
                },
                "rarity": {
                    "value": "common"
                },
                "source": {
                    "value": ""
                },
                "traits": {
                    "value": []
                },
                "usage": {
                    "value": "held-in-one-hand"
                }
            },
            "flags": {},
            "img": "icons/svg/mystery-man.svg",
            "name": "Survival",
            "sort": 1600000,
            "type": "lore"
        }
    ],
    "name": "Wereboar",
    "permission": {
        "default": 0
    },
    "token": {
        "actorData": {},
        "actorId": "vjEHKCgMunMHKl7r",
        "actorLink": false,
        "bar1": {
            "attribute": "attributes.hp"
        },
        "bar2": {},
        "brightLight": 0,
        "brightSight": 0,
        "dimLight": 0,
        "dimSight": 0,
        "displayBars": 20,
        "displayName": 20,
        "disposition": -1,
        "flags": {},
        "height": 1,
        "img": "icons/svg/mystery-man.svg",
        "lightAlpha": 1,
        "lightAngle": 360,
        "lockRotation": false,
        "name": "Wereboar",
        "randomImg": false,
        "rotation": 0,
        "scale": 1,
        "sightAngle": 360,
        "tint": null,
        "vision": false,
        "width": 1
    },
    "type": "npc"
}
