{
    "_id": "NzXpEzcZAjuDTZjK",
    "data": {
        "ability": {
            "label": "Spellcasting Ability",
            "type": "String",
            "value": ""
        },
        "area": {
            "areaType": "",
            "label": "Area",
            "type": "String",
            "value": null
        },
        "areasize": {
            "value": ""
        },
        "components": {
            "label": "Spell Components",
            "type": "String",
            "value": "somatic, verbal"
        },
        "cost": {
            "label": "Cost",
            "type": "String",
            "value": ""
        },
        "damage": {
            "applyMod": false,
            "label": "Spell Damage",
            "type": "String",
            "value": ""
        },
        "damageType": {
            "label": "Damage Type",
            "type": "String",
            "value": ""
        },
        "description": {
            "chat": "",
            "label": "Description",
            "type": "String",
            "unidentified": "",
            "value": "<p><span id=\"ctl00_MainContent_DetailedOutput\">You harness your mastery of primal forces to reshape your body into a Medium flying animal battle form. When you cast this spell, choose bat, bird, pterosaur, or wasp. You can decide the specific type of animal (such as an owl or eagle for bird), but this has no effect on the form's Size or statistics. While in this form, you gain the animal trait. You can Dismiss the spell.<br /></span></p>\n<p><span id=\"ctl00_MainContent_DetailedOutput\">You gain the following statistics and abilities regardless of which battle form you choose: </span></p>\n<ul>\n<li>AC = 18 + your level. Ignore your armor's check penalty and Speed reduction.</li>\n<li>5 temporary Hit Points.</li>\n<li>Low-light vision.</li>\n<li>One or more unarmed melee attacks specific to the battle form you choose, which are the only attacks you can use. You're trained with them. Your attack modifier is +16, and your damage bonus is +5. These attacks are Dexterity based (for the purpose of the @Compendium[pf2e.conditionspf2e.i3OJZU2nk64Df3xm]{Clumsy} condition, for example). If your attack modifier for Dexterity-based unarmed attacks is higher, you can use it instead.</li>\n<li>Acrobatics modifier of +16, unless your own modifier is higher.</li>\n</ul>\n<p>You also gain specific abilities based on the form you choose:</p>\n<ul>\n<li><strong>Bat</strong> Speed 20 feet, fly Speed 30 feet; precise echolocation 40 feet; <strong>Melee</strong> <span style=\"font-family: 'Pathfinder2eActions'; font-size: 1.8em; display: inline;\">1</span> fangs, <strong>Damage</strong> 2d8 piercing; <strong>Melee</strong><span style=\"font-family: 'Pathfinder2eActions'; font-size: 1.8em; display: inline;\"> 1 </span>wing (agile), <strong>Damage</strong> 2d6 bludgeoning.</li>\n<li><strong>Bird</strong> Speed 10 feet, fly Speed 50 feet; <strong>Melee </strong><span style=\"font-family: 'Pathfinder2eActions'; font-size: 1.8em; display: inline;\">1 </span>beak, <strong>Damage</strong> 2d8 piercing; <strong>Melee </strong><span style=\"font-family: 'Pathfinder2eActions'; font-size: 1.8em; display: inline;\">1 </span>talon (agile), <strong>Damage</strong> 1d10 slashing.</li>\n<li><strong>Pterosaur</strong> Speed 10 feet, fly Speed 40 feet; imprecise scent 30 feet; <strong>Melee</strong><span style=\"font-family: 'Pathfinder2eActions'; font-size: 1.8em; display: inline;\">1 </span>beak, <strong>Damage</strong> 3d6 piercing.</li>\n<li><strong>Wasp</strong> Speed 20 feet, fly Speed 40 feet; <strong>Melee </strong><span style=\"font-family: 'Pathfinder2eActions'; font-size: 1.8em; display: inline;\">1 </span>stinger, <strong>Damage</strong> 1d8 piercing plus 1d6 persistent poison.</li>\n</ul>\n<hr />\n<p><strong>Heightened (5th)</strong> Your battle form is Large and your fly Speed gains a +10-foot status bonus. You must have enough space to expand into or the spell is lost. You instead gain 10 temporary HP, attack modifier +18, damage bonus +8, and Acrobatics +20.</p>\n<p><strong>Heightened (6th)</strong> Your battle form is Huge, your fly Speed gains a +15-foot status bonus, and your attacks have 10-foot reach. You must have enough space to expand into or the spell is lost. You instead gain AC = 21 + your level, 15 temporary HP, attack modifier +21, damage bonus +4 and double damage dice (including @Compendium[pf2e.conditionspf2e.lDVqvLKA6eF3Df60]{Persistent Damage}), and Acrobatics +23.</p>"
        },
        "duration": {
            "label": "Duration",
            "type": "String",
            "value": "1 minute"
        },
        "level": {
            "label": "Spell Level",
            "type": "Number",
            "value": 4
        },
        "location": {
            "label": "Spellcasting Entry Location",
            "type": "String",
            "value": ""
        },
        "materials": {
            "label": "Materials",
            "type": "String",
            "value": ""
        },
        "prepared": {
            "label": "Prepared Spell",
            "type": "String",
            "value": ""
        },
        "primarycheck": {
            "value": ""
        },
        "range": {
            "label": "Range",
            "type": "String",
            "value": ""
        },
        "rarity": {
            "value": "common"
        },
        "rules": [],
        "save": {
            "basic": "",
            "label": "Saving Throw",
            "type": "String",
            "value": ""
        },
        "scaling": {
            "formula": "",
            "mode": "none"
        },
        "school": {
            "label": "Spell School",
            "type": "String",
            "value": "trs"
        },
        "secondarycasters": {
            "value": ""
        },
        "secondarycheck": {
            "value": ""
        },
        "source": {
            "label": "Source",
            "type": "String",
            "value": "https://2e.aonprd.com/Spells.aspx?ID=4"
        },
        "spellCategorie": {
            "value": "spell"
        },
        "spellCategory": {
            "value": ""
        },
        "spellType": {
            "label": "Spell Type",
            "type": "String",
            "value": "utility"
        },
        "sustained": {
            "label": "Can be Sustained",
            "type": "Boolean",
            "value": false
        },
        "target": {
            "label": "Target",
            "type": "String",
            "value": ""
        },
        "time": {
            "label": "Casting Time",
            "type": "String",
            "value": "2"
        },
        "traditions": {
            "label": "Spell Traditions",
            "type": "String",
            "value": [
                "arcane",
                "primal"
            ]
        },
        "traits": {
            "label": "Spell Traits",
            "rarity": {
                "value": "common"
            },
            "type": "String",
            "value": [
                "polymorph",
                "transmutation"
            ]
        },
        "usage": {
            "value": "held-in-one-hand"
        }
    },
    "effects": [],
    "flags": {},
    "img": "systems/pf2e/icons/spells/aerial-form.jpg",
    "name": "Aerial Form",
    "permission": {
        "default": 0
    },
    "type": "spell"
}
