{
    "_id": "r8g7oSumKOHDqJsd",
    "data": {
        "ability": {
            "value": ""
        },
        "area": {
            "areaType": "",
            "value": null
        },
        "areasize": {
            "value": ""
        },
        "components": {
            "value": "somatic, verbal"
        },
        "cost": {
            "value": ""
        },
        "damage": {
            "applyMod": false,
            "value": "2d8"
        },
        "damageType": {
            "value": "mental"
        },
        "description": {
            "chat": "",
            "unidentified": "",
            "value": "<p>You send the target&rsquo;s mind and body into overdrive, forcing it to become restless and hyperactive. During the duration, the target must Stride at least once each turn or take 2d8 mental damage that turn. The duration of this effect depends on the target&rsquo;s Will save.</p>\n<hr />\n<p><span id=\"ctl00_MainContent_DetailedOutput\"><strong>Critical Success</strong> The spell has no effect.</span></p>\n<p><span id=\"ctl00_MainContent_DetailedOutput\"><strong>Success</strong> The duration is 1 round.</span></p>\n<p><span id=\"ctl00_MainContent_DetailedOutput\"><strong>Failure</strong> The duration is 2 rounds.</span></p>\n<p><span id=\"ctl00_MainContent_DetailedOutput\"><strong>Critical Failure</strong> The duration is 4 rounds.</span></p>\n<hr />\n<p><strong>Heightened (+1)</strong> The damage increases by 2d8.</p>"
        },
        "duration": {
            "value": "varies"
        },
        "level": {
            "value": 1
        },
        "location": {
            "value": ""
        },
        "materials": {
            "value": ""
        },
        "prepared": {
            "value": ""
        },
        "primarycheck": {
            "value": ""
        },
        "range": {
            "value": "30 feet"
        },
        "rarity": {
            "value": "common"
        },
        "rules": [],
        "save": {
            "basic": "basic",
            "value": "will"
        },
        "scaling": {
            "formula": "2d8",
            "mode": "level1"
        },
        "school": {
            "value": "enc"
        },
        "secondarycasters": {
            "value": ""
        },
        "secondarycheck": {
            "value": ""
        },
        "source": {
            "value": ""
        },
        "spellCategorie": {
            "value": "spell"
        },
        "spellCategory": {
            "value": ""
        },
        "spellType": {
            "value": "save"
        },
        "sustained": {
            "value": false
        },
        "target": {
            "value": "1 creature"
        },
        "time": {
            "value": "2"
        },
        "traditions": {
            "custom": "",
            "value": [
                "arcane",
                "occult"
            ]
        },
        "traits": {
            "custom": "",
            "rarity": {
                "value": "common"
            },
            "value": [
                "enchantment",
                "mental",
                "nonlethal"
            ]
        },
        "usage": {
            "value": "held-in-one-hand"
        }
    },
    "effects": [],
    "flags": {},
    "img": "systems/pf2e/icons/spells/agitate.jpg",
    "name": "Agitate",
    "permission": {
        "default": 0
    },
    "type": "spell"
}
