{
    "_id": "rVANhQgB8Uqi9PTl",
    "data": {
        "ability": {
            "value": ""
        },
        "area": {
            "value": ""
        },
        "areasize": {
            "value": ""
        },
        "components": {
            "value": "somatic, verbal"
        },
        "cost": {
            "value": ""
        },
        "damage": {
            "applyMod": false,
            "value": ""
        },
        "damageType": {
            "value": ""
        },
        "description": {
            "chat": "",
            "unidentified": "",
            "value": "<p>You cause a length or section of @Compendium[pf2e.equipment-srd.fyYnQf1NAx9fWFaS]{Rope} or a rope-like object to animate and follow simple commands. You can give it two commands when you @Compendium[pf2e.actionspf2e.aBQ8ajvEBByv45yz]{Cast the Spell}, and one command each time you @Compendium[pf2e.actionspf2e.3f5DMFu8fPiqHpRg]{Sustain the Spell}.</p>\n<hr />\n<ul>\n<li><strong>Bind</strong> (attack) The Rope attempts to partially bind a creature. Attempt a spell attack roll against the target&rsquo;s Reflex DC. If you succeed, the target takes a -10-foot circumstance penalty to its Speed (-20-foot on a critical success). This ends if the target @Compendium[pf2e.actionspf2e.SkZAQRkLLkmBQNB9]{Escapes} against your spell DC or breaks the Rope. (A standard adventuring Rope has Hardness 2, HP 8, and a Broken Threshold of 4.)</li>\n<li><strong>Coil</strong> The Rope forms a tidy, coiled stack.</li>\n<li><strong>Crawl</strong> The Rope inches along the ground like a snake, moving one of its ends 10 feet. The Rope must move along a surface, but that surface doesn&rsquo;t need to be horizontal.</li>\n<li><strong>Knot</strong> The Rope ties a sturdy knot in itself.</li>\n<li><strong>Loop</strong> The Rope forms a simple loop at one or both ends, or straightens itself back out.</li>\n<li><strong>Tie</strong> The Rope ties itself around a willing creature or an object that&rsquo;s unattended or attended by a willing creature.</li>\n<li><strong>Undo</strong> The Rope undoes one of its knots, ties, or bindings.</li>\n</ul>\n<hr />\n<p><strong>Heightened (+2)</strong> The range increases by 50 feet, and you can animate 50 more feet of Rope.</p>"
        },
        "duration": {
            "value": "sustained up to 1 minute"
        },
        "level": {
            "value": 1
        },
        "location": {
            "value": ""
        },
        "materials": {
            "value": ""
        },
        "prepared": {
            "value": false
        },
        "primarycheck": {
            "value": ""
        },
        "range": {
            "value": "100 feet"
        },
        "rarity": {
            "value": "common"
        },
        "rules": [],
        "save": {
            "basic": "",
            "value": ""
        },
        "scaling": {
            "formula": "",
            "mode": "none"
        },
        "school": {
            "value": "trs"
        },
        "secondarycasters": {
            "value": ""
        },
        "secondarycheck": {
            "value": ""
        },
        "source": {
            "value": ""
        },
        "spellCategorie": {
            "value": "spell"
        },
        "spellCategory": {
            "value": ""
        },
        "spellType": {
            "value": "utility"
        },
        "sustained": {
            "value": false
        },
        "target": {
            "value": "up to 50 feet of rope or a nonliving rope-like object"
        },
        "time": {
            "value": "2"
        },
        "traditions": {
            "value": [
                "arcane",
                "occult"
            ]
        },
        "traits": {
            "custom": "",
            "rarity": {
                "value": "common"
            },
            "value": [
                "transmutation"
            ]
        },
        "usage": {
            "value": ""
        }
    },
    "effects": [],
    "flags": {},
    "img": "systems/pf2e/icons/spells/animate-rope.jpg",
    "name": "Animate Rope",
    "permission": {
        "default": 0
    },
    "type": "spell"
}
