{
    "_id": "vGEgI8e7AW6FQ3tP",
    "data": {
        "ability": {
            "value": ""
        },
        "area": {
            "value": ""
        },
        "areasize": {
            "value": ""
        },
        "components": {
            "value": "somatic, verbal"
        },
        "cost": {
            "value": ""
        },
        "damage": {
            "applyMod": false,
            "value": ""
        },
        "damageType": {
            "value": ""
        },
        "description": {
            "chat": "",
            "unidentified": "",
            "value": "<p>Without fully transforming your body, you gain one animalistic feature, which you select from the list below each time you @Compendium[pf2e.actionspf2e.aBQ8ajvEBByv45yz]{Cast the Spell}.</p>\n<ul>\n<li><strong>Cat Eyes</strong> You gain @Compendium[pf2e.ancestryfeatures.DRtaqOHXTRtGRIUT]{Low-Light Vision}.</li>\n<li><strong>Claws</strong> You gain a claw attack that deals [[/r 1d6 #slashing]] slashing damage and has the agile, finesse, and unarmed traits.</li>\n<li><strong>Jaws</strong> You gain a jaws attack that deals [[/r 1d8 #piercing]] piercing damage and has the unarmed trait.</li>\n</ul>\n<hr />\n<p><strong>Heightened (4th) </strong>Add the following options to the list you can choose from.</p>\n<ul>\n<li><strong>Fish Tail</strong> You gain a @Compendium[pf2e.actionspf2e.c8TGiZ48ygoSPofx]{Swim} Speed equal to your land Speed.</li>\n<li><strong>Owl Eyes </strong>You gain @Compendium[pf2e.ancestryfeatures.HHVQDp61ehcpdiU8]{Darkvision}.</li>\n<li><strong>Wings </strong>You gain a @Compendium[pf2e.actionspf2e.cS9nfDRGD83bNU1p]{Fly} Speed equal to your land Speed.</li>\n</ul>\n<p>&nbsp;</p>"
        },
        "duration": {
            "value": "1 minute"
        },
        "level": {
            "value": 2
        },
        "location": {
            "value": ""
        },
        "materials": {
            "value": ""
        },
        "prepared": {
            "value": ""
        },
        "primarycheck": {
            "value": ""
        },
        "range": {
            "value": ""
        },
        "rarity": {
            "value": "common"
        },
        "rules": [],
        "save": {
            "basic": "",
            "value": ""
        },
        "scaling": {
            "formula": "",
            "mode": "none"
        },
        "school": {
            "value": "trs"
        },
        "secondarycasters": {
            "value": ""
        },
        "secondarycheck": {
            "value": ""
        },
        "source": {
            "value": ""
        },
        "spellCategorie": {
            "value": "focus"
        },
        "spellCategory": {
            "value": ""
        },
        "spellType": {
            "value": "utility"
        },
        "sustained": {
            "value": false
        },
        "target": {
            "value": ""
        },
        "time": {
            "value": "1"
        },
        "traditions": {
            "value": []
        },
        "traits": {
            "custom": "",
            "rarity": {
                "value": "common"
            },
            "value": [
                "morph",
                "ranger",
                "transmutation"
            ]
        },
        "usage": {
            "value": "held-in-one-hand"
        }
    },
    "effects": [],
    "flags": {},
    "img": "systems/pf2e/icons/spells/animal-feature.jpg",
    "name": "Animal Feature",
    "permission": {
        "default": 0
    },
    "type": "spell"
}
