{
    "_id": "VuPDHoVEPLbMfCJC",
    "data": {
        "ability": {
            "value": ""
        },
        "area": {
            "value": ""
        },
        "areasize": {
            "value": ""
        },
        "components": {
            "value": "somatic, verbal"
        },
        "cost": {
            "value": ""
        },
        "damage": {
            "applyMod": false,
            "value": ""
        },
        "damageType": {
            "value": ""
        },
        "description": {
            "chat": "",
            "unidentified": "",
            "value": "<p>You tap into the target&rsquo;s inner being and curse it to become a bestial version of itself. The effect is based on its Fortitude save.</p>\n<hr />\n<p><strong>Critical Success</strong>: The target is unaffected.</p>\n<p><strong>Success</strong> The target&rsquo;s body gains minor bestial features. Its insides churn as they partially transform, causing it to be @Compendium[pf2e.conditionspf2e.i3OJZU2nk64Df3xm]{Clumsy} 1 for 1 round. When it recovers from the Clumsy condition, its features revert to normal and the spell ends.</p>\n<p><strong>Failure</strong> The target transforms into a bestial form for 1 hour. The target becomes Clumsy 1 and gains weakness 1 to silver. It gains a claw, hoof, horn, or jaws Strike(your choice) that uses the target&rsquo;s unarmed Strike statistics except that the damage type changes to bludgeoning, piercing, or slashing, as appropriate. Whenever the target attempts to use any manipulate action, it must succeed at a DC 5 flat check or the action is lost.</p>\n<p><strong>Critical Failure</strong>: As failure, but the duration is unlimited.</p>"
        },
        "duration": {
            "value": "varies"
        },
        "level": {
            "value": 4
        },
        "location": {
            "value": ""
        },
        "materials": {
            "value": ""
        },
        "prepared": {
            "value": false
        },
        "primarycheck": {
            "value": ""
        },
        "range": {
            "value": "touch"
        },
        "rarity": {
            "value": "common"
        },
        "rules": [],
        "save": {
            "basic": "",
            "label": "Saving Throw",
            "type": "String",
            "value": "fortitude"
        },
        "scaling": {
            "formula": "",
            "mode": "none"
        },
        "school": {
            "value": "trs"
        },
        "secondarycasters": {
            "value": ""
        },
        "secondarycheck": {
            "value": ""
        },
        "source": {
            "value": ""
        },
        "spellCategorie": {
            "value": "spell"
        },
        "spellCategory": {
            "value": ""
        },
        "spellType": {
            "label": "Spell Type",
            "type": "String",
            "value": "save"
        },
        "sustained": {
            "value": false
        },
        "target": {
            "value": "1 living humanoid"
        },
        "time": {
            "value": "2"
        },
        "traditions": {
            "value": [
                "arcane",
                "occult",
                "primal"
            ]
        },
        "traits": {
            "custom": "",
            "rarity": {
                "value": "common"
            },
            "value": [
                "curse",
                "polymorph",
                "transmutation"
            ]
        },
        "usage": {
            "value": ""
        }
    },
    "effects": [],
    "flags": {},
    "img": "systems/pf2e/icons/spells/bestial-curse.jpg",
    "name": "Bestial Curse",
    "permission": {
        "default": 0
    },
    "type": "spell"
}
