{
    "_id": "Y8cSjhU33oUqccxJ",
    "data": {
        "ability": {
            "value": ""
        },
        "area": {
            "areaType": "",
            "value": null
        },
        "areasize": {
            "value": ""
        },
        "components": {
            "value": "somatic, verbal"
        },
        "cost": {
            "value": ""
        },
        "damage": {
            "applyMod": false,
            "value": ""
        },
        "damageType": {
            "value": ""
        },
        "description": {
            "chat": "",
            "unidentified": "",
            "value": "<p>You brand the target with an ethereal copy of your deity&rsquo;s religious symbol. This brand can&rsquo;t be hidden, but it is visible only to followers of your faith, who see it as clearly as a lit torch. Followers of your faith ignore the target&rsquo;s @Compendium[pf2e.conditionspf2e.DmAIPqOBomZ7H95W]{Concealed} condition, if any, and the target gains a &ndash;1 status penalty to AC against attacks by followers of your faith. If the target is a follower of your deity in good standing, the spell fails.</p>\n<hr />\n<p><span id=\"ctl00_MainContent_DetailedOutput\"><strong>Critical Success</strong> The target is unaffected.</span></p>\n<p><span id=\"ctl00_MainContent_DetailedOutput\"><strong>Success</strong> The spell lasts for 1 round.</span></p>\n<p><span id=\"ctl00_MainContent_DetailedOutput\"><strong>Failure</strong> The spell lasts for 1 minute.</span></p>\n<p><span id=\"ctl00_MainContent_DetailedOutput\"><strong>Critical Failure</strong> The spell has an unlimited duration.&nbsp;</span></p>"
        },
        "duration": {
            "value": "varies"
        },
        "level": {
            "value": 2
        },
        "location": {
            "value": ""
        },
        "materials": {
            "value": ""
        },
        "prepared": {
            "value": ""
        },
        "primarycheck": {
            "value": ""
        },
        "range": {
            "value": "touch"
        },
        "rarity": {
            "value": "common"
        },
        "rules": [],
        "save": {
            "basic": "",
            "value": "fortitude"
        },
        "scaling": {
            "formula": "",
            "mode": "none"
        },
        "school": {
            "value": "abj"
        },
        "secondarycasters": {
            "value": ""
        },
        "secondarycheck": {
            "value": ""
        },
        "source": {
            "value": ""
        },
        "spellCategorie": {
            "value": "spell"
        },
        "spellCategory": {
            "value": ""
        },
        "spellType": {
            "value": "save"
        },
        "sustained": {
            "value": false
        },
        "target": {
            "value": "1 creature"
        },
        "time": {
            "value": "2"
        },
        "traditions": {
            "custom": "",
            "value": [
                "divine"
            ]
        },
        "traits": {
            "custom": "",
            "rarity": {
                "value": "common"
            },
            "value": [
                "abjuration",
                "curse"
            ]
        },
        "usage": {
            "value": "held-in-one-hand"
        }
    },
    "effects": [],
    "flags": {},
    "img": "systems/pf2e/icons/spells/brand-the-impenitent.jpg",
    "name": "Brand the Impenitent",
    "permission": {
        "default": 0
    },
    "type": "spell"
}
