{
    "_id": "9WlTR9JlEcjRmGiD",
    "data": {
        "ability": {
            "label": "Spellcasting Ability",
            "type": "String",
            "value": ""
        },
        "area": {
            "areaType": "",
            "label": "Area",
            "type": "String",
            "value": null
        },
        "areasize": {
            "value": ""
        },
        "components": {
            "label": "Spell Components",
            "type": "String",
            "value": "somatic"
        },
        "cost": {
            "label": "Cost",
            "type": "String",
            "value": ""
        },
        "damage": {
            "applyMod": false,
            "label": "Spell Damage",
            "type": "String",
            "value": "1d4"
        },
        "damageType": {
            "label": "Damage Type",
            "type": "String",
            "value": "good"
        },
        "description": {
            "chat": "",
            "label": "Description",
            "type": "String",
            "unidentified": "",
            "value": "<p>A blazing symbol appears on the target, marking it for divine justice. You and your allies receive a +1 status bonus to your attack rolls and skill checks against it. Anytime a good creature damages it, the good creature deals an additional 1d4 good damage. The target is then temporarily immune for 1 minute.</p>\n<hr>\n<p><strong>Heightened (+2)</strong> The good damage increases by 1.</p>"
        },
        "duration": {
            "label": "Duration",
            "type": "String",
            "value": "1 round"
        },
        "level": {
            "label": "Spell Level",
            "type": "Number",
            "value": 5
        },
        "location": {
            "label": "Spellcasting Entry Location",
            "type": "String",
            "value": ""
        },
        "materials": {
            "label": "Materials",
            "type": "String",
            "value": ""
        },
        "prepared": {
            "label": "Prepared Spell",
            "type": "String",
            "value": ""
        },
        "primarycheck": {
            "value": ""
        },
        "range": {
            "label": "Range",
            "type": "String",
            "value": "30 feet"
        },
        "rarity": {
            "value": "common"
        },
        "rules": [],
        "save": {
            "basic": "",
            "label": "Saving Throw",
            "type": "String",
            "value": ""
        },
        "scaling": {
            "formula": "1",
            "mode": "level2"
        },
        "school": {
            "label": "Spell School",
            "type": "String",
            "value": "nec"
        },
        "secondarycasters": {
            "value": ""
        },
        "secondarycheck": {
            "value": ""
        },
        "source": {
            "label": "Source",
            "type": "String",
            "value": "https://2e.aonprd.com/Spells.aspx?ID=497"
        },
        "spellCategorie": {
            "value": "focus"
        },
        "spellCategory": {
            "value": ""
        },
        "spellType": {
            "label": "Spell Type",
            "type": "String",
            "value": "utility"
        },
        "sustained": {
            "label": "Can be Sustained",
            "type": "Boolean",
            "value": false
        },
        "target": {
            "label": "Target",
            "type": "String",
            "value": "1 evil creaeture"
        },
        "time": {
            "label": "Casting Time",
            "type": "String",
            "value": "1"
        },
        "traditions": {
            "label": "Spell Traditions",
            "type": "String",
            "value": [
                "focus"
            ]
        },
        "traits": {
            "custom": "",
            "label": "Spell Traits",
            "rarity": {
                "value": "uncommon"
            },
            "type": "String",
            "value": [
                "uncommon",
                "necromancy",
                "sorcerer",
                "curse"
            ]
        },
        "usage": {
            "value": "held-in-one-hand"
        }
    },
    "effects": [],
    "flags": {},
    "img": "systems/pf2e/icons/spells/celestial-brand.jpg",
    "name": "Celestial Brand",
    "permission": {
        "default": 0
    },
    "type": "spell"
}
