{
    "_id": "S7ylpCJyq0CYkux9",
    "data": {
        "ability": {
            "value": ""
        },
        "area": {
            "areaType": "",
            "value": null
        },
        "areasize": {
            "value": ""
        },
        "components": {
            "value": "somatic, verbal"
        },
        "cost": {
            "value": ""
        },
        "damage": {
            "applyMod": false,
            "value": ""
        },
        "damageType": {
            "value": ""
        },
        "description": {
            "chat": "",
            "unidentified": "",
            "value": "<p>You afflict the target with a curse that causes it to emit ridiculous noises as it moves. Furthermore, the target&rsquo;s hands and feet become awkward and uncoordinated, as though it were wearing oversized gloves and shoes.&nbsp;</p>\n<hr />\n<p><span id=\"ctl00_MainContent_DetailedOutput\"><strong>Critical Success</strong> The target is unaffected.</span></p>\n<p><span id=\"ctl00_MainContent_DetailedOutput\"><strong>Success</strong> For 1 round, the target must roll twice and use the worse result whenever attempting an Acrobatics, Stealth, or Thievery check. If the target rolls a failure at an Acrobatics, Stealth, or Thievery check, it gets a critical failure instead.</span></p>\n<p><span id=\"ctl00_MainContent_DetailedOutput\"><strong>Failure</strong> As success, but the effect is 1 hour.&nbsp;</span></p>\n<p><span id=\"ctl00_MainContent_DetailedOutput\"><strong>Critical Failure</strong> As success, except the effect is permanent.</span></p>"
        },
        "duration": {
            "value": "varies"
        },
        "level": {
            "value": 4
        },
        "location": {
            "value": ""
        },
        "materials": {
            "value": ""
        },
        "prepared": {
            "value": ""
        },
        "primarycheck": {
            "value": ""
        },
        "range": {
            "value": "touch"
        },
        "rarity": {
            "value": "common"
        },
        "rules": [],
        "save": {
            "basic": "",
            "value": "will"
        },
        "scaling": {
            "formula": "",
            "mode": "none"
        },
        "school": {
            "value": "enc"
        },
        "secondarycasters": {
            "value": ""
        },
        "secondarycheck": {
            "value": ""
        },
        "source": {
            "value": ""
        },
        "spellCategorie": {
            "value": "spell"
        },
        "spellCategory": {
            "value": ""
        },
        "spellType": {
            "value": "save"
        },
        "sustained": {
            "value": false
        },
        "target": {
            "value": "1 creature"
        },
        "time": {
            "value": "2"
        },
        "traditions": {
            "custom": "",
            "value": [
                "arcane",
                "occult"
            ]
        },
        "traits": {
            "custom": "",
            "rarity": {
                "value": "rare"
            },
            "value": [
                "attack",
                "curse",
                "enchantment",
                "mental",
                "misfortune"
            ]
        },
        "usage": {
            "value": "held-in-one-hand"
        }
    },
    "effects": [],
    "flags": {},
    "img": "systems/pf2e/icons/spells/clownish-curse.jpg",
    "name": "Clownish Curse",
    "permission": {
        "default": 0
    },
    "type": "spell"
}
