{
    "_id": "7DN13ILADW2N9Z1t",
    "data": {
        "ability": {
            "value": ""
        },
        "area": {
            "value": ""
        },
        "areasize": {
            "value": ""
        },
        "components": {
            "value": ""
        },
        "cost": {
            "value": "rare incense worth a total value of 150 gp"
        },
        "damage": {
            "applyMod": false,
            "value": ""
        },
        "damageType": {
            "value": ""
        },
        "description": {
            "chat": "",
            "unidentified": "",
            "value": "<p>You call upon an unknown planar entity to answer questions; this is a servitor of your deity if you have one and use Religion. You can ask up to seven questions that could be answered with &ldquo;Yes&rdquo; or &ldquo;No.&rdquo; The entity is likely to know answers related to its purview; a servitor of @Compendium[pf2e.deities.swwwP7eVmlNuWTb7]{Gozreh} would likely know about unnatural weather patterns and a servitor of @Compendium[pf2e.deities.JgqH3BhuEuA4Zyqs]{Desna}&nbsp;would likely know someone&rsquo;s travel route. The entity answers with one word answers such as &ldquo;Yes,&rdquo; &ldquo;No,&rdquo; &ldquo;Likely,&rdquo; and &ldquo;Unknown,&rdquo; though its answers always reflect its own agenda and could be deceptive.</p>\n<hr />\n<p><span id=\"ctl00_MainContent_DetailedOutput\"><strong>Critical Success</strong> You contact a more powerful entity aligned strongly with your interests, possibly even your deity. The entity won&rsquo;t attempt to deceive you, though it still might not know the answers. When it&rsquo;s important to provide clarity, the entity will answer your questions with up to five words, such as &ldquo;If you leave immediately&rdquo; or &ldquo;That was true once.&rdquo;</span></p>\n<p><span id=\"ctl00_MainContent_DetailedOutput\"><strong>Success</strong> You can ask your questions and receive answers.</span></p>\n<p><span id=\"ctl00_MainContent_DetailedOutput\"><strong>Failure</strong> You fail to contact a planar entity.</span></p>\n<p><span id=\"ctl00_MainContent_DetailedOutput\"><strong>Critical Failure</strong> You are exposed to the enormity of the cosmos and are @Compendium[pf2e.conditionitems.e1XGnhKNSQIm5IXg]{Stupefied} 4 for 1 week (can&rsquo;t remove by any means).</span></p>"
        },
        "duration": {
            "value": "up to 10 minutes"
        },
        "level": {
            "value": 6
        },
        "location": {
            "value": ""
        },
        "materials": {
            "value": ""
        },
        "prepared": {
            "value": ""
        },
        "primarycheck": {
            "value": "Occultism (master) or Religion (master)"
        },
        "range": {
            "value": ""
        },
        "rarity": {
            "value": "common"
        },
        "rules": [],
        "save": {
            "basic": "",
            "value": ""
        },
        "scaling": {
            "formula": "",
            "mode": "none"
        },
        "school": {
            "value": "div"
        },
        "secondarycasters": {
            "value": "1"
        },
        "secondarycheck": {
            "value": "Occultism or Religion (whichever is used for the primary check)"
        },
        "source": {
            "value": ""
        },
        "spellCategorie": {
            "value": "ritual"
        },
        "spellCategory": {
            "value": ""
        },
        "spellType": {
            "value": "utility"
        },
        "sustained": {
            "value": false
        },
        "target": {
            "value": ""
        },
        "time": {
            "value": "1 day"
        },
        "traditions": {
            "value": []
        },
        "traits": {
            "custom": "",
            "rarity": {
                "value": "uncommon"
            },
            "value": [
                "divination"
            ]
        },
        "usage": {
            "value": "held-in-one-hand"
        }
    },
    "effects": [],
    "flags": {},
    "img": "systems/pf2e/icons/spells/commune.jpg",
    "name": "Commune",
    "permission": {
        "default": 0
    },
    "type": "spell"
}
