{
    "_id": "10siFBMF4pIDhVmf",
    "data": {
        "ability": {
            "value": ""
        },
        "area": {
            "areaType": "",
            "value": null
        },
        "areasize": {
            "value": ""
        },
        "components": {
            "value": "material, somatic, verbal"
        },
        "cost": {
            "value": ""
        },
        "damage": {
            "applyMod": false,
            "value": ""
        },
        "damageType": {
            "value": ""
        },
        "description": {
            "chat": "",
            "unidentified": "",
            "value": "<p>You curse the target with a thirst no drink can quench. You can Dismiss the spell. The target must attempt a Fortitude save.</p>\n<hr />\n<p><span id=\"ctl00_MainContent_DetailedOutput\"><strong>Critical Success</strong> The creature is unaffected and is temporarily immune for 1 hour.</span></p>\n<p><span id=\"ctl00_MainContent_DetailedOutput\"><strong>Success</strong> The creature is @Compendium[pf2e.conditionspf2e.HL2l2VRSaQHu9lUw]{Fatigued} for 1 round.</span></p>\n<p><span id=\"ctl00_MainContent_DetailedOutput\"><strong>Failure</strong> The creature is immediately afflicted by thirst as if it hadn&rsquo;t had a drink in days. It becomes Fatigued and takes 1d4 damage each hour that can&rsquo;t be healed until it quenches its thirst. No amount of drinking can quench the creature&rsquo;s thirst during the spell&rsquo;s duration.</span></p>\n<p><span id=\"ctl00_MainContent_DetailedOutput\"><strong>Critical Failure</strong> As failure but the creature takes 2d4 damage each hour, twice as much as usual for thirst.</span></p>\n<hr />\n<p><strong>Heightened (+3)</strong> The thirst becomes more unbearable, increasing the damage each hour by 1d4, or by 2d4 on a critical failure.&nbsp;</p>"
        },
        "duration": {
            "value": "1 day"
        },
        "level": {
            "value": 3
        },
        "location": {
            "value": ""
        },
        "materials": {
            "value": ""
        },
        "prepared": {
            "value": ""
        },
        "primarycheck": {
            "value": ""
        },
        "range": {
            "value": "30 feet"
        },
        "rarity": {
            "value": "common"
        },
        "rules": [],
        "save": {
            "basic": "",
            "value": "fortitude"
        },
        "scaling": {
            "formula": "1d4",
            "mode": "none"
        },
        "school": {
            "value": "nec"
        },
        "secondarycasters": {
            "value": ""
        },
        "secondarycheck": {
            "value": ""
        },
        "source": {
            "value": ""
        },
        "spellCategorie": {
            "value": "spell"
        },
        "spellCategory": {
            "value": ""
        },
        "spellType": {
            "value": "save"
        },
        "sustained": {
            "value": false
        },
        "target": {
            "value": "1 living creature"
        },
        "time": {
            "value": "3"
        },
        "traditions": {
            "custom": "",
            "value": [
                "arcane",
                "occult",
                "primal"
            ]
        },
        "traits": {
            "custom": "",
            "rarity": {
                "value": "common"
            },
            "value": [
                "necromancy",
                "curse"
            ]
        },
        "usage": {
            "value": "held-in-one-hand"
        }
    },
    "effects": [],
    "flags": {},
    "img": "systems/pf2e/icons/spells/cup-of-dust.jpg",
    "name": "Cup of Dust",
    "permission": {
        "default": 0
    },
    "type": "spell"
}
