{
    "_id": "9BGEf9Sv5rgNBCk0",
    "data": {
        "ability": {
            "value": ""
        },
        "area": {
            "value": ""
        },
        "areasize": {
            "value": ""
        },
        "components": {
            "value": "Somatic, Verbal"
        },
        "cost": {
            "value": ""
        },
        "damage": {
            "applyMod": false,
            "value": ""
        },
        "damageType": {
            "value": ""
        },
        "description": {
            "chat": "",
            "unidentified": "",
            "value": "<p>You dance, @Compendium[pf2e.actionspf2e.Bcxarzksqt9ezrs6]{Striding} up to half your Speed. At either the start or end of your Stride, you create an area of magical darkness in a 10-foot burst centered on your location. This area is filled with magical darkness that works the same way as that created by a @Compendium[pf2e.spells-srd.4GE2ZdODgIQtg51c]{Darkness} spell of the same level. When you create the darkness, attempt a Performance check to dance, with a standard DC for your level, to determine the duration of the darkness.</p>\n<hr>\n<p><strong>Critical Success</strong>: 1 minute</p>\n<p><strong>Success</strong>: 2 rounds</p>\n<p><strong>Failure</strong>: 1 round</p>"
        },
        "duration": {
            "value": "Varies"
        },
        "level": {
            "value": 5
        },
        "location": {
            "value": "gj8uSdGt5Fbk1fGz"
        },
        "materials": {
            "value": ""
        },
        "prepared": {
            "value": ""
        },
        "primarycheck": {
            "value": ""
        },
        "range": {
            "value": ""
        },
        "rarity": {
            "value": "common"
        },
        "rules": [],
        "save": {
            "basic": "",
            "value": ""
        },
        "scaling": {
            "formula": "",
            "mode": "none"
        },
        "school": {
            "value": "evo"
        },
        "secondarycasters": {
            "value": ""
        },
        "secondarycheck": {
            "value": ""
        },
        "source": {
            "value": ""
        },
        "spellCategorie": {
            "value": "focus"
        },
        "spellCategory": {
            "value": ""
        },
        "spellType": {
            "value": "attack"
        },
        "sustained": {
            "value": false
        },
        "target": {
            "value": ""
        },
        "time": {
            "value": "2"
        },
        "traditions": {
            "value": []
        },
        "traits": {
            "custom": "",
            "rarity": {
                "value": "common"
            },
            "selected": {
                "darkness": "Darkness",
                "evocation": "Evocation"
            },
            "value": [
                "darkness",
                "evocation"
            ]
        },
        "usage": {
            "value": "held-in-one-hand"
        }
    },
    "effects": [],
    "flags": {},
    "img": "systems/pf2e/icons/spells/dance-of-darkness.jpg",
    "name": "Dance of Darkness",
    "permission": {
        "default": 0
    },
    "type": "spell"
}
