{
    "_id": "ziHDISWkFSwz3pmn",
    "data": {
        "ability": {
            "value": ""
        },
        "area": {
            "value": ""
        },
        "areasize": {
            "value": ""
        },
        "components": {
            "value": "Somatic, Verbal"
        },
        "cost": {
            "value": ""
        },
        "damage": {
            "applyMod": false,
            "value": "3d8"
        },
        "damageType": {
            "value": "positive"
        },
        "description": {
            "chat": "",
            "unidentified": "",
            "value": "<p>With a surge of healing energy, you push back against an affliction threatening the target and grant a small amount of healing. The target recovers [[/r 3d8]] Hit Points. You attempt to counteract any one affliction you are aware the target has, suspending its effects for 1 hour on a success rather than removing it. The target is then temporarily immune to<em> delay affliction</em> for 1 day. You don’t need to have identified the name of the specific affliction, but you do need to be aware of it; for instance, you couldn’t delay an ingested poison during its onset period unless you were aware of the poison.</p>\n<hr>\n<p><strong>Heightened (+1) </strong><span class=\"fontstyle0\">The target recovers an additional [[/r 1d8]] Hit Points and you can attempt to suspend an additional affliction.</span></p>"
        },
        "duration": {
            "value": ""
        },
        "level": {
            "value": 3
        },
        "location": {
            "value": ""
        },
        "materials": {
            "value": ""
        },
        "prepared": {
            "value": ""
        },
        "primarycheck": {
            "value": ""
        },
        "range": {
            "value": "30 feet"
        },
        "rarity": {
            "value": "common"
        },
        "rules": [],
        "save": {
            "basic": "",
            "value": ""
        },
        "scaling": {
            "formula": "1d8",
            "mode": "level1"
        },
        "school": {
            "value": "nec"
        },
        "secondarycasters": {
            "value": ""
        },
        "secondarycheck": {
            "value": ""
        },
        "source": {
            "value": ""
        },
        "spellCategorie": {
            "value": "focus"
        },
        "spellCategory": {
            "value": ""
        },
        "spellType": {
            "value": "attack"
        },
        "sustained": {
            "value": false
        },
        "target": {
            "value": "1 creature"
        },
        "time": {
            "value": "2 actions"
        },
        "traditions": {
            "value": []
        },
        "traits": {
            "custom": "cursebound",
            "rarity": {
                "value": "uncommon"
            },
            "value": [
                "healing",
                "necromancy",
                "oracle",
                "positive",
                "custom"
            ]
        },
        "usage": {
            "value": "held-in-one-hand"
        }
    },
    "effects": [],
    "flags": {},
    "img": "systems/pf2e/icons/spells/delay-affliction.jpg",
    "name": "Delay Affliction",
    "permission": {
        "default": 0
    },
    "type": "spell"
}
