{
    "_id": "6UafOE1ZUbHamsZJ",
    "data": {
        "ability": {
            "value": ""
        },
        "area": {
            "value": ""
        },
        "areasize": {
            "value": ""
        },
        "components": {
            "value": "somatic"
        },
        "cost": {
            "value": ""
        },
        "damage": {
            "applyMod": false,
            "value": ""
        },
        "damageType": {
            "value": ""
        },
        "description": {
            "chat": "",
            "unidentified": "",
            "value": "<p><strong>Trigger</strong> You cast a darkness or shadow spell.</p>\n<hr>\n<p>You magnify the darkness from the triggering effect, causing the ambient light level to flicker briefly so you can slip from sight. You can immediately attempt a Stealth check to @Compendium[pf2e.actionspf2e.XMcnh4cSI32tljXa]{Hide}, and you can become @Compendium[pf2e.conditionspf2e.iU0fEDdBp3rXpTMC]{Hidden} to a creature even if you don’t have cover and aren’t otherwise concealed from that creature. You cease being <a draggable=\"true\" data-pack=\"pf2e.conditionspf2e\" data-id=\"iU0fEDdBp3rXpTMC\"> Hidden</a> at the end of your turn unless you move into cover or become@Compendium[pf2e.conditionspf2e.DmAIPqOBomZ7H95W]{Concealed} before then.</p>"
        },
        "duration": {
            "value": ""
        },
        "level": {
            "value": 1
        },
        "location": {
            "value": ""
        },
        "materials": {
            "value": ""
        },
        "prepared": {
            "value": ""
        },
        "primarycheck": {
            "value": ""
        },
        "range": {
            "value": ""
        },
        "rarity": {
            "value": "common"
        },
        "rules": [],
        "save": {
            "basic": "",
            "value": ""
        },
        "scaling": {
            "formula": "",
            "mode": "none"
        },
        "school": {
            "value": "evo"
        },
        "secondarycasters": {
            "value": ""
        },
        "secondarycheck": {
            "value": ""
        },
        "source": {
            "value": ""
        },
        "spellCategorie": {
            "value": "focus"
        },
        "spellCategory": {
            "value": ""
        },
        "spellType": {
            "value": "utility"
        },
        "sustained": {
            "value": false
        },
        "target": {
            "value": ""
        },
        "time": {
            "value": "reaction"
        },
        "traditions": {
            "value": []
        },
        "traits": {
            "custom": "",
            "rarity": {
                "value": "uncommon"
            },
            "value": [
                "darkness",
                "evocation",
                "sorcerer"
            ]
        },
        "usage": {
            "value": "held-in-one-hand"
        }
    },
    "effects": [],
    "flags": {},
    "img": "systems/pf2e/icons/spells/dim-the-light.jpg",
    "name": "Dim the Light",
    "permission": {
        "default": 0
    },
    "type": "spell"
}
