{
    "_id": "KhM8MhoUgoUjBMIz",
    "data": {
        "ability": {
            "label": "Spellcasting Ability",
            "type": "String",
            "value": ""
        },
        "area": {
            "areaType": "",
            "label": "Area",
            "type": "String",
            "value": null
        },
        "areasize": {
            "value": ""
        },
        "components": {
            "label": "Spell Components",
            "type": "String",
            "value": "somatic, verbal"
        },
        "cost": {
            "label": "Cost",
            "type": "String",
            "value": ""
        },
        "damage": {
            "applyMod": false,
            "label": "Spell Damage",
            "type": "String",
            "value": ""
        },
        "damageType": {
            "label": "Damage Type",
            "type": "String",
            "value": ""
        },
        "description": {
            "chat": "",
            "label": "Description",
            "type": "String",
            "unidentified": "",
            "value": "<p>You channel the primal forces of nature to transform into a Large animal battle form, specifically that of a powerful and terrifying dinosaur. You must have space to expand or the spell is lost. When you cast this spell, choose ankylosaurus, brontosaurus, deinonychus, stegosaurus, triceratops, or tyrannosaurus. You can decide the specific type of animal, but this has no effect on the form's Size or statistics. While in this form, you gain the animal and dinosaur traits. You can Dismiss the spell.</p>\n<p>You gain the following statistics and abilities regardless of which battle form you choose:</p>\n<ul>\n<li>AC = 18 + your level. Ignore your armor's check penalty and Speed reduction.</li>\n<li>15 temporary Hit Points.</li>\n<li>Low-light vision and imprecise scent 30 feet.</li>\n<li>One or more unarmed melee attacks specific to the battle form you choose, which are the only attacks you can use. You're trained with them. Your attack modifier is +16, and your damage bonus is +9. These attacks are Strength based (for the purpose of the @Compendium[pf2e.conditionspf2e.MIRkyAjyBeXivMa7]{Enfeebled} condition, for example). If your unarmed attack modifier is higher, you can use it instead.</li>\n<li>Athletics modifier of +18, unless your own modifier is higher. You also gain specific abilities based on the form you choose:</li>\n</ul>\n<p>&nbsp;</p>\n<ul>\n<li><strong>Ankylosaurus</strong> Speed 25 feet; <strong>Melee</strong><span style=\"font-family: 'Pathfinder2eActions'; font-size: 1.8em; display: inline;\">A</span> tail (back swing, reach 10 feet), <strong>Damage</strong> 2d6 bludgeoning; <strong>Melee</strong> <span style=\"font-family: 'Pathfinder2eActions'; font-size: 1.8em; display: inline;\">A</span> foot, <strong>Damage</strong> 2d6 bludgeoning.</li>\n<li><strong>Brontosaurus</strong> Speed 25 feet; <strong>Melee</strong> <span style=\"font-family: 'Pathfinder2eActions'; font-size: 1.8em; display: inline;\">A</span> tail (reach 15 feet), <strong>Damage</strong> 2d6 bludgeoning; <strong>Melee</strong> <span style=\"font-family: 'Pathfinder2eActions'; font-size: 1.8em; display: inline;\">A</span> foot, <strong>Damage</strong> 2d8 bludgeoning.</li>\n<li><strong>Deinonychus</strong> Speed 40 feet; <strong>Melee</strong> <span style=\"font-family: 'Pathfinder2eActions'; font-size: 1.8em; display: inline;\">A</span> talon (agile), <strong>Damage</strong> 2d4 piercing plus 1 persistent bleed; <strong>Melee</strong> <span style=\"font-family: 'Pathfinder2eActions'; font-size: 1.8em; display: inline;\">A</span> jaws, <strong>Damage</strong> 1d10 piercing.</li>\n<li><strong>Stegosaurus</strong> Speed 30 feet; <strong>Melee</strong> <span style=\"font-family: 'Pathfinder2eActions'; font-size: 1.8em; display: inline;\">A</span> tail (reach 10 feet), <strong>Damage</strong> 2d8 piercing.</li>\n<li><strong>Triceratops</strong> Speed 30 feet; <strong>Melee</strong> <span style=\"font-family: 'Pathfinder2eActions'; font-size: 1.8em; display: inline;\">A</span> horn, <strong>Damage</strong> 2d8 piercing, plus 1d6 persistent bleed on a critical hit; <strong>Melee</strong><span style=\"font-family: 'Pathfinder2eActions'; font-size: 1.8em; display: inline;\">A</span> foot, <strong>Damage</strong> 2d6 bludgeoning.</li>\n<li><strong>Tyrannosaurus</strong> Speed 30 feet; <strong>Melee</strong> <span style=\"font-family: 'Pathfinder2eActions'; font-size: 1.8em; display: inline;\">A</span> jaws (deadly, reach 10 feet), <strong>Damage</strong> 1d12 piercing; <strong>Melee</strong> <span style=\"font-family: 'Pathfinder2eActions'; font-size: 1.8em; display: inline;\">A</span> tail (reach 10 feet), <strong>Damage</strong> 1d10 bludgeoning.</li>\n</ul>\n<hr>\n<p><strong>Heightened (5th)</strong> Your battle form is Huge and your attacks have 15-foot reach, or 20-foot reach if they started with 15-foot reach. You instead gain 20 temporary HP, an attack modifier of +18, a damage bonus of +6, double the damage dice, and Athletics +21.</p>\n<p><strong>Heightened (7th)</strong> Your battle form is Gargantuan and your attacks have 20-foot reach, or 25-foot reach if they started with 15-foot reach. You instead gain AC = 21 + your level, 25 temporary HP, an attack modifier of +25, a damage bonus of +15, double the damage dice, and Athletics +25.</p>"
        },
        "duration": {
            "label": "Duration",
            "type": "String",
            "value": "1 minute"
        },
        "level": {
            "label": "Spell Level",
            "type": "Number",
            "value": 4
        },
        "location": {
            "label": "Spellcasting Entry Location",
            "type": "String",
            "value": ""
        },
        "materials": {
            "label": "Materials",
            "type": "String",
            "value": ""
        },
        "prepared": {
            "label": "Prepared Spell",
            "type": "String",
            "value": ""
        },
        "primarycheck": {
            "value": ""
        },
        "range": {
            "label": "Range",
            "type": "String",
            "value": ""
        },
        "rarity": {
            "value": "common"
        },
        "rules": [],
        "save": {
            "basic": "",
            "label": "Saving Throw",
            "type": "String",
            "value": ""
        },
        "scaling": {
            "formula": "",
            "mode": "none"
        },
        "school": {
            "label": "Spell School",
            "type": "String",
            "value": "trs"
        },
        "secondarycasters": {
            "value": ""
        },
        "secondarycheck": {
            "value": ""
        },
        "source": {
            "label": "Source",
            "type": "String",
            "value": "https://2e.aonprd.com/Spells.aspx?ID=72"
        },
        "spellCategorie": {
            "value": "spell"
        },
        "spellCategory": {
            "value": ""
        },
        "spellType": {
            "label": "Spell Type",
            "type": "String",
            "value": "utility"
        },
        "sustained": {
            "label": "Can be Sustained",
            "type": "Boolean",
            "value": false
        },
        "target": {
            "label": "Target",
            "type": "String",
            "value": ""
        },
        "time": {
            "label": "Casting Time",
            "type": "String",
            "value": "2"
        },
        "traditions": {
            "label": "Spell Traditions",
            "type": "String",
            "value": [
                "primal"
            ]
        },
        "traits": {
            "custom": "",
            "label": "Spell Traits",
            "rarity": {
                "value": "common"
            },
            "type": "String",
            "value": [
                "polymorph",
                "transmutation"
            ]
        },
        "usage": {
            "value": "held-in-one-hand"
        }
    },
    "effects": [],
    "flags": {},
    "img": "systems/pf2e/icons/spells/dinosaur-form.jpg",
    "name": "Dinosaur Form",
    "permission": {
        "default": 0
    },
    "type": "spell"
}
