{
    "_id": "1xLVcA8Y1onw7toT",
    "data": {
        "ability": {
            "label": "Spellcasting Ability",
            "type": "String",
            "value": ""
        },
        "area": {
            "areaType": "",
            "label": "Area",
            "type": "String",
            "value": null
        },
        "areasize": {
            "value": "30-foot emanation"
        },
        "components": {
            "label": "Spell Components",
            "type": "String",
            "value": "verbal"
        },
        "cost": {
            "label": "Cost",
            "type": "String",
            "value": ""
        },
        "damage": {
            "applyMod": false,
            "label": "Spell Damage",
            "type": "String",
            "value": ""
        },
        "damageType": {
            "label": "Damage Type",
            "type": "String",
            "value": ""
        },
        "description": {
            "chat": "",
            "label": "Description",
            "type": "String",
            "unidentified": "",
            "value": "<p>Foes within the area are <a class=\"entity-link\" draggable=\"true\" data-pack=\"pf2e.conditionspf2e\" data-id=\"TBSHQspnbcqxsmjL\"> Frightened</a> 1. They can't reduce their Frightened value below 1 while they remain in the area.</p>"
        },
        "duration": {
            "label": "Duration",
            "type": "String",
            "value": "1 round"
        },
        "level": {
            "label": "Spell Level",
            "type": "Number",
            "value": 0
        },
        "location": {
            "label": "Spellcasting Entry Location",
            "type": "String",
            "value": ""
        },
        "materials": {
            "label": "Materials",
            "type": "String",
            "value": ""
        },
        "prepared": {
            "label": "Prepared Spell",
            "type": "String",
            "value": ""
        },
        "primarycheck": {
            "value": ""
        },
        "range": {
            "label": "Range",
            "type": "String",
            "value": ""
        },
        "rarity": {
            "value": "common"
        },
        "rules": [],
        "save": {
            "basic": "",
            "label": "Saving Throw",
            "type": "String",
            "value": ""
        },
        "scaling": {
            "formula": "",
            "mode": "none"
        },
        "school": {
            "label": "Spell School",
            "type": "String",
            "value": "enc"
        },
        "secondarycasters": {
            "value": ""
        },
        "secondarycheck": {
            "value": ""
        },
        "source": {
            "label": "Source",
            "type": "String",
            "value": "https://2e.aonprd.com/Spells.aspx?ID=382"
        },
        "spellCategorie": {
            "value": "focus"
        },
        "spellCategory": {
            "value": ""
        },
        "spellType": {
            "label": "Spell Type",
            "type": "String",
            "value": "utility"
        },
        "sustained": {
            "label": "Can be Sustained",
            "type": "Boolean",
            "value": false
        },
        "target": {
            "label": "Target",
            "type": "String",
            "value": ""
        },
        "time": {
            "label": "Casting Time",
            "type": "String",
            "value": "1"
        },
        "traditions": {
            "custom": "",
            "label": "Spell Traditions",
            "type": "String",
            "value": [
                "focus"
            ]
        },
        "traits": {
            "custom": "",
            "label": "Spell Traits",
            "rarity": {
                "value": "uncommon"
            },
            "type": "String",
            "value": [
                "bard",
                "cantrip",
                "composition",
                "emotion",
                "enchantment",
                "mental"
            ]
        },
        "usage": {
            "value": "held-in-one-hand"
        }
    },
    "effects": [],
    "flags": {},
    "img": "systems/pf2e/icons/spells/dirge-of-doom.jpg",
    "name": "Dirge of Doom",
    "permission": {
        "default": 0
    },
    "type": "spell"
}
