{
    "_id": "2RhZkHNv8ajq0yLq",
    "data": {
        "ability": {
            "value": ""
        },
        "area": {
            "areaType": "emanation",
            "value": 15
        },
        "areasize": {
            "value": "15-foot emanation"
        },
        "components": {
            "value": "somatic, verbal"
        },
        "cost": {
            "value": ""
        },
        "damage": {
            "applyMod": false,
            "value": ""
        },
        "damageType": {
            "value": ""
        },
        "description": {
            "chat": "",
            "unidentified": "",
            "value": "<p>A sickly yellow light fills the area as entropic forces prevent healing. When a creature within the area would regain Hit Points, such as from a healing effect or an ability like fast healing or regeneration, it must attempt a Will save.</p>\n<hr />\n<p><span id=\"ctl00_MainContent_DetailedOutput\"><strong>Critical Success</strong> The creature regains the full number of Hit Points that would be restored by the healing effect, and is temporarily immune for 1 minute.</span></p>\n<p><span id=\"ctl00_MainContent_DetailedOutput\"><strong>Success</strong> The creature regains the full number of Hit Points that would be restored.</span></p>\n<p><span id=\"ctl00_MainContent_DetailedOutput\"><strong>Failure</strong> The creature regains only half the number of Hit Points that would be restored.</span></p>\n<p><span id=\"ctl00_MainContent_DetailedOutput\"><strong>Critical Failure</strong> The creature does not regain Hit Points from the healing effect.&nbsp;</span></p>"
        },
        "duration": {
            "value": "sustained up to 1 minute"
        },
        "level": {
            "value": 4
        },
        "location": {
            "value": ""
        },
        "materials": {
            "value": ""
        },
        "prepared": {
            "value": ""
        },
        "primarycheck": {
            "value": ""
        },
        "range": {
            "value": "60 feet"
        },
        "rarity": {
            "value": "common"
        },
        "rules": [],
        "save": {
            "basic": "",
            "value": "will"
        },
        "scaling": {
            "formula": "",
            "mode": "none"
        },
        "school": {
            "value": "nec"
        },
        "secondarycasters": {
            "value": ""
        },
        "secondarycheck": {
            "value": ""
        },
        "source": {
            "value": ""
        },
        "spellCategorie": {
            "value": "focus"
        },
        "spellCategory": {
            "value": ""
        },
        "spellType": {
            "value": "save"
        },
        "sustained": {
            "value": false
        },
        "target": {
            "value": ""
        },
        "time": {
            "value": "2"
        },
        "traditions": {
            "custom": "",
            "value": [
                "focus"
            ]
        },
        "traits": {
            "custom": "",
            "rarity": {
                "value": "common"
            },
            "value": [
                "cleric",
                "necromancy",
                "negative"
            ]
        },
        "usage": {
            "value": "held-in-one-hand"
        }
    },
    "effects": [],
    "flags": {},
    "img": "systems/pf2e/icons/spells/fallow-field.jpg",
    "name": "Fallow Field",
    "permission": {
        "default": 0
    },
    "type": "spell"
}
