{
    "_id": "2YIr0S2Gt14PMMQp",
    "data": {
        "ability": {
            "label": "Spellcasting Ability",
            "type": "String",
            "value": ""
        },
        "area": {
            "areaType": "",
            "label": "Area",
            "type": "String",
            "value": null
        },
        "areasize": {
            "value": "20-foot radius on the ground"
        },
        "components": {
            "label": "Spell Components",
            "type": "String",
            "value": "somatic, verbal"
        },
        "cost": {
            "label": "Cost",
            "type": "String",
            "value": ""
        },
        "damage": {
            "applyMod": false,
            "label": "Spell Damage",
            "type": "String",
            "value": "6d6"
        },
        "damageType": {
            "label": "Damage Type",
            "type": "String",
            "value": "slashing"
        },
        "description": {
            "chat": "",
            "label": "Description",
            "type": "String",
            "unidentified": "",
            "value": "<p>Hundreds of skeletal arms erupt from the ground in the area, clawing at creatures within and attempting to hold them in place. The skeletal arms deal 6d6 slashing damage. Each creature in the area must attempt a Reflex save.</p>\r<p>\n<hr><b>Critical Success</b>  The creature is unaffected.</p>\r<p>\n<b>Success</b>  The creature takes half damage.</p>\r<p>\n<b>Failure</b>  The creature takes full damage and a –10-foot circumstance penalty to its Speeds for 1 round.</p>\r<p>\n<b>Critical Failure</b>  The creature takes double damage and is @Compendium[pf2e.conditionspf2e.eIcWbB5o3pP6OIMe]{Immobilized} for 1 round or until it Escapes.</p>\r<p>\n<hr><b>Heightened (+1)</b>  The damage increases by 2d6.</p>"
        },
        "duration": {
            "label": "Duration",
            "type": "String",
            "value": ""
        },
        "level": {
            "label": "Spell Level",
            "type": "Number",
            "value": 5
        },
        "location": {
            "label": "Spellcasting Entry Location",
            "type": "String",
            "value": ""
        },
        "materials": {
            "label": "Materials",
            "type": "String",
            "value": ""
        },
        "prepared": {
            "label": "Prepared Spell",
            "type": "String",
            "value": ""
        },
        "primarycheck": {
            "value": ""
        },
        "range": {
            "label": "Range",
            "type": "String",
            "value": "60 feet"
        },
        "rarity": {
            "value": "common"
        },
        "rules": [],
        "save": {
            "basic": "",
            "label": "Saving Throw",
            "type": "String",
            "value": "reflex"
        },
        "scaling": {
            "formula": "1d6",
            "mode": "level1"
        },
        "school": {
            "label": "Spell School",
            "type": "String",
            "value": "nec"
        },
        "secondarycasters": {
            "value": ""
        },
        "secondarycheck": {
            "value": ""
        },
        "source": {
            "label": "Source",
            "type": "String",
            "value": "https://2e.aonprd.com/Spells.aspx?ID=512"
        },
        "spellCategorie": {
            "value": "focus"
        },
        "spellCategory": {
            "value": ""
        },
        "spellType": {
            "label": "Spell Type",
            "type": "String",
            "value": "save"
        },
        "sustained": {
            "label": "Can be Sustained",
            "type": "Boolean",
            "value": false
        },
        "target": {
            "label": "Target",
            "type": "String",
            "value": ""
        },
        "time": {
            "label": "Casting Time",
            "type": "String",
            "value": "2"
        },
        "traditions": {
            "label": "Spell Traditions",
            "type": "String",
            "value": [
                "focus"
            ]
        },
        "traits": {
            "label": "Spell Traits",
            "rarity": {
                "value": "uncommon"
            },
            "type": "String",
            "value": [
                "necromancy",
                "sorcerer"
            ]
        },
        "usage": {
            "value": "held-in-one-hand"
        }
    },
    "effects": [],
    "flags": {},
    "img": "systems/pf2e/icons/spells/grasping-grave.jpg",
    "name": "Grasping Grave",
    "permission": {
        "default": 0
    },
    "type": "spell"
}
