{
    "_id": "PVXqMko4yGgw90uo",
    "data": {
        "ability": {
            "value": ""
        },
        "area": {
            "value": ""
        },
        "areasize": {
            "value": ""
        },
        "components": {
            "value": "somatic, verbal"
        },
        "cost": {
            "value": ""
        },
        "damage": {
            "applyMod": false,
            "value": ""
        },
        "damageType": {
            "value": ""
        },
        "description": {
            "chat": "",
            "unidentified": "",
            "value": "<p>You surround your target with wondrous illusions of their greatest desires, which distract them from reality. The target must attempt a Will save.</p>\n<hr>\n<p><strong>Critical Success </strong>The target disbelieves the illusion and is unaffected.</p>\n<p><strong>Success</strong> For 1 round, the target is @Compendium[pf2e.conditionspf2e.e1XGnhKNSQIm5IXg]{Stupefied} 2 and takes a –2 status penalty to any checks it makes to determine the effects of reactions.</p>\n<p><strong>Failure</strong> For 1 minute, the target is Stupefied 2 and can’t use reactions.</p>\n<p><strong>Critical Failure</strong> As failure, and all spaces are difficult terrain for the target.</p>\n<hr>\n<p><strong>Heightened (+2)</strong> You can target one additional creature.</p>"
        },
        "duration": {
            "value": "varies"
        },
        "level": {
            "value": 3
        },
        "location": {
            "value": ""
        },
        "materials": {
            "value": ""
        },
        "prepared": {
            "value": ""
        },
        "primarycheck": {
            "value": ""
        },
        "range": {
            "value": "60 feet"
        },
        "rarity": {
            "value": "common"
        },
        "rules": [],
        "save": {
            "basic": "",
            "value": "will"
        },
        "scaling": {
            "formula": "",
            "mode": "level2"
        },
        "school": {
            "value": "ill"
        },
        "secondarycasters": {
            "value": ""
        },
        "secondarycheck": {
            "value": ""
        },
        "source": {
            "value": ""
        },
        "spellCategorie": {
            "value": "focus"
        },
        "spellCategory": {
            "value": ""
        },
        "spellType": {
            "value": "save"
        },
        "sustained": {
            "value": false
        },
        "target": {
            "value": "1 creature"
        },
        "time": {
            "value": "2"
        },
        "traditions": {
            "value": []
        },
        "traits": {
            "custom": "",
            "rarity": {
                "value": "uncommon"
            },
            "value": [
                "emotion",
                "illusion",
                "mental",
                "sorcerer"
            ]
        },
        "usage": {
            "value": "held-in-one-hand"
        }
    },
    "effects": [],
    "flags": {},
    "img": "systems/pf2e/icons/spells/hearts-desire.jpg",
    "name": "Heart's Desire",
    "permission": {
        "default": 0
    },
    "type": "spell"
}
