{
    "_id": "EoKBlgf6Smt8opaU",
    "data": {
        "ability": {
            "label": "Spellcasting Ability",
            "type": "String",
            "value": ""
        },
        "area": {
            "areaType": "",
            "label": "Area",
            "type": "String",
            "value": null
        },
        "areasize": {
            "value": ""
        },
        "components": {
            "label": "Spell Components",
            "type": "String",
            "value": "material, somatic, verbal"
        },
        "cost": {
            "label": "Cost",
            "type": "String",
            "value": ""
        },
        "damage": {
            "applyMod": false,
            "label": "Spell Damage",
            "type": "String",
            "value": ""
        },
        "damageType": {
            "label": "Damage Type",
            "type": "String",
            "value": ""
        },
        "description": {
            "chat": "",
            "label": "Description",
            "type": "String",
            "unidentified": "",
            "value": "<p>You erect protective wards that make the target difficult to detect via magic. Nondetection attempts to counteract all detection, revelation, and scrying divinations made against the target or the target's gear throughout the duration, counting cantrips as 1st-level spells for this purpose. Successfully counteracting a divination that targets an area or multiple targets negates the effects only for nondetection's target.</p>"
        },
        "duration": {
            "label": "Duration",
            "type": "String",
            "value": "8 hours"
        },
        "level": {
            "label": "Spell Level",
            "type": "Number",
            "value": 3
        },
        "location": {
            "label": "Spellcasting Entry Location",
            "type": "String",
            "value": ""
        },
        "materials": {
            "label": "Materials",
            "type": "String",
            "value": ""
        },
        "prepared": {
            "label": "Prepared Spell",
            "type": "String",
            "value": ""
        },
        "primarycheck": {
            "value": ""
        },
        "range": {
            "label": "Range",
            "type": "String",
            "value": "touch"
        },
        "rarity": {
            "value": "common"
        },
        "rules": [],
        "save": {
            "basic": "",
            "label": "Saving Throw",
            "type": "String",
            "value": ""
        },
        "scaling": {
            "formula": "",
            "mode": "none"
        },
        "school": {
            "label": "Spell School",
            "type": "String",
            "value": "abj"
        },
        "secondarycasters": {
            "value": ""
        },
        "secondarycheck": {
            "value": ""
        },
        "source": {
            "label": "Source",
            "type": "String",
            "value": "https://2e.aonprd.com/Spells.aspx?ID=209"
        },
        "spellCategorie": {
            "value": "spell"
        },
        "spellCategory": {
            "value": ""
        },
        "spellType": {
            "label": "Spell Type",
            "type": "String",
            "value": "utility"
        },
        "sustained": {
            "label": "Can be Sustained",
            "type": "Boolean",
            "value": false
        },
        "target": {
            "label": "Target",
            "type": "String",
            "value": "1 creature or object"
        },
        "time": {
            "label": "Casting Time",
            "type": "String",
            "value": "10 minutes"
        },
        "traditions": {
            "label": "Spell Traditions",
            "type": "String",
            "value": [
                "arcane",
                "occult",
                "primal"
            ]
        },
        "traits": {
            "custom": "",
            "label": "Spell Traits",
            "rarity": {
                "value": "uncommon"
            },
            "type": "String",
            "value": [
                "uncommon",
                "abjuration"
            ]
        },
        "usage": {
            "value": "held-in-one-hand"
        }
    },
    "effects": [],
    "flags": {},
    "img": "systems/pf2e/icons/spells/nondetection.jpg",
    "name": "Nondetection",
    "permission": {
        "default": 0
    },
    "type": "spell"
}
