{
    "_id": "g4MAIQodRDVfNp1B",
    "data": {
        "ability": {
            "value": ""
        },
        "area": {
            "value": ""
        },
        "areasize": {
            "value": ""
        },
        "components": {
            "value": "Somatic"
        },
        "cost": {
            "value": ""
        },
        "damage": {
            "applyMod": false,
            "value": ""
        },
        "damageType": {
            "value": ""
        },
        "description": {
            "chat": "",
            "unidentified": "",
            "value": "<p>You summon an isolated blizzard of obscuring, scouring ice to follow your target. The target attempts a Fortitude save.</p>\n<hr>\n<p><strong>Critical Success</strong>: The target is unaffected.</p>\n<p><strong>Success</strong>: The target takes [[/r 1d6 #cold]] cold damage, and the spell ends.</p>\n<p><strong>Failure</strong>: The target takes [[/r 1d6 #cold]] cold damage and [[/r 1d6 #persistent cold]] persistent cold damage. (The persistent damage automatically ends when the spell ends.) It is @Compendium[pf2e.conditionspf2e.DmAIPqOBomZ7H95W]{Concealed} to other creatures, and other creatures are concealed to it.</p>\n<p><strong>Critical Failure</strong>: As failure, but both the cold damage and the persistent cold damage increase to [[/r 2d6]].</p>\n<hr>\n<p><strong>Heightened (+1)</strong>&nbsp;The cold damage and persistent cold damage increase by 1 (2 on a critical failure).</p>"
        },
        "duration": {
            "value": "Sustained up to 1 minute"
        },
        "level": {
            "value": 3
        },
        "location": {
            "value": "gj8uSdGt5Fbk1fGz"
        },
        "materials": {
            "value": ""
        },
        "prepared": {
            "value": ""
        },
        "primarycheck": {
            "value": ""
        },
        "range": {
            "value": "30 feet"
        },
        "rarity": {
            "value": "common"
        },
        "rules": [],
        "save": {
            "basic": "",
            "value": "fortitude"
        },
        "scaling": {
            "formula": "",
            "mode": "none"
        },
        "school": {
            "value": "con"
        },
        "secondarycasters": {
            "value": ""
        },
        "secondarycheck": {
            "value": ""
        },
        "source": {
            "value": ""
        },
        "spellCategorie": {
            "value": "focus"
        },
        "spellCategory": {
            "value": ""
        },
        "spellType": {
            "value": "attack"
        },
        "sustained": {
            "value": false
        },
        "target": {
            "value": "1 creature"
        },
        "time": {
            "value": "1"
        },
        "traditions": {
            "value": []
        },
        "traits": {
            "custom": "Hex",
            "rarity": {
                "value": "uncommon"
            },
            "selected": {
                "conjuration": "Conjuration",
                "custom": "Hex",
                "witch": "Witch"
            },
            "value": [
                "conjuration",
                "witch",
                "custom"
            ]
        },
        "usage": {
            "value": "held-in-one-hand"
        }
    },
    "effects": [],
    "flags": {},
    "img": "systems/pf2e/icons/spells/personal-blizzard.jpg",
    "name": "Personal Blizzard",
    "permission": {
        "default": 0
    },
    "type": "spell"
}
