{
    "_id": "VVAZPCvd4d90qVA1",
    "data": {
        "ability": {
            "label": "Spellcasting Ability",
            "type": "String",
            "value": ""
        },
        "area": {
            "areaType": "",
            "label": "Area",
            "type": "String",
            "value": null
        },
        "areasize": {
            "value": ""
        },
        "components": {
            "label": "Spell Components",
            "type": "String",
            "value": "material, somatic, verbal"
        },
        "cost": {
            "label": "Cost",
            "type": "String",
            "value": ""
        },
        "damage": {
            "applyMod": false,
            "label": "Spell Damage",
            "type": "String",
            "value": ""
        },
        "damageType": {
            "label": "Damage Type",
            "type": "String",
            "value": ""
        },
        "description": {
            "chat": "",
            "label": "Description",
            "type": "String",
            "unidentified": "",
            "value": "<p>You change the target's text to different text entirely. If the text is a spellbook or a scroll, you can change it to show a spell you know of secret page's level or lower. The replacement spell cannot be cast or used to prepare a spell. You can also transform the text into some other text you have written or have access to. You can specify a password that allows a creature touching the page to change the text back and forth. You must choose the replacement text and the password, if any, when you Cast the Spell.</p>"
        },
        "duration": {
            "label": "Duration",
            "type": "String",
            "value": "unlimited"
        },
        "level": {
            "label": "Spell Level",
            "type": "Number",
            "value": 3
        },
        "location": {
            "label": "Spellcasting Entry Location",
            "type": "String",
            "value": ""
        },
        "materials": {
            "label": "Materials",
            "type": "String",
            "value": ""
        },
        "prepared": {
            "label": "Prepared Spell",
            "type": "String",
            "value": ""
        },
        "primarycheck": {
            "value": ""
        },
        "range": {
            "label": "Range",
            "type": "String",
            "value": "touch"
        },
        "rarity": {
            "value": "common"
        },
        "rules": [],
        "save": {
            "basic": "",
            "label": "Saving Throw",
            "type": "String",
            "value": ""
        },
        "scaling": {
            "formula": "",
            "mode": "none"
        },
        "school": {
            "label": "Spell School",
            "type": "String",
            "value": "ill"
        },
        "secondarycasters": {
            "value": ""
        },
        "secondarycheck": {
            "value": ""
        },
        "source": {
            "label": "Source",
            "type": "String",
            "value": "https://2e.aonprd.com/Spells.aspx?ID=270"
        },
        "spellCategorie": {
            "value": "spell"
        },
        "spellCategory": {
            "value": ""
        },
        "spellType": {
            "label": "Spell Type",
            "type": "String",
            "value": "utility"
        },
        "sustained": {
            "label": "Can be Sustained",
            "type": "Boolean",
            "value": false
        },
        "target": {
            "label": "Target",
            "type": "String",
            "value": "1 page up to 3 square feet in size"
        },
        "time": {
            "label": "Casting Time",
            "type": "String",
            "value": "1 minute"
        },
        "traditions": {
            "label": "Spell Traditions",
            "type": "String",
            "value": [
                "arcane",
                "occult"
            ]
        },
        "traits": {
            "label": "Spell Traits",
            "rarity": {
                "value": "common"
            },
            "type": "String",
            "value": [
                "illusion",
                "visual"
            ]
        },
        "usage": {
            "value": "held-in-one-hand"
        }
    },
    "effects": [],
    "flags": {},
    "img": "systems/pf2e/icons/spells/secret-page.jpg",
    "name": "Secret Page",
    "permission": {
        "default": 0
    },
    "type": "spell"
}
