{
    "_id": "BoA00y45uDlmou07",
    "data": {
        "ability": {
            "value": ""
        },
        "area": {
            "value": ""
        },
        "areasize": {
            "value": ""
        },
        "components": {
            "value": "material, somatic, verbal"
        },
        "cost": {
            "value": ""
        },
        "damage": {
            "applyMod": false,
            "value": ""
        },
        "damageType": {
            "value": ""
        },
        "description": {
            "chat": "",
            "unidentified": "",
            "value": "<p>You banish a container and its contents to the Ethereal Plane, where you can retrieve it from later. The container&rsquo;s physical properties&mdash;the material from which it is made, any locks, or other features&mdash;are irrelevant to the casting of this spell, but the container can&rsquo;t contain any creatures. When you@Compendium[pf2e.actionspf2e.aBQ8ajvEBByv45yz]{Cast this Spell}, the container and all its contents are transported to a random location deep in the Ethereal Plane. Time passes normally for the container and its contents, and the environmental effects of the Ethereal Plane apply to it. Though very unlikely, it&rsquo;s possible for a creature on the Ethereal Plane to stumble upon the chest.</p>\n<p>You can @Compendium[pf2e.actionspf2e.AjLSHZSWQ90exdLo]{Dismiss} the spell to return the chest to your current location. If the spell ends by any other means, the container is lost on the Ethereal Plane and you can no longer recall it with this spell, though you could search for it in other ways.</p>"
        },
        "duration": {
            "value": "until the next time you make your daily preparations"
        },
        "level": {
            "value": 5
        },
        "location": {
            "value": ""
        },
        "materials": {
            "value": ""
        },
        "prepared": {
            "value": false
        },
        "primarycheck": {
            "value": ""
        },
        "range": {
            "value": "touch"
        },
        "rarity": {
            "value": "common"
        },
        "rules": [],
        "save": {
            "basic": "",
            "value": ""
        },
        "scaling": {
            "formula": "",
            "mode": "none"
        },
        "school": {
            "value": "con"
        },
        "secondarycasters": {
            "value": ""
        },
        "secondarycheck": {
            "value": ""
        },
        "source": {
            "value": ""
        },
        "spellCategorie": {
            "value": "spell"
        },
        "spellCategory": {
            "value": ""
        },
        "spellType": {
            "value": "utility"
        },
        "sustained": {
            "value": false
        },
        "target": {
            "value": "1 container and its contents, totaling 10 Bulk or less"
        },
        "time": {
            "value": "1 minute"
        },
        "traditions": {
            "value": [
                "arcane",
                "occult"
            ]
        },
        "traits": {
            "custom": "",
            "rarity": {
                "value": "common"
            },
            "value": [
                "conjuration"
            ]
        },
        "usage": {
            "value": ""
        }
    },
    "effects": [],
    "flags": {},
    "img": "systems/pf2e/icons/spells/secret-chest.jpg",
    "name": "Secret Chest",
    "permission": {
        "default": 0
    },
    "type": "spell"
}
