{
    "_id": "RGBZrVRIEDb2G48h",
    "data": {
        "ability": {
            "value": ""
        },
        "area": {
            "value": ""
        },
        "areasize": {
            "value": ""
        },
        "components": {
            "value": "somatic, verbal"
        },
        "cost": {
            "value": ""
        },
        "damage": {
            "applyMod": false,
            "value": "2d8"
        },
        "damageType": {
            "value": "healing"
        },
        "description": {
            "chat": "",
            "unidentified": "",
            "value": "<p id=\"docs-internal-guid-761c1ad3-7fff-fd1b-bad9-d01ea6e6a9d9\" dir=\"ltr\">You call forth a magical mist of positive energy that envelops a creature. The mist restores [[/r 2d8]] Hit Points to a target living creature and ends one source of persistent acid, bleed, fire, negative, or poison damage affecting it. If the creature is taking persistent damage from multiple sources, you select which one is removed. Against an undead target, you deal [[/r 2d8 #positive]] positive damage (basic Fortitude save); if it fails the save, it also takes [[/r 2 #persistent positive]] persistent positive damage.</p>\n<hr>\n<p dir=\"ltr\"><strong>Heightened (+1)</strong> The amount of healing (or damage to an undead target) increases by [[/r 1d8]], and the persistent positive damage to an undead creature increases by [[/r 1]].</p>"
        },
        "duration": {
            "value": ""
        },
        "level": {
            "value": 2
        },
        "location": {
            "value": ""
        },
        "materials": {
            "value": ""
        },
        "prepared": {
            "value": ""
        },
        "primarycheck": {
            "value": ""
        },
        "range": {
            "value": "30 feet"
        },
        "rarity": {
            "value": "common"
        },
        "rules": [],
        "save": {
            "basic": "basic",
            "value": "fortitude"
        },
        "scaling": {
            "formula": "1d8",
            "mode": "level1"
        },
        "school": {
            "value": "nec"
        },
        "secondarycasters": {
            "value": ""
        },
        "secondarycheck": {
            "value": ""
        },
        "source": {
            "value": ""
        },
        "spellCategorie": {
            "value": "focus"
        },
        "spellCategory": {
            "value": ""
        },
        "spellType": {
            "value": "heal"
        },
        "sustained": {
            "value": false
        },
        "target": {
            "value": "1 willing living creature or 1 undead creature"
        },
        "time": {
            "value": "2"
        },
        "traditions": {
            "value": []
        },
        "traits": {
            "custom": "",
            "rarity": {
                "value": "uncommon"
            },
            "value": [
                "healing",
                "necromancy",
                "positive",
                "ranger"
            ]
        },
        "usage": {
            "value": "held-in-one-hand"
        }
    },
    "effects": [],
    "flags": {},
    "img": "systems/pf2e/icons/spells/soothing-mist.jpg",
    "name": "Soothing Mist",
    "permission": {
        "default": 0
    },
    "type": "spell"
}
