{
    "_id": "P9bqJsF3WkxGAJKJ",
    "data": {
        "ability": {
            "label": "Spellcasting Ability",
            "type": "String",
            "value": ""
        },
        "area": {
            "areaType": "",
            "label": "Area",
            "type": "String",
            "value": null
        },
        "areasize": {
            "value": ""
        },
        "components": {
            "label": "Spell Components",
            "type": "String",
            "value": "somatic"
        },
        "cost": {
            "label": "Cost",
            "type": "String",
            "value": ""
        },
        "damage": {
            "applyMod": false,
            "label": "Spell Damage",
            "type": "String",
            "value": ""
        },
        "damageType": {
            "label": "Damage Type",
            "type": "String",
            "value": ""
        },
        "description": {
            "chat": "",
            "label": "Description",
            "type": "String",
            "unidentified": "",
            "value": "<p><strong>Trigger&nbsp;</strong>An enemy misses you with a melee attack.</p>\n<hr>\n<p>You swiftly move from a dangerous spot and veil yourself. You Step and become @Compendium[pf2e.conditionspf2e.DmAIPqOBomZ7H95W]{Concealed}.</p>"
        },
        "duration": {
            "label": "Duration",
            "type": "String",
            "value": "until the end of your next turn"
        },
        "level": {
            "label": "Spell Level",
            "type": "Number",
            "value": 1
        },
        "location": {
            "label": "Spellcasting Entry Location",
            "type": "String",
            "value": ""
        },
        "materials": {
            "label": "Materials",
            "type": "String",
            "value": ""
        },
        "prepared": {
            "label": "Prepared Spell",
            "type": "String",
            "value": ""
        },
        "primarycheck": {
            "value": ""
        },
        "range": {
            "label": "Range",
            "type": "String",
            "value": ""
        },
        "rarity": {
            "value": "common"
        },
        "rules": [],
        "save": {
            "basic": "",
            "label": "Saving Throw",
            "type": "String",
            "value": ""
        },
        "scaling": {
            "formula": "",
            "mode": "none"
        },
        "school": {
            "label": "Spell School",
            "type": "String",
            "value": "abj"
        },
        "secondarycasters": {
            "value": ""
        },
        "secondarycheck": {
            "value": ""
        },
        "source": {
            "label": "Source",
            "type": "String",
            "value": "https://2e.aonprd.com/Spells.aspx?ID=454"
        },
        "spellCategorie": {
            "value": "focus"
        },
        "spellCategory": {
            "value": ""
        },
        "spellType": {
            "label": "Spell Type",
            "type": "String",
            "value": "utility"
        },
        "sustained": {
            "label": "Can be Sustained",
            "type": "Boolean",
            "value": false
        },
        "target": {
            "label": "Target",
            "type": "String",
            "value": ""
        },
        "time": {
            "label": "Casting Time",
            "type": "String",
            "value": "reaction"
        },
        "traditions": {
            "label": "Spell Traditions",
            "type": "String",
            "value": [
                "focus"
            ]
        },
        "traits": {
            "label": "Spell Traits",
            "rarity": {
                "value": "uncommon"
            },
            "type": "String",
            "value": [
                "abjuration",
                "cleric",
                "illusion"
            ]
        },
        "usage": {
            "value": "held-in-one-hand"
        }
    },
    "effects": [],
    "flags": {
        "dynamiceffects": {
            "alwaysActive": false,
            "equipActive": false
        }
    },
    "img": "systems/pf2e/icons/spells/sudden-shift.jpg",
    "name": "Sudden Shift",
    "permission": {
        "default": 0
    },
    "type": "spell"
}
