{
    "_id": "pMTltbI3S3UIuFaR",
    "data": {
        "ability": {
            "value": ""
        },
        "area": {
            "areaType": "",
            "value": null
        },
        "areasize": {
            "value": ""
        },
        "components": {
            "value": "somatic, verbal"
        },
        "cost": {
            "value": ""
        },
        "damage": {
            "applyMod": false,
            "value": "1d4"
        },
        "damageType": {
            "value": "fire"
        },
        "description": {
            "chat": "",
            "unidentified": "",
            "value": "<p>You fire a ray of burning sunlight from your weapon. You must be wielding a sword or spear to cast <em>sun blade</em>, and you perform this spell&rsquo;s somatic component with the weapon. Make a spell attack roll. The ray deals 1d4 fire damage. If the target is evil, the ray deals an additional 1d4 good damage, and if the target is undead, the ray deals an additional 1d4 positive damage (both effects apply against creatures that are both evil and undead). If you are in an area of bright natural sunlight, increase the die size of each damage die by one step (from d4 to d6).</p>\n<hr />\n<p><span id=\"ctl00_MainContent_DetailedOutput\"><strong>Critical Success</strong> The ray deals double damage.</span></p>\n<p><span id=\"ctl00_MainContent_DetailedOutput\"><strong>Failure</strong> The ray deals full damage.</span></p>\n<hr />\n<p><strong>Heightened (+1)</strong> The damage increases by 1d4 fire, 1d4 good, and 1d4 positive (or 1d6 of each type of damage in bright natural sunlight).&nbsp;</p>"
        },
        "duration": {
            "value": ""
        },
        "level": {
            "value": 2
        },
        "location": {
            "value": ""
        },
        "materials": {
            "value": ""
        },
        "prepared": {
            "value": ""
        },
        "primarycheck": {
            "value": ""
        },
        "range": {
            "value": "60 feet"
        },
        "rarity": {
            "value": "common"
        },
        "rules": [],
        "save": {
            "basic": "",
            "value": ""
        },
        "scaling": {
            "formula": "1d4",
            "mode": "level1"
        },
        "school": {
            "value": "evo"
        },
        "secondarycasters": {
            "value": ""
        },
        "secondarycheck": {
            "value": ""
        },
        "source": {
            "value": ""
        },
        "spellCategorie": {
            "value": "focus"
        },
        "spellCategory": {
            "value": ""
        },
        "spellType": {
            "value": "attack"
        },
        "sustained": {
            "value": false
        },
        "target": {
            "value": "1 creature"
        },
        "time": {
            "value": "2"
        },
        "traditions": {
            "custom": "",
            "value": [
                "focus"
            ]
        },
        "traits": {
            "custom": "",
            "rarity": {
                "value": "uncommon"
            },
            "value": [
                "uncommon",
                "light",
                "fire",
                "positive",
                "evocation"
            ]
        },
        "usage": {
            "value": "held-in-one-hand"
        }
    },
    "effects": [],
    "flags": {},
    "img": "systems/pf2e/icons/spells/sunblade.jpg",
    "name": "Sun Blade",
    "permission": {
        "default": 0
    },
    "type": "spell"
}
