{
    "_id": "nzbnTqHgNKiGZkrZ",
    "data": {
        "ability": {
            "value": ""
        },
        "area": {
            "value": ""
        },
        "areasize": {
            "value": ""
        },
        "components": {
            "value": ""
        },
        "cost": {
            "value": "rare oils and powdered minerals worth  5,000 gp;"
        },
        "damage": {
            "applyMod": false,
            "value": ""
        },
        "damageType": {
            "value": ""
        },
        "description": {
            "chat": "",
            "unidentified": "",
            "value": "<p>You bind yourself and your allies to the specific safe location&nbsp;where you perform the ritual. This allows the participants to&nbsp;return later by simply speaking a word.</p>\n<hr>\n<p><strong>Success</strong> You form the connection with the designated&nbsp;sanctuary. Any participant in the ritual can spend a single&nbsp;action, which has the concentrate trait, to utter a word of&nbsp;power you choose when you cast the spell. When they do,&nbsp;all the participants can immediately return to the sanctuary&nbsp;from any distance, as long as they are on the same plane&nbsp;as the sanctuary. Each participant arrives in the position in&nbsp;which they were standing during the casting of the ritual.&nbsp;When the word is spoken, all other participants know it, and&nbsp;each can choose whether or not to return to the sanctuary&nbsp;at that time. The ritual then immediately ends.</p>\n<p><strong>Failure </strong>You fail to form the connection between the participants&nbsp;and the sanctuary and are aware that the ritual has failed.</p>\n<p><strong>Critical Failure</strong> The ritual inadvertently forms a connection&nbsp;with a location on another plane. The casters are unaware&nbsp;of this misalignment. When the word is invoked, all ritual&nbsp;participants are shifted to this extraplanar location.</p>\n<hr>\n<p><strong>Heightened (+1) </strong>The cost increases by 5,000 gp, the ritual&nbsp;can target one more creature, and the maximum level of&nbsp;creature it can target increases by 2.</p>"
        },
        "duration": {
            "value": "1 year"
        },
        "level": {
            "value": 7
        },
        "location": {
            "value": ""
        },
        "materials": {
            "value": ""
        },
        "prepared": {
            "value": ""
        },
        "primarycheck": {
            "value": "Arcana or Occultism (expert, the check has  the secret trait)"
        },
        "range": {
            "value": "20 feet"
        },
        "rarity": {
            "value": "common"
        },
        "rules": [],
        "save": {
            "basic": "",
            "value": ""
        },
        "scaling": {
            "formula": "",
            "mode": "none"
        },
        "school": {
            "value": "con"
        },
        "secondarycasters": {
            "value": "2"
        },
        "secondarycheck": {
            "value": "Arcana or Occultism  (whichever isn’t used for the primary check), Society"
        },
        "source": {
            "value": ""
        },
        "spellCategorie": {
            "value": "ritual"
        },
        "spellCategory": {
            "value": ""
        },
        "spellType": {
            "value": "utility"
        },
        "sustained": {
            "value": false
        },
        "target": {
            "value": "Up to seven willing creatures of 14th  level or lower"
        },
        "time": {
            "value": "7 days"
        },
        "traditions": {
            "value": []
        },
        "traits": {
            "custom": "",
            "rarity": {
                "value": "rare"
            },
            "value": [
                "conjuration",
                "teleportation"
            ]
        },
        "usage": {
            "value": "held-in-one-hand"
        }
    },
    "effects": [],
    "flags": {},
    "img": "systems/pf2e/icons/spells/word-of-recall.jpg",
    "name": "Word of Recall",
    "permission": {
        "default": 0
    },
    "type": "spell"
}
