{
    "_id": "ZZKZkeSP5TuT62IA",
    "data": {
        "actionCategory": {
            "value": ""
        },
        "actionType": {
            "value": "passive"
        },
        "actions": {
            "value": null
        },
        "description": {
            "chat": "",
            "unidentified": "",
            "value": "<p><span class=\"fontstyle0\">Thanks to an ancient bargain, your soul has been reborn<br>as a duskwalker, a planar scion with a connection to<br>psychopomps and the Boneyard. You gain the duskwalker<br>trait in addition to the traits from your ancestry. You<br>also gain <a class=\"entity-link\" draggable=\"true\" data-pack=\"pf2e.ancestryfeatures\" data-id=\"DRtaqOHXTRtGRIUT\"> Low-Light Vision</a>, or you gain <a class=\"entity-link\" draggable=\"true\" data-pack=\"pf2e.ancestryfeatures\" data-id=\"HHVQDp61ehcpdiU8\"> Darkvision</a> if your<br>ancestry already has low-light vision. Neither your body<br>nor your spirit can ever become undead. You can choose<br>from duskwalker feats and feats from your ancestry<br>whenever you gain an ancestry feat.</span></p>"
        },
        "featType": {
            "value": "ancestryfeature"
        },
        "level": {
            "value": "1"
        },
        "prerequisites": {
            "value": null
        },
        "rarity": {
            "value": "common"
        },
        "rules": [],
        "source": {
            "value": ""
        },
        "traits": {
            "custom": "",
            "rarity": {
                "value": "uncommon"
            },
            "value": [
                "duskwalker"
            ]
        },
        "usage": {
            "value": "held-in-one-hand"
        }
    },
    "effects": [],
    "flags": {},
    "img": "systems/pf2e/icons/features/ancestry/duskwalker.jpg",
    "name": "Duskwalker",
    "permission": {
        "default": 0
    },
    "type": "feat"
}
