{
    "_id": "HpqQ5VQ0w4HqYgVC",
    "data": {
        "actionCategory": {
            "value": ""
        },
        "actionType": {
            "value": "passive"
        },
        "actions": {
            "value": null
        },
        "description": {
            "chat": "",
            "unidentified": "",
            "value": "<p>You're descended from jungle stalkers and can move swiftly through scrub and underbrush. You ignore difficult terrain from undergrowth, and greater difficult terrain from undergrowth is only difficult terrain for you.</p>"
        },
        "featType": {
            "value": "ancestryfeature"
        },
        "level": {
            "value": "1"
        },
        "prerequisites": {
            "value": null
        },
        "rarity": {
            "value": "common"
        },
        "rules": [],
        "source": {
            "value": ""
        },
        "traits": {
            "custom": "",
            "rarity": {
                "value": "common"
            },
            "value": [
                "catfolk"
            ]
        },
        "usage": {
            "value": "held-in-one-hand"
        }
    },
    "effects": [],
    "flags": {},
    "img": "systems/pf2e/icons/features/ancestry/jungle-catfolk.jpg",
    "name": "Jungle Catfolk",
    "permission": {
        "default": 0
    },
    "type": "feat"
}
