{
    "_id": "0vaeOoECfVD5EGbq",
    "data": {
        "actionCategory": {
            "value": ""
        },
        "actionType": {
            "value": "passive"
        },
        "actions": {
            "value": null
        },
        "description": {
            "chat": "",
            "unidentified": "",
            "value": "<p>Your ancestors lived underground. Your ears are larger than those of other hobgoblins and sensitive to echoes. When you are underground, you can use the <a class=\"entity-link\" draggable=\"true\" data-pack=\"pf2e.actionspf2e\" data-id=\"BlAOM2X92SI6HMtJ\"> Seek</a> action to sense <a class=\"entity-link\" draggable=\"true\" data-pack=\"pf2e.conditionitems\" data-id=\"VRSef5y1LmL2Hkjf\"> Undetected</a> creatures within a 30-foot burst instead of a 15-foot burst. In addition, if you roll a success on an Acrobatics check to <a class=\"entity-link\" draggable=\"true\" data-pack=\"pf2e.actionspf2e\" data-id=\"kMcV8e5EZUxa6evt\"> Squeeze</a>, you get a critical success instead.</p>"
        },
        "featType": {
            "value": "ancestryfeature"
        },
        "level": {
            "value": "1"
        },
        "prerequisites": {
            "value": null
        },
        "rarity": {
            "value": "common"
        },
        "rules": [],
        "source": {
            "value": ""
        },
        "traits": {
            "custom": "",
            "rarity": {
                "value": "common"
            },
            "value": [
                "hobgoblin"
            ]
        },
        "usage": {
            "value": "held-in-one-hand"
        }
    },
    "effects": [],
    "flags": {},
    "img": "systems/pf2e/icons/features/ancestry/warrenbred-hobgoblin.jpg",
    "name": "Warrenbred Hobgoblin",
    "permission": {
        "default": 0
    },
    "type": "feat"
}
